%!PS-Adobe-3.0 EPSF-3.0
%%Creator: cairo 1.14.2 (http://cairographics.org)
%%CreationDate: Wed Aug 17 12:25:31 2016
%%Pages: 1
%%DocumentData: Clean7Bit
%%LanguageLevel: 2
%%BoundingBox: 0 -1 410 327
%%EndComments
%%BeginProlog
save
50 dict begin
/q { gsave } bind def
/Q { grestore } bind def
/cm { 6 array astore concat } bind def
/w { setlinewidth } bind def
/J { setlinecap } bind def
/j { setlinejoin } bind def
/M { setmiterlimit } bind def
/d { setdash } bind def
/m { moveto } bind def
/l { lineto } bind def
/c { curveto } bind def
/h { closepath } bind def
/re { exch dup neg 3 1 roll 5 3 roll moveto 0 rlineto
      0 exch rlineto 0 rlineto closepath } bind def
/S { stroke } bind def
/f { fill } bind def
/f* { eofill } bind def
/n { newpath } bind def
/W { clip } bind def
/W* { eoclip } bind def
/BT { } bind def
/ET { } bind def
/pdfmark where { pop globaldict /?pdfmark /exec load put }
    { globaldict begin /?pdfmark /pop load def /pdfmark
    /cleartomark load def end } ifelse
/BDC { mark 3 1 roll /BDC pdfmark } bind def
/EMC { mark /EMC pdfmark } bind def
/cairo_store_point { /cairo_point_y exch def /cairo_point_x exch def } def
/Tj { show currentpoint cairo_store_point } bind def
/TJ {
  {
    dup
    type /stringtype eq
    { show } { -0.001 mul 0 cairo_font_matrix dtransform rmoveto } ifelse
  } forall
  currentpoint cairo_store_point
} bind def
/cairo_selectfont { cairo_font_matrix aload pop pop pop 0 0 6 array astore
    cairo_font exch selectfont cairo_point_x cairo_point_y moveto } bind def
/Tf { pop /cairo_font exch def /cairo_font_matrix where
      { pop cairo_selectfont } if } bind def
/Td { matrix translate cairo_font_matrix matrix concatmatrix dup
      /cairo_font_matrix exch def dup 4 get exch 5 get cairo_store_point
      /cairo_font where { pop cairo_selectfont } if } bind def
/Tm { 2 copy 8 2 roll 6 array astore /cairo_font_matrix exch def
      cairo_store_point /cairo_font where { pop cairo_selectfont } if } bind def
/g { setgray } bind def
/rg { setrgbcolor } bind def
/d1 { setcachedevice } bind def
%%EndProlog
%%BeginSetup
%%EndSetup
%%Page: 1 1
%%BeginPageSetup
%%PageBoundingBox: 0 -1 410 327
%%EndPageSetup
q 0 -1 410 328 rectclip q
1 0.309804 0.164706 rg
300.93 313.472 25.078 -300.93 re f
1 0.513726 0.184314 rg
192.262 313.472 25.078 -300.93 re f
83.594 313.472 25.074 -300.93 re f
1 0.721569 0.2 rg
12.539 225.703 m 12.539 200.624 l 204.801 200.624 l 213.16 213.164 l 204.801
 225.703 l h
12.539 225.703 m f
1 0.513726 0.184314 rg
204.801 225.699 192.262 -25.078 re f
1 0.721569 0.2 rg
25.078 25.078 m 25.078 300.933 l 204.801 300.933 l 204.801 326.011 l 0 
326.011 l 0 -0.001 l 204.801 -0.001 l 204.801 25.078 l h
25.078 25.078 m f
1 0.513726 0.184314 rg
409.602 326.011 m 204.801 326.011 l 204.801 300.933 l 384.523 300.933 l
 384.523 25.078 l 204.801 25.078 l 204.801 -0.001 l 409.602 -0.001 l h
409.602 326.011 m f
1 0.101961 0.14902 rg
167.184 175.542 m 167.184 150.464 l 204.801 150.464 l 213.16 163.003 l 
204.801 175.542 l h
167.184 175.542 m f
0.752941 0.0784314 0.109804 rg
204.801 175.542 37.613 -25.074 re f
275.852 175.542 75.234 -25.074 re f
1 0.101961 0.14902 rg
167.184 125.386 m 167.184 100.312 l 204.801 100.312 l 213.16 112.847 l 
204.801 125.386 l h
167.184 125.386 m f
0.752941 0.0784314 0.109804 rg
204.801 125.39 37.613 -25.078 re f
275.852 125.39 75.234 -25.078 re f
1 0.101961 0.14902 rg
167.184 75.234 m 167.184 50.156 l 204.801 50.156 l 213.16 62.695 l 204.801
 75.234 l h
167.184 75.234 m f
0.752941 0.0784314 0.109804 rg
204.801 75.234 37.613 -25.078 re f
275.852 75.234 75.234 -25.078 re f
275.852 275.855 75.234 -25.078 re f
1 0.101961 0.14902 rg
58.516 175.542 75.23 -25.074 re f
58.516 125.39 75.23 -25.078 re f
58.516 75.234 75.23 -25.078 re f
58.516 275.855 75.23 -25.078 re f
167.184 275.851 m 167.184 250.777 l 204.801 250.777 l 213.16 263.316 l 
204.801 275.851 l h
167.184 275.851 m f
0.752941 0.0784314 0.109804 rg
204.801 275.855 37.613 -25.078 re f
Q Q
showpage
%%Trailer
end restore
%%EOF
