%!PS-Adobe-3.0 EPSF-3.0
%%Creator: cairo 1.14.2 (http://cairographics.org)
%%CreationDate: Wed Aug 17 12:26:02 2016
%%Pages: 1
%%DocumentData: Clean7Bit
%%LanguageLevel: 2
%%BoundingBox: 0 -1 339 410
%%EndComments
%%BeginProlog
save
50 dict begin
/q { gsave } bind def
/Q { grestore } bind def
/cm { 6 array astore concat } bind def
/w { setlinewidth } bind def
/J { setlinecap } bind def
/j { setlinejoin } bind def
/M { setmiterlimit } bind def
/d { setdash } bind def
/m { moveto } bind def
/l { lineto } bind def
/c { curveto } bind def
/h { closepath } bind def
/re { exch dup neg 3 1 roll 5 3 roll moveto 0 rlineto
      0 exch rlineto 0 rlineto closepath } bind def
/S { stroke } bind def
/f { fill } bind def
/f* { eofill } bind def
/n { newpath } bind def
/W { clip } bind def
/W* { eoclip } bind def
/BT { } bind def
/ET { } bind def
/pdfmark where { pop globaldict /?pdfmark /exec load put }
    { globaldict begin /?pdfmark /pop load def /pdfmark
    /cleartomark load def end } ifelse
/BDC { mark 3 1 roll /BDC pdfmark } bind def
/EMC { mark /EMC pdfmark } bind def
/cairo_store_point { /cairo_point_y exch def /cairo_point_x exch def } def
/Tj { show currentpoint cairo_store_point } bind def
/TJ {
  {
    dup
    type /stringtype eq
    { show } { -0.001 mul 0 cairo_font_matrix dtransform rmoveto } ifelse
  } forall
  currentpoint cairo_store_point
} bind def
/cairo_selectfont { cairo_font_matrix aload pop pop pop 0 0 6 array astore
    cairo_font exch selectfont cairo_point_x cairo_point_y moveto } bind def
/Tf { pop /cairo_font exch def /cairo_font_matrix where
      { pop cairo_selectfont } if } bind def
/Td { matrix translate cairo_font_matrix matrix concatmatrix dup
      /cairo_font_matrix exch def dup 4 get exch 5 get cairo_store_point
      /cairo_font where { pop cairo_selectfont } if } bind def
/Tm { 2 copy 8 2 roll 6 array astore /cairo_font_matrix exch def
      cairo_store_point /cairo_font where { pop cairo_selectfont } if } bind def
/g { setgray } bind def
/rg { setrgbcolor } bind def
/d1 { setcachedevice } bind def
%%EndProlog
%%BeginSetup
%%EndSetup
%%Page: 1 1
%%BeginPageSetup
%%PageBoundingBox: 0 -1 339 410
%%EndPageSetup
q 0 -1 339 411 rectclip q
0.215686 0.678431 0.211765 rg
296.828 246.338 m 271.223 220.733 238.309 206.893 204.801 204.799 c 206.891
 238.307 220.73 271.221 246.336 296.827 c 271.945 322.432 304.855 336.272
 338.363 338.366 c 336.273 304.858 322.434 271.944 296.828 246.338 c h
296.828 246.338 m f
0.607843 0.701961 0.207843 rg
41.539 112.772 m 67.145 87.166 100.059 73.327 133.566 71.237 c 131.473 
104.745 117.633 137.655 92.027 163.264 c 66.422 188.87 33.508 202.709 0 
204.799 c 2.09 171.291 15.93 138.377 41.539 112.772 c h
41.539 112.772 m f
0.215686 0.678431 0.211765 rg
169.184 -0.002 m 204.801 -0.002 l 204.801 131.338 l 151.375 149.147 l h
169.184 -0.002 m f
169.184 409.6 m 151.375 260.452 l 204.801 278.26 l 204.801 409.6 l h
169.184 409.6 m f
0.607843 0.701961 0.207843 rg
204.801 278.26 m 169.184 278.26 l 169.184 409.6 l 133.566 409.6 l 133.566
 278.26 l 151.375 204.799 l 133.566 131.338 l 133.566 -0.002 l 169.184 -0.002
 l 169.184 131.338 l 204.801 131.338 l h
204.801 278.26 m f
1 0.721569 0.2 rg
133.566 278.26 35.617 -146.922 re f
Q Q
showpage
%%Trailer
end restore
%%EOF
