%!PS-Adobe-3.0 EPSF-3.0
%%Creator: cairo 1.14.2 (http://cairographics.org)
%%CreationDate: Wed Aug 17 12:21:52 2016
%%Pages: 1
%%DocumentData: Clean7Bit
%%LanguageLevel: 2
%%BoundingBox: 0 -1 410 388
%%EndComments
%%BeginProlog
save
50 dict begin
/q { gsave } bind def
/Q { grestore } bind def
/cm { 6 array astore concat } bind def
/w { setlinewidth } bind def
/J { setlinecap } bind def
/j { setlinejoin } bind def
/M { setmiterlimit } bind def
/d { setdash } bind def
/m { moveto } bind def
/l { lineto } bind def
/c { curveto } bind def
/h { closepath } bind def
/re { exch dup neg 3 1 roll 5 3 roll moveto 0 rlineto
      0 exch rlineto 0 rlineto closepath } bind def
/S { stroke } bind def
/f { fill } bind def
/f* { eofill } bind def
/n { newpath } bind def
/W { clip } bind def
/W* { eoclip } bind def
/BT { } bind def
/ET { } bind def
/pdfmark where { pop globaldict /?pdfmark /exec load put }
    { globaldict begin /?pdfmark /pop load def /pdfmark
    /cleartomark load def end } ifelse
/BDC { mark 3 1 roll /BDC pdfmark } bind def
/EMC { mark /EMC pdfmark } bind def
/cairo_store_point { /cairo_point_y exch def /cairo_point_x exch def } def
/Tj { show currentpoint cairo_store_point } bind def
/TJ {
  {
    dup
    type /stringtype eq
    { show } { -0.001 mul 0 cairo_font_matrix dtransform rmoveto } ifelse
  } forall
  currentpoint cairo_store_point
} bind def
/cairo_selectfont { cairo_font_matrix aload pop pop pop 0 0 6 array astore
    cairo_font exch selectfont cairo_point_x cairo_point_y moveto } bind def
/Tf { pop /cairo_font exch def /cairo_font_matrix where
      { pop cairo_selectfont } if } bind def
/Td { matrix translate cairo_font_matrix matrix concatmatrix dup
      /cairo_font_matrix exch def dup 4 get exch 5 get cairo_store_point
      /cairo_font where { pop cairo_selectfont } if } bind def
/Tm { 2 copy 8 2 roll 6 array astore /cairo_font_matrix exch def
      cairo_store_point /cairo_font where { pop cairo_selectfont } if } bind def
/g { setgray } bind def
/rg { setrgbcolor } bind def
/d1 { setcachedevice } bind def
%%EndProlog
%%BeginSetup
%%EndSetup
%%Page: 1 1
%%BeginPageSetup
%%PageBoundingBox: 0 -1 410 388
%%EndPageSetup
q 0 -1 410 389 rectclip q
0.25098 0.227451 0.227451 rg
227.938 0.001 m 204.801 60.731 l 181.664 0.001 l 156.703 9.509 l 192.32
 103.005 l 217.281 103.005 l 252.898 9.509 l h
227.938 0.001 m f
0.501961 0.45098 0.454902 rg
89.043 227.364 m 89.043 240.72 l 62.332 240.72 l 62.332 227.364 l 62.332
 148.806 126.242 84.896 204.801 84.896 c 213.703 98.251 l 204.801 111.606
 l 140.973 111.606 89.043 163.536 89.043 227.364 c h
89.043 227.364 m f
0.376471 0.341176 0.341176 rg
320.559 240.72 m 320.559 227.364 l 320.559 163.536 268.629 111.606 204.801
 111.606 c 204.801 84.896 l 283.359 84.896 347.27 148.806 347.27 227.364
 c 347.27 240.72 l h
320.559 240.72 m f
1 0.721569 0.2 rg
0 236.267 m 0 227.364 l 102.398 227.364 l 204.801 387.642 l h
0 236.267 m f
1 0.831373 0.521569 rg
102.398 227.364 m 204.801 227.364 l 204.801 387.642 l h
102.398 227.364 m f
204.801 387.642 m 307.199 227.364 l 409.602 227.364 l 409.602 236.267 l
 h
204.801 387.642 m f
1 0.721569 0.2 rg
204.801 227.364 m 307.199 227.364 l 204.801 387.642 l h
204.801 227.364 m f
Q Q
showpage
%%Trailer
end restore
%%EOF
