%!PS-Adobe-3.0 EPSF-3.0
%%Creator: cairo 1.14.2 (http://cairographics.org)
%%CreationDate: Wed Aug 17 12:24:55 2016
%%Pages: 1
%%DocumentData: Clean7Bit
%%LanguageLevel: 2
%%BoundingBox: 0 -1 410 410
%%EndComments
%%BeginProlog
save
50 dict begin
/q { gsave } bind def
/Q { grestore } bind def
/cm { 6 array astore concat } bind def
/w { setlinewidth } bind def
/J { setlinecap } bind def
/j { setlinejoin } bind def
/M { setmiterlimit } bind def
/d { setdash } bind def
/m { moveto } bind def
/l { lineto } bind def
/c { curveto } bind def
/h { closepath } bind def
/re { exch dup neg 3 1 roll 5 3 roll moveto 0 rlineto
      0 exch rlineto 0 rlineto closepath } bind def
/S { stroke } bind def
/f { fill } bind def
/f* { eofill } bind def
/n { newpath } bind def
/W { clip } bind def
/W* { eoclip } bind def
/BT { } bind def
/ET { } bind def
/pdfmark where { pop globaldict /?pdfmark /exec load put }
    { globaldict begin /?pdfmark /pop load def /pdfmark
    /cleartomark load def end } ifelse
/BDC { mark 3 1 roll /BDC pdfmark } bind def
/EMC { mark /EMC pdfmark } bind def
/cairo_store_point { /cairo_point_y exch def /cairo_point_x exch def } def
/Tj { show currentpoint cairo_store_point } bind def
/TJ {
  {
    dup
    type /stringtype eq
    { show } { -0.001 mul 0 cairo_font_matrix dtransform rmoveto } ifelse
  } forall
  currentpoint cairo_store_point
} bind def
/cairo_selectfont { cairo_font_matrix aload pop pop pop 0 0 6 array astore
    cairo_font exch selectfont cairo_point_x cairo_point_y moveto } bind def
/Tf { pop /cairo_font exch def /cairo_font_matrix where
      { pop cairo_selectfont } if } bind def
/Td { matrix translate cairo_font_matrix matrix concatmatrix dup
      /cairo_font_matrix exch def dup 4 get exch 5 get cairo_store_point
      /cairo_font where { pop cairo_selectfont } if } bind def
/Tm { 2 copy 8 2 roll 6 array astore /cairo_font_matrix exch def
      cairo_store_point /cairo_font where { pop cairo_selectfont } if } bind def
/g { setgray } bind def
/rg { setrgbcolor } bind def
/d1 { setcachedevice } bind def
%%EndProlog
%%BeginSetup
%%EndSetup
%%Page: 1 1
%%BeginPageSetup
%%PageBoundingBox: 0 -1 410 410
%%EndPageSetup
q 0 -1 410 411 rectclip q
1 0.101961 0.14902 rg
213.703 218.159 m 138.016 218.159 l 106.102 218.159 80.137 242.123 80.137
 271.584 c 80.137 302.748 l 106.852 302.748 l 106.852 271.584 l 106.852 
256.854 120.832 244.87 138.016 244.87 c 213.703 244.87 l h
213.703 218.159 m f
1 0.513726 0.184314 rg
373.98 71.233 m 365.078 -0.002 l 204.801 -0.002 l 186.992 71.233 l h
373.98 71.233 m f
1 0.721569 0.2 rg
204.801 71.233 m 204.801 -0.002 l 44.523 -0.002 l 35.617 71.233 l h
204.801 71.233 m f
0.752941 0.0784314 0.109804 rg
80.141 71.233 m 80.141 106.854 l 80.141 146.131 112.094 178.088 151.375
 178.088 c 186.992 178.088 l 196.645 178.088 204.801 186.241 204.801 195.897
 c 204.801 293.842 l 258.227 293.842 l 258.227 195.897 l 258.227 156.616
 226.27 124.663 186.992 124.663 c 151.375 124.663 l 141.723 124.663 133.566
 116.506 133.566 106.854 c 133.566 71.237 l f
0.215686 0.678431 0.211765 rg
302.746 106.854 26.715 -35.621 re f
0.607843 0.701961 0.207843 rg
249.32 106.854 26.715 -35.621 re f
0.752941 0.0784314 0.109804 rg
271.582 164.729 m 238.164 164.729 l 238.164 191.444 l 271.582 191.444 l
 288.766 191.444 302.746 203.428 302.746 218.155 c 302.746 244.87 l 329.461
 244.87 l 329.461 218.155 l 329.461 188.698 303.496 164.729 271.582 164.729
 c h
271.582 164.729 m f
0.215686 0.678431 0.211765 rg
373.98 311.651 m 373.98 284.94 l 204.801 284.94 l 186.992 347.268 l 204.801
 409.6 l 244.871 409.6 l 266.906 409.6 284.938 389.565 284.938 365.077 c
 284.938 356.174 l 333.914 356.174 l 355.953 356.174 373.98 336.139 373.98
 311.651 c h
373.98 311.651 m f
0.607843 0.701961 0.207843 rg
204.801 409.6 m 204.801 284.94 l 35.617 284.94 l 35.617 311.651 l 35.617
 336.139 53.648 356.174 75.688 356.174 c 124.66 356.174 l 124.66 365.077
 l 124.66 389.565 142.691 409.6 164.73 409.6 c h
204.801 409.6 m f
1 0.721569 0.2 rg
409.602 84.592 m 409.602 57.877 l 204.801 57.877 l 195.895 71.233 l 204.801
 84.592 l h
409.602 84.592 m f
1 0.831373 0.521569 rg
0 84.592 204.801 -26.715 re f
Q Q
showpage
%%Trailer
end restore
%%EOF
