%!PS-Adobe-3.0 EPSF-3.0
%%Creator: cairo 1.14.2 (http://cairographics.org)
%%CreationDate: Wed Aug 17 12:25:35 2016
%%Pages: 1
%%DocumentData: Clean7Bit
%%LanguageLevel: 2
%%BoundingBox: 0 -1 409 410
%%EndComments
%%BeginProlog
save
50 dict begin
/q { gsave } bind def
/Q { grestore } bind def
/cm { 6 array astore concat } bind def
/w { setlinewidth } bind def
/J { setlinecap } bind def
/j { setlinejoin } bind def
/M { setmiterlimit } bind def
/d { setdash } bind def
/m { moveto } bind def
/l { lineto } bind def
/c { curveto } bind def
/h { closepath } bind def
/re { exch dup neg 3 1 roll 5 3 roll moveto 0 rlineto
      0 exch rlineto 0 rlineto closepath } bind def
/S { stroke } bind def
/f { fill } bind def
/f* { eofill } bind def
/n { newpath } bind def
/W { clip } bind def
/W* { eoclip } bind def
/BT { } bind def
/ET { } bind def
/pdfmark where { pop globaldict /?pdfmark /exec load put }
    { globaldict begin /?pdfmark /pop load def /pdfmark
    /cleartomark load def end } ifelse
/BDC { mark 3 1 roll /BDC pdfmark } bind def
/EMC { mark /EMC pdfmark } bind def
/cairo_store_point { /cairo_point_y exch def /cairo_point_x exch def } def
/Tj { show currentpoint cairo_store_point } bind def
/TJ {
  {
    dup
    type /stringtype eq
    { show } { -0.001 mul 0 cairo_font_matrix dtransform rmoveto } ifelse
  } forall
  currentpoint cairo_store_point
} bind def
/cairo_selectfont { cairo_font_matrix aload pop pop pop 0 0 6 array astore
    cairo_font exch selectfont cairo_point_x cairo_point_y moveto } bind def
/Tf { pop /cairo_font exch def /cairo_font_matrix where
      { pop cairo_selectfont } if } bind def
/Td { matrix translate cairo_font_matrix matrix concatmatrix dup
      /cairo_font_matrix exch def dup 4 get exch 5 get cairo_store_point
      /cairo_font where { pop cairo_selectfont } if } bind def
/Tm { 2 copy 8 2 roll 6 array astore /cairo_font_matrix exch def
      cairo_store_point /cairo_font where { pop cairo_selectfont } if } bind def
/g { setgray } bind def
/rg { setrgbcolor } bind def
/d1 { setcachedevice } bind def
%%EndProlog
%%BeginSetup
%%EndSetup
%%Page: 1 1
%%BeginPageSetup
%%PageBoundingBox: 0 -1 409 410
%%EndPageSetup
q 0 -1 409 411 rectclip q
0 0.8 0.756863 rg
70.973 150.527 53.344 -150.527 re f
0.215686 0.678431 0.211765 rg
284.348 150.527 53.344 -150.527 re f
0 0.8 0.756863 rg
177.66 150.527 53.344 -150.527 re f
0.6 0.921569 0.901961 rg
38.879 349.781 m 27.562 263.508 l 26.871 258.262 26.516 252.934 26.516 
247.539 c 26.516 208.258 115.016 158.633 213.219 158.633 c 204.328 349.781
 l h
38.879 349.781 m f
0.301961 0.862745 0.827451 rg
26.52 247.539 m 26.52 166.523 106.125 100.844 204.328 100.844 c 222.109
 138.629 l 204.328 176.414 l 106.125 176.414 26.52 208.258 26.52 247.539
 c h
26.52 247.539 m f
382.141 247.539 m 382.141 252.934 381.781 258.262 381.094 263.508 c 369.777
 349.781 l 204.328 349.781 l 204.328 158.633 l 302.531 158.633 382.141 208.258
 382.141 247.539 c h
382.141 247.539 m f
0 0.8 0.756863 rg
204.328 176.414 m 204.328 100.844 l 302.531 100.844 382.141 166.523 382.141
 247.539 c 382.141 208.258 302.531 176.414 204.328 176.414 c h
204.328 176.414 m f
0.215686 0.678431 0.211765 rg
190.996 349.781 26.672 -123.418 re f
0 0.8 0.756863 rg
33.512 363.117 m 26.363 409.598 l 0 405.539 l 10.629 336.445 l 204.328 
336.445 l 213.219 349.781 l 204.328 363.117 l h
33.512 363.117 m f
0.215686 0.678431 0.211765 rg
382.297 409.598 m 375.145 363.117 l 204.328 363.117 l 204.328 336.445 l
 398.027 336.445 l 408.656 405.539 l h
382.297 409.598 m f
Q Q
showpage
%%Trailer
end restore
%%EOF
