%!PS-Adobe-3.0 EPSF-3.0
%%Creator: cairo 1.14.2 (http://cairographics.org)
%%CreationDate: Wed Aug 17 12:25:03 2016
%%Pages: 1
%%DocumentData: Clean7Bit
%%LanguageLevel: 2
%%BoundingBox: 0 -1 339 410
%%EndComments
%%BeginProlog
save
50 dict begin
/q { gsave } bind def
/Q { grestore } bind def
/cm { 6 array astore concat } bind def
/w { setlinewidth } bind def
/J { setlinecap } bind def
/j { setlinejoin } bind def
/M { setmiterlimit } bind def
/d { setdash } bind def
/m { moveto } bind def
/l { lineto } bind def
/c { curveto } bind def
/h { closepath } bind def
/re { exch dup neg 3 1 roll 5 3 roll moveto 0 rlineto
      0 exch rlineto 0 rlineto closepath } bind def
/S { stroke } bind def
/f { fill } bind def
/f* { eofill } bind def
/n { newpath } bind def
/W { clip } bind def
/W* { eoclip } bind def
/BT { } bind def
/ET { } bind def
/pdfmark where { pop globaldict /?pdfmark /exec load put }
    { globaldict begin /?pdfmark /pop load def /pdfmark
    /cleartomark load def end } ifelse
/BDC { mark 3 1 roll /BDC pdfmark } bind def
/EMC { mark /EMC pdfmark } bind def
/cairo_store_point { /cairo_point_y exch def /cairo_point_x exch def } def
/Tj { show currentpoint cairo_store_point } bind def
/TJ {
  {
    dup
    type /stringtype eq
    { show } { -0.001 mul 0 cairo_font_matrix dtransform rmoveto } ifelse
  } forall
  currentpoint cairo_store_point
} bind def
/cairo_selectfont { cairo_font_matrix aload pop pop pop 0 0 6 array astore
    cairo_font exch selectfont cairo_point_x cairo_point_y moveto } bind def
/Tf { pop /cairo_font exch def /cairo_font_matrix where
      { pop cairo_selectfont } if } bind def
/Td { matrix translate cairo_font_matrix matrix concatmatrix dup
      /cairo_font_matrix exch def dup 4 get exch 5 get cairo_store_point
      /cairo_font where { pop cairo_selectfont } if } bind def
/Tm { 2 copy 8 2 roll 6 array astore /cairo_font_matrix exch def
      cairo_store_point /cairo_font where { pop cairo_selectfont } if } bind def
/g { setgray } bind def
/rg { setrgbcolor } bind def
/d1 { setcachedevice } bind def
%%EndProlog
%%BeginSetup
%%EndSetup
%%Page: 1 1
%%BeginPageSetup
%%PageBoundingBox: 0 -1 339 410
%%EndPageSetup
q 0 -1 339 411 rectclip q
0.501961 0.0509804 0.0745098 rg
213.703 409.6 m 227.953 409.6 l 227.953 338.366 l 160.277 338.366 l 169.184
 365.077 l 169.184 389.565 189.219 409.6 213.703 409.6 c h
213.703 409.6 m f
1 0.101961 0.14902 rg
124.66 409.6 m 110.414 409.6 l 110.414 338.366 l 169.184 338.366 l 169.184
 365.077 l 169.184 389.565 149.148 409.6 124.66 409.6 c h
124.66 409.6 m f
0.752941 0.0784314 0.109804 rg
311.652 293.842 m 267.129 356.174 l 137.125 356.174 l 123.77 347.268 l 
123.77 293.842 l 123.77 214.745 112.711 171.659 102.953 133.635 c 93.574
 97.127 85.48 74.502 85.48 8.905 c 98.84 -0.002 l 306.309 -0.002 l 306.309
 124.385 278.02 145.131 270.07 240.416 c h
311.652 293.842 m f
1 0.101961 0.14902 rg
110.414 356.174 m 71.234 356.174 l 26.711 293.842 l 68.297 240.416 l 66.062
 213.639 62.223 192.748 57.852 173.791 c 63.66 160.358 l 51.199 146.92 l
 48.953 138.166 46.703 129.416 44.582 120.209 c 50.07 106.85 l 39.168 93.495
 l 37.738 85.217 36.465 76.389 35.398 66.784 c 42.707 53.428 l 33.16 40.069
 l 32.453 27.967 32.055 14.705 32.055 -0.002 c 72.125 -0.002 l 85.48 8.905
 l 85.48 74.502 93.578 97.127 102.953 133.635 c 112.711 171.659 123.77 214.745
 123.77 293.842 c 123.77 347.268 l h
110.414 356.174 m f
0.752941 0.0784314 0.109804 rg
0 293.842 m 71.234 356.174 l 71.234 356.174 70.461 309.424 70.344 293.842
 c 70.203 273.534 69.586 255.983 68.297 240.416 c 0 240.416 l h
0 293.842 m f
0.501961 0.0509804 0.0745098 rg
338.363 293.842 m 267.129 356.174 l 267.129 356.174 267.906 309.424 268.02
 293.842 c 268.164 273.534 268.777 255.983 270.07 240.416 c 338.363 240.416
 l h
338.363 293.842 m f
0.752941 0.0784314 0.109804 rg
89.168 66.784 m 35.406 66.784 l 34.488 58.506 33.73 49.647 33.168 40.069
 c 86.668 40.069 l 87.289 49.76 88.137 58.58 89.168 66.784 c h
89.168 66.784 m f
99.535 120.209 m 44.586 120.209 l 42.645 111.799 40.809 103.006 39.172 
93.495 c 93.48 93.495 l 95.305 102.764 97.359 111.483 99.535 120.209 c h
99.535 120.209 m f
112.508 173.635 m 57.816 173.635 l 55.695 164.428 53.445 155.674 51.199
 146.92 c 106.332 146.92 l 108.434 155.338 110.535 164.143 112.508 173.635
 c h
112.508 173.635 m f
0.501961 0.0509804 0.0745098 rg
98.84 -0.002 m 72.125 -0.002 l 72.125 67.284 80.414 99.569 90.012 136.955
 c 99.574 174.209 110.414 216.432 110.414 293.842 c 110.414 356.174 l 137.129
 356.174 l 137.129 293.842 l 137.129 213.057 125.84 169.1 115.887 130.319
 c 106.738 94.682 98.84 63.909 98.84 -0.002 c h
98.84 -0.002 m f
123.77 307.202 45.414 -26.715 re f
Q Q
showpage
%%Trailer
end restore
%%EOF
