%!PS-Adobe-3.0 EPSF-3.0
%%Creator: cairo 1.14.2 (http://cairographics.org)
%%CreationDate: Wed Aug 17 12:23:02 2016
%%Pages: 1
%%DocumentData: Clean7Bit
%%LanguageLevel: 2
%%BoundingBox: 0 -1 410 410
%%EndComments
%%BeginProlog
save
50 dict begin
/q { gsave } bind def
/Q { grestore } bind def
/cm { 6 array astore concat } bind def
/w { setlinewidth } bind def
/J { setlinecap } bind def
/j { setlinejoin } bind def
/M { setmiterlimit } bind def
/d { setdash } bind def
/m { moveto } bind def
/l { lineto } bind def
/c { curveto } bind def
/h { closepath } bind def
/re { exch dup neg 3 1 roll 5 3 roll moveto 0 rlineto
      0 exch rlineto 0 rlineto closepath } bind def
/S { stroke } bind def
/f { fill } bind def
/f* { eofill } bind def
/n { newpath } bind def
/W { clip } bind def
/W* { eoclip } bind def
/BT { } bind def
/ET { } bind def
/pdfmark where { pop globaldict /?pdfmark /exec load put }
    { globaldict begin /?pdfmark /pop load def /pdfmark
    /cleartomark load def end } ifelse
/BDC { mark 3 1 roll /BDC pdfmark } bind def
/EMC { mark /EMC pdfmark } bind def
/cairo_store_point { /cairo_point_y exch def /cairo_point_x exch def } def
/Tj { show currentpoint cairo_store_point } bind def
/TJ {
  {
    dup
    type /stringtype eq
    { show } { -0.001 mul 0 cairo_font_matrix dtransform rmoveto } ifelse
  } forall
  currentpoint cairo_store_point
} bind def
/cairo_selectfont { cairo_font_matrix aload pop pop pop 0 0 6 array astore
    cairo_font exch selectfont cairo_point_x cairo_point_y moveto } bind def
/Tf { pop /cairo_font exch def /cairo_font_matrix where
      { pop cairo_selectfont } if } bind def
/Td { matrix translate cairo_font_matrix matrix concatmatrix dup
      /cairo_font_matrix exch def dup 4 get exch 5 get cairo_store_point
      /cairo_font where { pop cairo_selectfont } if } bind def
/Tm { 2 copy 8 2 roll 6 array astore /cairo_font_matrix exch def
      cairo_store_point /cairo_font where { pop cairo_selectfont } if } bind def
/g { setgray } bind def
/rg { setrgbcolor } bind def
/d1 { setcachedevice } bind def
%%EndProlog
%%BeginSetup
%%EndSetup
%%Page: 1 1
%%BeginPageSetup
%%PageBoundingBox: 0 -1 410 410
%%EndPageSetup
q 0 -1 410 411 rectclip q
0.752941 0.0784314 0.109804 rg
50.992 -0.002 m 22.875 -0.002 0 22.873 0 50.991 c 0 79.108 22.875 101.983
 50.992 101.983 c 76.906 101.983 l 76.906 307.62 l 50.992 307.62 l 22.875
 307.62 0 330.491 0 358.608 c 0 386.725 22.875 409.6 50.992 409.6 c 79.109
 409.6 101.98 386.725 101.98 358.608 c 101.98 332.694 l 204.801 332.694 
l 213.16 320.159 l 204.801 307.62 l 101.98 307.62 l 101.98 101.983 l 204.801
 101.983 l 213.16 89.444 l 204.801 76.905 l 101.98 76.905 l 101.98 50.991
 l 101.98 22.873 79.109 -0.002 50.992 -0.002 c h
50.992 76.905 m 36.703 76.905 25.078 65.28 25.078 50.991 c 25.078 36.702
 36.703 25.077 50.992 25.077 c 65.281 25.077 76.906 36.702 76.906 50.991
 c 76.906 76.905 l h
50.992 384.522 m 36.703 384.522 25.078 372.897 25.078 358.608 c 25.078 
344.319 36.703 332.694 50.992 332.694 c 76.906 332.694 l 76.906 358.608 
l 76.906 372.897 65.281 384.522 50.992 384.522 c h
50.992 384.522 m f
0.501961 0.0509804 0.0745098 rg
358.609 -0.002 m 330.492 -0.002 307.617 22.873 307.617 50.991 c 307.617
 76.905 l 204.801 76.905 l 204.801 101.983 l 307.617 101.983 l 307.617 307.62
 l 204.801 307.62 l 204.801 332.694 l 307.617 332.694 l 307.617 358.608 
l 307.617 386.725 330.492 409.6 358.609 409.6 c 386.727 409.6 409.602 386.725
 409.602 358.608 c 409.602 330.491 386.727 307.62 358.609 307.62 c 332.695
 307.62 l 332.695 101.983 l 358.609 101.983 l 386.727 101.983 409.602 79.108
 409.602 50.991 c 409.602 22.873 386.727 -0.002 358.609 -0.002 c h
332.695 76.905 m 332.695 50.991 l 332.695 36.702 344.32 25.077 358.609 
25.077 c 372.898 25.077 384.523 36.702 384.523 50.991 c 384.523 65.28 372.898
 76.905 358.609 76.905 c h
332.695 332.694 m 358.609 332.694 l 372.898 332.694 384.523 344.319 384.523
 358.608 c 384.523 372.897 372.898 384.522 358.609 384.522 c 344.32 384.522
 332.695 372.897 332.695 358.608 c h
332.695 332.694 m f
1 0.101961 0.14902 rg
204.801 153.807 m 50.992 153.807 l 22.875 153.807 0 176.682 0 204.799 c
 0 232.916 22.875 255.791 50.992 255.791 c 204.801 255.791 l 213.16 243.252
 l 204.801 230.713 l 50.992 230.713 l 36.703 230.713 25.078 219.088 25.078
 204.799 c 25.078 190.51 36.703 178.885 50.992 178.885 c 204.801 178.885
 l 213.16 166.346 l h
204.801 153.807 m f
0.752941 0.0784314 0.109804 rg
358.609 153.807 m 204.801 153.807 l 204.801 178.885 l 358.609 178.885 l
 372.898 178.885 384.523 190.51 384.523 204.799 c 384.523 219.088 372.898
 230.713 358.609 230.713 c 204.801 230.713 l 204.801 255.791 l 358.609 255.791
 l 386.727 255.791 409.602 232.916 409.602 204.799 c 409.602 176.682 386.727
 153.807 358.609 153.807 c h
358.609 153.807 m f
1 0.282353 0.317647 rg
204.801 384.522 m 190.512 384.522 178.887 372.897 178.887 358.608 c 178.887
 50.991 l 178.887 36.702 190.512 25.077 204.801 25.077 c 213.16 12.538 l
 204.801 -0.002 l 176.684 -0.002 153.809 22.873 153.809 50.991 c 153.809
 358.608 l 153.809 386.725 176.684 409.6 204.801 409.6 c 213.16 397.061 
l h
204.801 384.522 m f
1 0.101961 0.14902 rg
204.801 409.6 m 204.801 384.522 l 219.09 384.522 230.715 372.897 230.715
 358.608 c 230.715 50.991 l 230.715 36.702 219.09 25.077 204.801 25.077 
c 204.801 -0.002 l 232.918 -0.002 255.793 22.873 255.793 50.991 c 255.793
 358.608 l 255.793 386.725 232.918 409.6 204.801 409.6 c h
204.801 409.6 m f
Q Q
showpage
%%Trailer
end restore
%%EOF
