%!PS-Adobe-3.0 EPSF-3.0
%%Creator: cairo 1.14.2 (http://cairographics.org)
%%CreationDate: Wed Aug 17 12:24:47 2016
%%Pages: 1
%%DocumentData: Clean7Bit
%%LanguageLevel: 2
%%BoundingBox: 0 -1 410 410
%%EndComments
%%BeginProlog
save
50 dict begin
/q { gsave } bind def
/Q { grestore } bind def
/cm { 6 array astore concat } bind def
/w { setlinewidth } bind def
/J { setlinecap } bind def
/j { setlinejoin } bind def
/M { setmiterlimit } bind def
/d { setdash } bind def
/m { moveto } bind def
/l { lineto } bind def
/c { curveto } bind def
/h { closepath } bind def
/re { exch dup neg 3 1 roll 5 3 roll moveto 0 rlineto
      0 exch rlineto 0 rlineto closepath } bind def
/S { stroke } bind def
/f { fill } bind def
/f* { eofill } bind def
/n { newpath } bind def
/W { clip } bind def
/W* { eoclip } bind def
/BT { } bind def
/ET { } bind def
/pdfmark where { pop globaldict /?pdfmark /exec load put }
    { globaldict begin /?pdfmark /pop load def /pdfmark
    /cleartomark load def end } ifelse
/BDC { mark 3 1 roll /BDC pdfmark } bind def
/EMC { mark /EMC pdfmark } bind def
/cairo_store_point { /cairo_point_y exch def /cairo_point_x exch def } def
/Tj { show currentpoint cairo_store_point } bind def
/TJ {
  {
    dup
    type /stringtype eq
    { show } { -0.001 mul 0 cairo_font_matrix dtransform rmoveto } ifelse
  } forall
  currentpoint cairo_store_point
} bind def
/cairo_selectfont { cairo_font_matrix aload pop pop pop 0 0 6 array astore
    cairo_font exch selectfont cairo_point_x cairo_point_y moveto } bind def
/Tf { pop /cairo_font exch def /cairo_font_matrix where
      { pop cairo_selectfont } if } bind def
/Td { matrix translate cairo_font_matrix matrix concatmatrix dup
      /cairo_font_matrix exch def dup 4 get exch 5 get cairo_store_point
      /cairo_font where { pop cairo_selectfont } if } bind def
/Tm { 2 copy 8 2 roll 6 array astore /cairo_font_matrix exch def
      cairo_store_point /cairo_font where { pop cairo_selectfont } if } bind def
/g { setgray } bind def
/rg { setrgbcolor } bind def
/d1 { setcachedevice } bind def
%%EndProlog
%%BeginSetup
%%EndSetup
%%Page: 1 1
%%BeginPageSetup
%%PageBoundingBox: 0 -1 410 410
%%EndPageSetup
q 0 -1 410 411 rectclip q
0.752941 0.0784314 0.109804 rg
257.305 351.527 m 257.305 293.68 l 187 293.68 l 204.801 351.527 l h
257.305 351.527 m f
1 0.101961 0.14902 rg
152.293 351.524 52.508 -57.844 re f
113.699 293.68 91.219 -53.398 re f
0.752941 0.0784314 0.109804 rg
204.918 293.68 91.219 -53.398 re f
0.376471 0.341176 0.341176 rg
204.801 409.371 m 213.699 351.527 l 134.609 351.527 l 161.309 409.371 l
 h
204.801 409.371 m f
0.752941 0.0784314 0.109804 rg
139.062 351.524 26.699 -57.844 re f
0.501961 0.0509804 0.0745098 rg
244.074 351.524 26.699 -57.844 re f
282.785 293.68 26.699 -177.988 re f
0.752941 0.0784314 0.109804 rg
100.348 293.68 26.699 -177.988 re f
0.501961 0.0509804 0.0745098 rg
191.566 293.68 26.699 -177.988 re f
1 0.513726 0.184314 rg
0 124.59 358.645 -71.195 re f
0 0.8 0.756863 rg
204.801 62.297 204.688 -62.297 re f
0.301961 0.862745 0.827451 rg
0.113 62.297 204.688 -62.297 re f
376.387 73.25 m 370.551 69.192 367.035 66.746 358.418 66.746 c 349.812 
66.746 346.289 69.192 340.461 73.25 c 333.605 78.024 324.227 84.543 307.246
 84.543 c 290.266 84.543 280.887 78.024 274.035 73.25 c 268.207 69.192 264.68
 66.746 256.074 66.746 c 247.469 66.746 243.945 69.192 238.117 73.25 c 231.262
 78.024 221.777 84.543 204.797 84.543 c 195.898 71.195 l 204.797 57.848 
l 213.402 57.848 217.035 55.399 222.863 51.34 c 229.715 46.57 239.094 40.047
 256.074 40.047 c 273.055 40.047 282.434 46.57 289.289 51.34 c 295.117 55.399
 298.641 57.848 307.246 57.848 c 315.852 57.848 319.375 55.399 325.215 51.34
 c 332.059 46.57 341.438 40.047 358.418 40.047 c 375.398 40.047 384.785 
46.57 391.629 51.34 c 397.469 55.399 400.992 57.848 409.598 57.848 c 409.598
 84.547 l 392.621 84.543 383.238 78.024 376.387 73.25 c h
376.387 73.25 m f
0.6 0.921569 0.901961 rg
204.801 84.543 m 204.801 57.848 l 196.273 57.828 192.75 55.383 186.945 
51.34 c 180.094 46.57 170.715 40.047 153.734 40.047 c 136.754 40.047 127.375
 46.57 120.531 51.34 c 114.695 55.399 111.168 57.848 102.562 57.848 c 93.957
 57.848 90.441 55.399 84.605 51.34 c 77.75 46.57 68.371 40.047 51.391 40.047
 c 34.422 40.047 25.039 46.57 18.188 51.34 c 12.352 55.399 8.828 57.848 
0.223 57.848 c 0.223 84.543 l 17.199 84.543 26.582 78.024 33.434 73.25 c
 39.27 69.192 42.785 66.746 51.391 66.746 c 60.008 66.746 63.523 69.192 
69.359 73.25 c 76.211 78.024 85.594 84.543 102.562 84.543 c 119.543 84.543
 128.922 78.024 135.777 73.25 c 141.613 69.192 145.129 66.746 153.734 66.746
 c 162.34 66.746 165.863 69.192 171.703 73.25 c 178.527 78.012 187.891 84.52
 204.801 84.543 c h
204.801 84.543 m f
0.25098 0.227451 0.227451 rg
301.914 396.024 m 301.914 378.848 287.941 364.875 270.77 364.875 c 269.059
 364.875 l 248.523 409.371 l 204.801 409.371 l 204.801 364.875 l 139.059
 364.875 l 121.883 364.875 107.91 378.848 107.91 396.024 c 81.211 396.024
 l 81.211 364.125 107.16 338.176 139.059 338.176 c 270.77 338.176 l 302.664
 338.176 328.613 364.125 328.613 396.024 c h
301.914 396.024 m f
309.27 280.332 m 100.555 280.332 l 68.66 280.332 42.711 306.281 42.711 
338.176 c 69.406 338.176 l 69.406 321 83.379 307.027 100.555 307.027 c 309.27
 307.027 l 326.445 307.027 340.418 321 340.418 338.176 c 367.117 338.176
 l 367.113 306.281 341.168 280.332 309.27 280.332 c h
309.27 280.332 m f
Q Q
showpage
%%Trailer
end restore
%%EOF
