%!PS-Adobe-3.0 EPSF-3.0
%%Creator: cairo 1.14.2 (http://cairographics.org)
%%CreationDate: Wed Aug 17 12:25:49 2016
%%Pages: 1
%%DocumentData: Clean7Bit
%%LanguageLevel: 2
%%BoundingBox: 0 -1 410 410
%%EndComments
%%BeginProlog
save
50 dict begin
/q { gsave } bind def
/Q { grestore } bind def
/cm { 6 array astore concat } bind def
/w { setlinewidth } bind def
/J { setlinecap } bind def
/j { setlinejoin } bind def
/M { setmiterlimit } bind def
/d { setdash } bind def
/m { moveto } bind def
/l { lineto } bind def
/c { curveto } bind def
/h { closepath } bind def
/re { exch dup neg 3 1 roll 5 3 roll moveto 0 rlineto
      0 exch rlineto 0 rlineto closepath } bind def
/S { stroke } bind def
/f { fill } bind def
/f* { eofill } bind def
/n { newpath } bind def
/W { clip } bind def
/W* { eoclip } bind def
/BT { } bind def
/ET { } bind def
/pdfmark where { pop globaldict /?pdfmark /exec load put }
    { globaldict begin /?pdfmark /pop load def /pdfmark
    /cleartomark load def end } ifelse
/BDC { mark 3 1 roll /BDC pdfmark } bind def
/EMC { mark /EMC pdfmark } bind def
/cairo_store_point { /cairo_point_y exch def /cairo_point_x exch def } def
/Tj { show currentpoint cairo_store_point } bind def
/TJ {
  {
    dup
    type /stringtype eq
    { show } { -0.001 mul 0 cairo_font_matrix dtransform rmoveto } ifelse
  } forall
  currentpoint cairo_store_point
} bind def
/cairo_selectfont { cairo_font_matrix aload pop pop pop 0 0 6 array astore
    cairo_font exch selectfont cairo_point_x cairo_point_y moveto } bind def
/Tf { pop /cairo_font exch def /cairo_font_matrix where
      { pop cairo_selectfont } if } bind def
/Td { matrix translate cairo_font_matrix matrix concatmatrix dup
      /cairo_font_matrix exch def dup 4 get exch 5 get cairo_store_point
      /cairo_font where { pop cairo_selectfont } if } bind def
/Tm { 2 copy 8 2 roll 6 array astore /cairo_font_matrix exch def
      cairo_store_point /cairo_font where { pop cairo_selectfont } if } bind def
/g { setgray } bind def
/rg { setrgbcolor } bind def
/d1 { setcachedevice } bind def
%%EndProlog
%%BeginSetup
%%EndSetup
%%Page: 1 1
%%BeginPageSetup
%%PageBoundingBox: 0 -1 410 410
%%EndPageSetup
q 0 -1 410 411 rectclip q
1 0.513726 0.184314 rg
311.652 311.651 m 311.652 133.565 l 293.844 120.209 l 311.652 106.854 l
 311.652 -0.002 l 204.801 -0.002 l 178.086 155.827 l 204.801 311.651 l h
311.652 311.651 m f
1 0.721569 0.2 rg
97.949 311.651 106.852 -311.652 re f
1 0.101961 0.14902 rg
0 311.651 71.234 -258.227 re f
0.752941 0.0784314 0.109804 rg
338.367 311.651 71.234 -258.227 re f
1 0.721569 0.2 rg
253.773 133.565 57.879 -26.711 re f
0.752941 0.0784314 0.109804 rg
253.773 222.608 m 204.801 173.635 l 180.312 222.608 l 204.801 271.58 l 
h
253.773 222.608 m f
1 0.101961 0.14902 rg
204.801 271.58 m 204.801 173.635 l 155.828 222.608 l h
204.801 271.58 m f
0.752941 0.0784314 0.109804 rg
311.652 409.6 m 311.652 338.366 l 204.801 338.366 l 184.445 373.983 l 204.801
 409.6 l h
311.652 409.6 m f
1 0.101961 0.14902 rg
97.949 409.6 106.852 -71.234 re f
Q Q
showpage
%%Trailer
end restore
%%EOF
