%!PS-Adobe-3.0 EPSF-3.0
%%Creator: cairo 1.14.2 (http://cairographics.org)
%%CreationDate: Wed Aug 17 12:23:33 2016
%%Pages: 1
%%DocumentData: Clean7Bit
%%LanguageLevel: 2
%%BoundingBox: 0 -1 303 410
%%EndComments
%%BeginProlog
save
50 dict begin
/q { gsave } bind def
/Q { grestore } bind def
/cm { 6 array astore concat } bind def
/w { setlinewidth } bind def
/J { setlinecap } bind def
/j { setlinejoin } bind def
/M { setmiterlimit } bind def
/d { setdash } bind def
/m { moveto } bind def
/l { lineto } bind def
/c { curveto } bind def
/h { closepath } bind def
/re { exch dup neg 3 1 roll 5 3 roll moveto 0 rlineto
      0 exch rlineto 0 rlineto closepath } bind def
/S { stroke } bind def
/f { fill } bind def
/f* { eofill } bind def
/n { newpath } bind def
/W { clip } bind def
/W* { eoclip } bind def
/BT { } bind def
/ET { } bind def
/pdfmark where { pop globaldict /?pdfmark /exec load put }
    { globaldict begin /?pdfmark /pop load def /pdfmark
    /cleartomark load def end } ifelse
/BDC { mark 3 1 roll /BDC pdfmark } bind def
/EMC { mark /EMC pdfmark } bind def
/cairo_store_point { /cairo_point_y exch def /cairo_point_x exch def } def
/Tj { show currentpoint cairo_store_point } bind def
/TJ {
  {
    dup
    type /stringtype eq
    { show } { -0.001 mul 0 cairo_font_matrix dtransform rmoveto } ifelse
  } forall
  currentpoint cairo_store_point
} bind def
/cairo_selectfont { cairo_font_matrix aload pop pop pop 0 0 6 array astore
    cairo_font exch selectfont cairo_point_x cairo_point_y moveto } bind def
/Tf { pop /cairo_font exch def /cairo_font_matrix where
      { pop cairo_selectfont } if } bind def
/Td { matrix translate cairo_font_matrix matrix concatmatrix dup
      /cairo_font_matrix exch def dup 4 get exch 5 get cairo_store_point
      /cairo_font where { pop cairo_selectfont } if } bind def
/Tm { 2 copy 8 2 roll 6 array astore /cairo_font_matrix exch def
      cairo_store_point /cairo_font where { pop cairo_selectfont } if } bind def
/g { setgray } bind def
/rg { setrgbcolor } bind def
/d1 { setcachedevice } bind def
%%EndProlog
%%BeginSetup
%%EndSetup
%%Page: 1 1
%%BeginPageSetup
%%PageBoundingBox: 0 -1 303 410
%%EndPageSetup
q 0 -1 303 411 rectclip q
1 0.831373 0.521569 rg
19.758 302.748 m 12.816 276.705 7.633 249.944 4.312 222.608 c 169.184 213.705
 l 151.375 302.748 l h
19.758 302.748 m f
1 0.721569 0.2 rg
282.992 302.748 m 151.375 302.748 l 151.375 204.799 l 298.434 222.608 l
 295.113 249.944 289.93 276.702 282.992 302.748 c h
282.992 302.748 m f
0.376471 0.341176 0.341176 rg
49.777 249.323 26.711 -35.617 re f
108.605 249.323 26.715 -35.617 re f
0.25098 0.227451 0.227451 rg
167.43 249.323 26.711 -35.617 re f
226.262 249.323 26.711 -35.617 re f
1 0.101961 0.14902 rg
4.312 222.608 m 1.48 199.26 0 175.491 0 151.373 c 0 99.026 6.887 48.291
 19.758 0.002 c 151.375 0.002 l 169.184 111.303 l 151.375 222.608 l h
4.312 222.608 m f
0.752941 0.0784314 0.109804 rg
302.746 151.373 m 302.746 175.491 301.27 199.26 298.434 222.608 c 151.375
 222.608 l 151.375 -0.002 l 282.992 -0.002 l 295.859 48.291 302.746 99.022
 302.746 151.373 c h
302.746 151.373 m f
1 0.721569 0.2 rg
6.086 66.784 m 7.387 57.811 8.895 48.905 10.594 40.069 c 151.375 40.069
 l 160.277 53.428 l 151.375 66.784 l h
6.086 66.784 m f
1 0.513726 0.184314 rg
296.66 66.784 m 151.375 66.784 l 151.375 40.069 l 292.156 40.069 l 293.855
 48.905 295.363 57.811 296.66 66.784 c h
296.66 66.784 m f
1 0.721569 0.2 rg
124.66 138.018 m 124.66 123.288 136.645 111.303 151.375 111.303 c 160.277
 138.018 l 151.375 164.729 l 136.645 164.729 124.66 152.748 124.66 138.018
 c h
124.66 138.018 m f
1 0.513726 0.184314 rg
151.375 164.729 m 151.375 111.303 l 166.105 111.303 178.086 123.288 178.086
 138.018 c 178.086 152.745 166.105 164.729 151.375 164.729 c h
151.375 164.729 m f
0.752941 0.0784314 0.109804 rg
19.758 356.174 263.23 -26.715 re f
1 0.101961 0.14902 rg
19.758 409.6 263.23 -26.711 re f
Q Q
showpage
%%Trailer
end restore
%%EOF
