%!PS-Adobe-3.0 EPSF-3.0
%%Creator: cairo 1.14.2 (http://cairographics.org)
%%CreationDate: Wed Aug 17 12:27:28 2016
%%Pages: 1
%%DocumentData: Clean7Bit
%%LanguageLevel: 2
%%BoundingBox: 0 -1 410 334
%%EndComments
%%BeginProlog
save
50 dict begin
/q { gsave } bind def
/Q { grestore } bind def
/cm { 6 array astore concat } bind def
/w { setlinewidth } bind def
/J { setlinecap } bind def
/j { setlinejoin } bind def
/M { setmiterlimit } bind def
/d { setdash } bind def
/m { moveto } bind def
/l { lineto } bind def
/c { curveto } bind def
/h { closepath } bind def
/re { exch dup neg 3 1 roll 5 3 roll moveto 0 rlineto
      0 exch rlineto 0 rlineto closepath } bind def
/S { stroke } bind def
/f { fill } bind def
/f* { eofill } bind def
/n { newpath } bind def
/W { clip } bind def
/W* { eoclip } bind def
/BT { } bind def
/ET { } bind def
/pdfmark where { pop globaldict /?pdfmark /exec load put }
    { globaldict begin /?pdfmark /pop load def /pdfmark
    /cleartomark load def end } ifelse
/BDC { mark 3 1 roll /BDC pdfmark } bind def
/EMC { mark /EMC pdfmark } bind def
/cairo_store_point { /cairo_point_y exch def /cairo_point_x exch def } def
/Tj { show currentpoint cairo_store_point } bind def
/TJ {
  {
    dup
    type /stringtype eq
    { show } { -0.001 mul 0 cairo_font_matrix dtransform rmoveto } ifelse
  } forall
  currentpoint cairo_store_point
} bind def
/cairo_selectfont { cairo_font_matrix aload pop pop pop 0 0 6 array astore
    cairo_font exch selectfont cairo_point_x cairo_point_y moveto } bind def
/Tf { pop /cairo_font exch def /cairo_font_matrix where
      { pop cairo_selectfont } if } bind def
/Td { matrix translate cairo_font_matrix matrix concatmatrix dup
      /cairo_font_matrix exch def dup 4 get exch 5 get cairo_store_point
      /cairo_font where { pop cairo_selectfont } if } bind def
/Tm { 2 copy 8 2 roll 6 array astore /cairo_font_matrix exch def
      cairo_store_point /cairo_font where { pop cairo_selectfont } if } bind def
/g { setgray } bind def
/rg { setrgbcolor } bind def
/d1 { setcachedevice } bind def
%%EndProlog
%%BeginSetup
%%EndSetup
%%Page: 1 1
%%BeginPageSetup
%%PageBoundingBox: 0 -1 410 334
%%EndPageSetup
q 0 -1 410 335 rectclip q
1 0.309804 0.164706 rg
0 280.488 409.602 -26.715 re f
1 0.513726 0.184314 rg
0 333.914 409.602 -26.711 re f
276.035 186.992 m 217.023 186.992 169.184 139.152 169.184 80.14 c 276.035
 53.425 l 382.887 80.14 l 382.887 139.152 335.047 186.992 276.035 186.992
 c h
276.035 186.992 m f
1 0.309804 0.164706 rg
289.391 186.16 m 285.016 186.707 280.559 186.992 276.035 186.992 c 271.512
 186.992 267.055 186.707 262.676 186.16 c 262.676 138.019 l 289.391 138.019
 l h
289.391 186.16 m f
360.441 145.66 m 354.957 152.714 348.609 159.062 341.555 164.546 c 307.516
 130.511 l 326.406 111.621 l h
360.441 145.66 m f
1 0.831373 0.521569 rg
133.566 186.992 m 74.555 186.992 26.715 139.152 26.715 80.14 c 133.566 
53.425 l 240.418 80.14 l 240.418 139.152 192.578 186.992 133.566 186.992
 c h
133.566 186.992 m f
1 0.721569 0.2 rg
146.922 186.16 m 142.547 186.707 138.09 186.992 133.566 186.992 c 129.039
 186.992 124.586 186.707 120.207 186.16 c 120.207 138.019 l 146.922 138.019
 l h
146.922 186.16 m f
49.16 145.66 m 83.195 111.621 l 102.086 130.511 l 68.047 164.546 l 60.992
 159.062 54.641 152.714 49.16 145.66 c h
49.16 145.66 m f
217.973 145.66 m 212.488 152.714 206.141 159.062 199.082 164.546 c 165.047
 130.511 l 183.934 111.621 l h
217.973 145.66 m f
1 0.513726 0.184314 rg
0 80.14 m 0 -0 l 204.801 -0 l 222.609 40.07 l 204.801 80.14 l h
0 80.14 m f
1 0.309804 0.164706 rg
204.801 80.14 204.801 -80.141 re f
Q Q
showpage
%%Trailer
end restore
%%EOF
