%!PS-Adobe-3.0 EPSF-3.0
%%Creator: cairo 1.14.2 (http://cairographics.org)
%%CreationDate: Wed Aug 17 12:27:00 2016
%%Pages: 1
%%DocumentData: Clean7Bit
%%LanguageLevel: 2
%%BoundingBox: 0 -1 410 410
%%EndComments
%%BeginProlog
save
50 dict begin
/q { gsave } bind def
/Q { grestore } bind def
/cm { 6 array astore concat } bind def
/w { setlinewidth } bind def
/J { setlinecap } bind def
/j { setlinejoin } bind def
/M { setmiterlimit } bind def
/d { setdash } bind def
/m { moveto } bind def
/l { lineto } bind def
/c { curveto } bind def
/h { closepath } bind def
/re { exch dup neg 3 1 roll 5 3 roll moveto 0 rlineto
      0 exch rlineto 0 rlineto closepath } bind def
/S { stroke } bind def
/f { fill } bind def
/f* { eofill } bind def
/n { newpath } bind def
/W { clip } bind def
/W* { eoclip } bind def
/BT { } bind def
/ET { } bind def
/pdfmark where { pop globaldict /?pdfmark /exec load put }
    { globaldict begin /?pdfmark /pop load def /pdfmark
    /cleartomark load def end } ifelse
/BDC { mark 3 1 roll /BDC pdfmark } bind def
/EMC { mark /EMC pdfmark } bind def
/cairo_store_point { /cairo_point_y exch def /cairo_point_x exch def } def
/Tj { show currentpoint cairo_store_point } bind def
/TJ {
  {
    dup
    type /stringtype eq
    { show } { -0.001 mul 0 cairo_font_matrix dtransform rmoveto } ifelse
  } forall
  currentpoint cairo_store_point
} bind def
/cairo_selectfont { cairo_font_matrix aload pop pop pop 0 0 6 array astore
    cairo_font exch selectfont cairo_point_x cairo_point_y moveto } bind def
/Tf { pop /cairo_font exch def /cairo_font_matrix where
      { pop cairo_selectfont } if } bind def
/Td { matrix translate cairo_font_matrix matrix concatmatrix dup
      /cairo_font_matrix exch def dup 4 get exch 5 get cairo_store_point
      /cairo_font where { pop cairo_selectfont } if } bind def
/Tm { 2 copy 8 2 roll 6 array astore /cairo_font_matrix exch def
      cairo_store_point /cairo_font where { pop cairo_selectfont } if } bind def
/g { setgray } bind def
/rg { setrgbcolor } bind def
/d1 { setcachedevice } bind def
%%EndProlog
%%BeginSetup
%%EndSetup
%%Page: 1 1
%%BeginPageSetup
%%PageBoundingBox: 0 -1 410 410
%%EndPageSetup
q 0 -1 410 411 rectclip q
0.6 0.921569 0.901961 rg
0 204.799 m 0 91.694 91.691 -0.002 204.801 -0.002 c 222.609 204.799 l 204.801
 409.6 l 91.691 409.6 0 317.909 0 204.799 c h
0 204.799 m f
0.301961 0.862745 0.827451 rg
204.801 409.6 m 204.801 -0.002 l 317.906 -0.002 409.602 91.694 409.602 
204.799 c 409.602 317.909 317.906 409.6 204.801 409.6 c h
204.801 409.6 m f
1 0.831373 0.521569 rg
53.426 204.799 m 53.426 121.198 121.199 53.428 204.801 53.428 c 222.609
 204.799 l 204.801 356.174 l 121.199 356.174 53.426 288.401 53.426 204.799
 c h
53.426 204.799 m f
1 0.721569 0.2 rg
204.801 356.174 m 204.801 53.424 l 288.402 53.424 356.172 121.198 356.172
 204.799 c 356.172 288.401 288.402 356.174 204.801 356.174 c h
204.801 356.174 m f
1 g
124.66 186.991 m 124.66 142.733 160.539 106.854 204.801 106.854 c 222.609
 204.799 l 204.801 302.748 l 160.539 302.748 124.66 231.252 124.66 186.991
 c h
124.66 186.991 m f
1 0.831373 0.521569 rg
204.801 302.748 m 204.801 106.854 l 249.059 106.854 284.938 142.733 284.938
 186.991 c 284.938 231.252 249.059 302.748 204.801 302.748 c h
204.801 302.748 m f
1 0.309804 0.164706 rg
164.73 186.991 m 164.73 164.862 182.668 146.92 204.801 146.92 c 213.703
 186.991 l 204.801 227.061 l 182.672 227.061 164.73 209.123 164.73 186.991
 c h
164.73 186.991 m f
1 0.101961 0.14902 rg
204.801 227.061 m 204.801 146.92 l 226.93 146.92 244.871 164.862 244.871
 186.991 c 244.871 209.123 226.93 227.061 204.801 227.061 c h
204.801 227.061 m f
Q Q
showpage
%%Trailer
end restore
%%EOF
