%!PS-Adobe-3.0 EPSF-3.0
%%Creator: cairo 1.14.2 (http://cairographics.org)
%%CreationDate: Wed Aug 17 12:25:43 2016
%%Pages: 1
%%DocumentData: Clean7Bit
%%LanguageLevel: 2
%%BoundingBox: 0 -1 294 410
%%EndComments
%%BeginProlog
save
50 dict begin
/q { gsave } bind def
/Q { grestore } bind def
/cm { 6 array astore concat } bind def
/w { setlinewidth } bind def
/J { setlinecap } bind def
/j { setlinejoin } bind def
/M { setmiterlimit } bind def
/d { setdash } bind def
/m { moveto } bind def
/l { lineto } bind def
/c { curveto } bind def
/h { closepath } bind def
/re { exch dup neg 3 1 roll 5 3 roll moveto 0 rlineto
      0 exch rlineto 0 rlineto closepath } bind def
/S { stroke } bind def
/f { fill } bind def
/f* { eofill } bind def
/n { newpath } bind def
/W { clip } bind def
/W* { eoclip } bind def
/BT { } bind def
/ET { } bind def
/pdfmark where { pop globaldict /?pdfmark /exec load put }
    { globaldict begin /?pdfmark /pop load def /pdfmark
    /cleartomark load def end } ifelse
/BDC { mark 3 1 roll /BDC pdfmark } bind def
/EMC { mark /EMC pdfmark } bind def
/cairo_store_point { /cairo_point_y exch def /cairo_point_x exch def } def
/Tj { show currentpoint cairo_store_point } bind def
/TJ {
  {
    dup
    type /stringtype eq
    { show } { -0.001 mul 0 cairo_font_matrix dtransform rmoveto } ifelse
  } forall
  currentpoint cairo_store_point
} bind def
/cairo_selectfont { cairo_font_matrix aload pop pop pop 0 0 6 array astore
    cairo_font exch selectfont cairo_point_x cairo_point_y moveto } bind def
/Tf { pop /cairo_font exch def /cairo_font_matrix where
      { pop cairo_selectfont } if } bind def
/Td { matrix translate cairo_font_matrix matrix concatmatrix dup
      /cairo_font_matrix exch def dup 4 get exch 5 get cairo_store_point
      /cairo_font where { pop cairo_selectfont } if } bind def
/Tm { 2 copy 8 2 roll 6 array astore /cairo_font_matrix exch def
      cairo_store_point /cairo_font where { pop cairo_selectfont } if } bind def
/g { setgray } bind def
/rg { setrgbcolor } bind def
/d1 { setcachedevice } bind def
%%EndProlog
%%BeginSetup
%%EndSetup
%%Page: 1 1
%%BeginPageSetup
%%PageBoundingBox: 0 -1 294 410
%%EndPageSetup
q 0 -1 294 411 rectclip q
1 0.282353 0.317647 rg
0 409.6 m 0 -0.002 l 146.922 -0.002 l 164.73 204.799 l 146.922 391.791 
l h
0 409.6 m f
1 0.101961 0.14902 rg
0 409.6 m 25.531 342.166 81.711 295.327 146.922 295.327 c 146.922 -0.002
 l 293.844 -0.002 l 293.844 409.6 l h
0 409.6 m f
1 0.721569 0.2 rg
102.398 241.159 m 102.398 214.448 l 146.922 214.448 l 155.824 227.803 l
 146.922 241.159 l h
102.398 241.159 m f
1 0.513726 0.184314 rg
146.922 241.159 35.617 -26.715 re f
1 0.721569 0.2 rg
75.688 187.733 m 75.688 161.022 l 98.086 161.022 l 63.867 96.006 l 87.504
 83.565 l 128.273 161.022 l 146.922 161.022 l 155.824 174.377 l 146.922 
187.733 l h
75.688 187.733 m f
1 0.513726 0.184314 rg
200.348 94.237 m 200.348 81.198 l 185.266 83.366 173.637 96.373 173.637
 112.045 c 173.637 161.022 l 209.254 161.022 l 209.254 187.733 l 146.922
 187.733 l 146.922 112.045 l 146.922 80.131 172.887 54.166 204.801 54.166
 c 227.062 54.166 l 227.062 94.237 l h
200.348 94.237 m f
0.752941 0.0784314 0.109804 rg
146.922 409.6 m 146.922 295.327 l 212.133 295.327 268.312 342.166 293.844
 409.6 c h
146.922 409.6 m f
Q Q
showpage
%%Trailer
end restore
%%EOF
