%!PS-Adobe-3.0 EPSF-3.0
%%Creator: cairo 1.14.2 (http://cairographics.org)
%%CreationDate: Wed Aug 17 12:24:07 2016
%%Pages: 1
%%DocumentData: Clean7Bit
%%LanguageLevel: 2
%%BoundingBox: 0 -1 410 410
%%EndComments
%%BeginProlog
save
50 dict begin
/q { gsave } bind def
/Q { grestore } bind def
/cm { 6 array astore concat } bind def
/w { setlinewidth } bind def
/J { setlinecap } bind def
/j { setlinejoin } bind def
/M { setmiterlimit } bind def
/d { setdash } bind def
/m { moveto } bind def
/l { lineto } bind def
/c { curveto } bind def
/h { closepath } bind def
/re { exch dup neg 3 1 roll 5 3 roll moveto 0 rlineto
      0 exch rlineto 0 rlineto closepath } bind def
/S { stroke } bind def
/f { fill } bind def
/f* { eofill } bind def
/n { newpath } bind def
/W { clip } bind def
/W* { eoclip } bind def
/BT { } bind def
/ET { } bind def
/pdfmark where { pop globaldict /?pdfmark /exec load put }
    { globaldict begin /?pdfmark /pop load def /pdfmark
    /cleartomark load def end } ifelse
/BDC { mark 3 1 roll /BDC pdfmark } bind def
/EMC { mark /EMC pdfmark } bind def
/cairo_store_point { /cairo_point_y exch def /cairo_point_x exch def } def
/Tj { show currentpoint cairo_store_point } bind def
/TJ {
  {
    dup
    type /stringtype eq
    { show } { -0.001 mul 0 cairo_font_matrix dtransform rmoveto } ifelse
  } forall
  currentpoint cairo_store_point
} bind def
/cairo_selectfont { cairo_font_matrix aload pop pop pop 0 0 6 array astore
    cairo_font exch selectfont cairo_point_x cairo_point_y moveto } bind def
/Tf { pop /cairo_font exch def /cairo_font_matrix where
      { pop cairo_selectfont } if } bind def
/Td { matrix translate cairo_font_matrix matrix concatmatrix dup
      /cairo_font_matrix exch def dup 4 get exch 5 get cairo_store_point
      /cairo_font where { pop cairo_selectfont } if } bind def
/Tm { 2 copy 8 2 roll 6 array astore /cairo_font_matrix exch def
      cairo_store_point /cairo_font where { pop cairo_selectfont } if } bind def
/g { setgray } bind def
/rg { setrgbcolor } bind def
/d1 { setcachedevice } bind def
%%EndProlog
%%BeginSetup
%%EndSetup
%%Page: 1 1
%%BeginPageSetup
%%PageBoundingBox: 0 -1 410 410
%%EndPageSetup
q 0 -1 410 411 rectclip q
0.501961 0.45098 0.454902 rg
101.629 82.746 m 82.738 101.636 l 390.699 409.597 l 409.59 390.706 l h
101.629 82.746 m f
1 0.721569 0.2 rg
352.926 277.386 m 315.152 315.163 l 334.039 334.05 l 371.816 296.273 l 
h
352.926 277.386 m f
1 0.831373 0.521569 rg
334.039 334.046 m 315.152 315.156 l 239.598 390.71 l 258.484 409.601 l 
h
334.039 334.046 m f
1 0.721569 0.2 rg
315.156 239.597 m 277.379 277.374 l 296.27 296.265 l 334.047 258.488 l 
h
315.156 239.597 m f
1 0.831373 0.521569 rg
296.266 296.269 m 277.379 277.378 l 201.824 352.933 l 220.711 371.824 l
 h
296.266 296.269 m f
0.376471 0.341176 0.341176 rg
362.379 324.605 m 286.824 249.05 l 249.047 286.828 l 324.602 362.382 l 
h
362.379 324.605 m f
94.445 133.566 m 39.121 133.566 l 0 94.445 l 0 39.121 l 19.559 19.562 l
 79.375 54.191 l 114.004 114.007 l h
94.445 133.566 m f
0.25098 0.227451 0.227451 rg
133.566 94.445 m 114.004 114.007 l 19.559 19.562 l 39.121 -0.001 l 94.445
 -0.001 l 133.566 39.121 l h
133.566 94.445 m f
1 0.831373 0.521569 rg
85 384.535 m 69.418 400.117 43.914 400.117 28.332 384.535 c 18.891 375.089
 l 56.668 337.312 l 94.445 375.089 l h
85 384.535 m f
0.376471 0.341176 0.341176 rg
37.777 375.089 m 48.191 385.503 65.141 385.503 75.555 375.089 c 225.32 
225.324 l 241.062 228.472 l 244.211 244.21 l 94.445 393.976 l 73.613 414.808
 39.719 414.808 18.891 393.976 c 0 375.089 l 187.543 187.542 l 203.285 190.695
 l 206.434 206.433 l h
37.777 375.089 m f
1 0.721569 0.2 rg
384.531 28.335 m 400.117 43.917 400.117 69.417 384.531 85.003 c 375.09 
94.445 l 337.309 56.667 l 375.09 18.89 l h
384.531 28.335 m f
0.25098 0.227451 0.227451 rg
393.977 18.89 m 414.809 39.718 414.809 73.613 393.977 94.445 c 244.211 
244.21 l 225.32 225.324 l 375.09 75.558 l 385.504 65.14 385.504 48.195 375.09
 37.781 c 206.434 206.433 l 187.543 187.546 l 375.086 -0.001 l h
393.977 18.89 m f
Q Q
showpage
%%Trailer
end restore
%%EOF
