%!PS-Adobe-3.0 EPSF-3.0
%%Creator: cairo 1.14.2 (http://cairographics.org)
%%CreationDate: Wed Aug 17 12:22:08 2016
%%Pages: 1
%%DocumentData: Clean7Bit
%%LanguageLevel: 2
%%BoundingBox: 0 -1 311 410
%%EndComments
%%BeginProlog
save
50 dict begin
/q { gsave } bind def
/Q { grestore } bind def
/cm { 6 array astore concat } bind def
/w { setlinewidth } bind def
/J { setlinecap } bind def
/j { setlinejoin } bind def
/M { setmiterlimit } bind def
/d { setdash } bind def
/m { moveto } bind def
/l { lineto } bind def
/c { curveto } bind def
/h { closepath } bind def
/re { exch dup neg 3 1 roll 5 3 roll moveto 0 rlineto
      0 exch rlineto 0 rlineto closepath } bind def
/S { stroke } bind def
/f { fill } bind def
/f* { eofill } bind def
/n { newpath } bind def
/W { clip } bind def
/W* { eoclip } bind def
/BT { } bind def
/ET { } bind def
/pdfmark where { pop globaldict /?pdfmark /exec load put }
    { globaldict begin /?pdfmark /pop load def /pdfmark
    /cleartomark load def end } ifelse
/BDC { mark 3 1 roll /BDC pdfmark } bind def
/EMC { mark /EMC pdfmark } bind def
/cairo_store_point { /cairo_point_y exch def /cairo_point_x exch def } def
/Tj { show currentpoint cairo_store_point } bind def
/TJ {
  {
    dup
    type /stringtype eq
    { show } { -0.001 mul 0 cairo_font_matrix dtransform rmoveto } ifelse
  } forall
  currentpoint cairo_store_point
} bind def
/cairo_selectfont { cairo_font_matrix aload pop pop pop 0 0 6 array astore
    cairo_font exch selectfont cairo_point_x cairo_point_y moveto } bind def
/Tf { pop /cairo_font exch def /cairo_font_matrix where
      { pop cairo_selectfont } if } bind def
/Td { matrix translate cairo_font_matrix matrix concatmatrix dup
      /cairo_font_matrix exch def dup 4 get exch 5 get cairo_store_point
      /cairo_font where { pop cairo_selectfont } if } bind def
/Tm { 2 copy 8 2 roll 6 array astore /cairo_font_matrix exch def
      cairo_store_point /cairo_font where { pop cairo_selectfont } if } bind def
/g { setgray } bind def
/rg { setrgbcolor } bind def
/d1 { setcachedevice } bind def
%%EndProlog
%%BeginSetup
%%EndSetup
%%Page: 1 1
%%BeginPageSetup
%%PageBoundingBox: 0 -1 311 410
%%EndPageSetup
q 0 -1 311 411 rectclip q
0.6 0.921569 0.901961 rg
12.934 254.381 m 12.934 194.057 50.48 142.502 103.477 121.807 c 103.477
 137.971 l 103.477 166.545 126.641 189.709 155.219 189.709 c 172.465 293.186
 l 155.219 396.666 l 76.637 396.666 12.934 332.963 12.934 254.381 c h
12.934 254.381 m f
0.501961 0.45098 0.454902 rg
90.543 137.971 m 90.543 121.803 l 116.414 121.803 l 116.414 137.971 l 116.414
 159.366 133.82 176.776 155.219 176.776 c 163.84 189.709 l 155.219 202.643
 l 119.555 202.643 90.543 173.631 90.543 137.971 c h
90.543 137.971 m f
25.871 254.381 m 25.871 325.705 83.895 383.729 155.219 383.729 c 155.219
 409.6 l 69.629 409.6 0 339.971 0 254.381 c 0 168.795 69.629 99.166 155.219
 99.166 c 155.219 125.038 l 83.895 125.038 25.871 183.061 25.871 254.381
 c h
25.871 254.381 m f
0.376471 0.341176 0.341176 rg
142.281 198.334 25.871 -198.336 re f
0.301961 0.862745 0.827451 rg
155.219 396.666 m 155.219 189.709 l 183.793 189.709 206.957 166.545 206.957
 137.971 c 206.957 121.807 l 259.953 142.502 297.5 194.057 297.5 254.381
 c 297.5 332.963 233.797 396.666 155.219 396.666 c h
155.219 396.666 m f
0.376471 0.341176 0.341176 rg
155.219 409.6 m 155.219 383.729 l 226.539 383.729 284.562 325.705 284.562
 254.381 c 284.562 183.061 226.539 125.038 155.219 125.038 c 155.219 99.166
 l 240.805 99.166 310.434 168.795 310.434 254.381 c 310.434 339.971 240.805
 409.6 155.219 409.6 c h
155.219 409.6 m f
155.219 202.643 m 155.219 176.776 l 176.613 176.776 194.02 159.366 194.02
 137.971 c 194.02 121.803 l 219.891 121.803 l 219.891 137.971 l 219.891 
173.631 190.879 202.643 155.219 202.643 c h
155.219 202.643 m f
Q Q
showpage
%%Trailer
end restore
%%EOF
