%!PS-Adobe-3.0 EPSF-3.0
%%Creator: cairo 1.14.2 (http://cairographics.org)
%%CreationDate: Wed Aug 17 12:22:00 2016
%%Pages: 1
%%DocumentData: Clean7Bit
%%LanguageLevel: 2
%%BoundingBox: 0 -1 410 270
%%EndComments
%%BeginProlog
save
50 dict begin
/q { gsave } bind def
/Q { grestore } bind def
/cm { 6 array astore concat } bind def
/w { setlinewidth } bind def
/J { setlinecap } bind def
/j { setlinejoin } bind def
/M { setmiterlimit } bind def
/d { setdash } bind def
/m { moveto } bind def
/l { lineto } bind def
/c { curveto } bind def
/h { closepath } bind def
/re { exch dup neg 3 1 roll 5 3 roll moveto 0 rlineto
      0 exch rlineto 0 rlineto closepath } bind def
/S { stroke } bind def
/f { fill } bind def
/f* { eofill } bind def
/n { newpath } bind def
/W { clip } bind def
/W* { eoclip } bind def
/BT { } bind def
/ET { } bind def
/pdfmark where { pop globaldict /?pdfmark /exec load put }
    { globaldict begin /?pdfmark /pop load def /pdfmark
    /cleartomark load def end } ifelse
/BDC { mark 3 1 roll /BDC pdfmark } bind def
/EMC { mark /EMC pdfmark } bind def
/cairo_store_point { /cairo_point_y exch def /cairo_point_x exch def } def
/Tj { show currentpoint cairo_store_point } bind def
/TJ {
  {
    dup
    type /stringtype eq
    { show } { -0.001 mul 0 cairo_font_matrix dtransform rmoveto } ifelse
  } forall
  currentpoint cairo_store_point
} bind def
/cairo_selectfont { cairo_font_matrix aload pop pop pop 0 0 6 array astore
    cairo_font exch selectfont cairo_point_x cairo_point_y moveto } bind def
/Tf { pop /cairo_font exch def /cairo_font_matrix where
      { pop cairo_selectfont } if } bind def
/Td { matrix translate cairo_font_matrix matrix concatmatrix dup
      /cairo_font_matrix exch def dup 4 get exch 5 get cairo_store_point
      /cairo_font where { pop cairo_selectfont } if } bind def
/Tm { 2 copy 8 2 roll 6 array astore /cairo_font_matrix exch def
      cairo_store_point /cairo_font where { pop cairo_selectfont } if } bind def
/g { setgray } bind def
/rg { setrgbcolor } bind def
/d1 { setcachedevice } bind def
%%EndProlog
%%BeginSetup
%%EndSetup
%%Page: 1 1
%%BeginPageSetup
%%PageBoundingBox: 0 -1 410 270
%%EndPageSetup
q 0 -1 410 271 rectclip q
1 0.721569 0.2 rg
284.676 150.16 m 262.906 164.433 l 217.816 95.656 l 217.816 173.543 l 191.785
 173.543 l 191.785 52.062 l 215.684 44.926 l h
284.676 150.16 m f
1 0.831373 0.521569 rg
146.902 164.543 m 125.109 150.312 l 193.902 44.945 l 204.801 52.062 l 204.801
 75.871 l h
146.902 164.543 m f
157.078 31.105 m 165.141 12.789 183.473 -0 204.801 -0 c 226.125 -0 244.461
 12.789 252.523 31.101 c 204.797 52.039 l h
157.078 31.105 m f
1 0.101961 0.14902 rg
204.801 269.855 m 120.238 269.855 46.93 221.699 10.812 151.32 c 101.438
 97.383 l 118.902 137.117 158.609 164.863 204.801 164.863 c 213.477 215.625
 l h
204.801 269.855 m f
0.752941 0.0784314 0.109804 rg
204.801 269.855 m 204.801 164.863 l 250.988 164.863 290.695 137.117 308.164
 97.383 c 398.785 151.32 l 362.668 221.699 289.359 269.855 204.801 269.855
 c h
204.801 269.855 m f
1 0.721569 0.2 rg
399.141 151.504 m 204.801 66.254 l 204.801 37.828 l 409.602 127.664 l h
399.141 151.504 m f
1 0.831373 0.521569 rg
10.457 151.504 m 0 127.664 l 204.801 37.828 l 204.801 66.254 l h
10.457 151.504 m f
Q Q
showpage
%%Trailer
end restore
%%EOF
