%!PS-Adobe-3.0 EPSF-3.0
%%Creator: cairo 1.14.2 (http://cairographics.org)
%%CreationDate: Wed Aug 17 12:26:09 2016
%%Pages: 1
%%DocumentData: Clean7Bit
%%LanguageLevel: 2
%%BoundingBox: 0 -1 199 410
%%EndComments
%%BeginProlog
save
50 dict begin
/q { gsave } bind def
/Q { grestore } bind def
/cm { 6 array astore concat } bind def
/w { setlinewidth } bind def
/J { setlinecap } bind def
/j { setlinejoin } bind def
/M { setmiterlimit } bind def
/d { setdash } bind def
/m { moveto } bind def
/l { lineto } bind def
/c { curveto } bind def
/h { closepath } bind def
/re { exch dup neg 3 1 roll 5 3 roll moveto 0 rlineto
      0 exch rlineto 0 rlineto closepath } bind def
/S { stroke } bind def
/f { fill } bind def
/f* { eofill } bind def
/n { newpath } bind def
/W { clip } bind def
/W* { eoclip } bind def
/BT { } bind def
/ET { } bind def
/pdfmark where { pop globaldict /?pdfmark /exec load put }
    { globaldict begin /?pdfmark /pop load def /pdfmark
    /cleartomark load def end } ifelse
/BDC { mark 3 1 roll /BDC pdfmark } bind def
/EMC { mark /EMC pdfmark } bind def
/cairo_store_point { /cairo_point_y exch def /cairo_point_x exch def } def
/Tj { show currentpoint cairo_store_point } bind def
/TJ {
  {
    dup
    type /stringtype eq
    { show } { -0.001 mul 0 cairo_font_matrix dtransform rmoveto } ifelse
  } forall
  currentpoint cairo_store_point
} bind def
/cairo_selectfont { cairo_font_matrix aload pop pop pop 0 0 6 array astore
    cairo_font exch selectfont cairo_point_x cairo_point_y moveto } bind def
/Tf { pop /cairo_font exch def /cairo_font_matrix where
      { pop cairo_selectfont } if } bind def
/Td { matrix translate cairo_font_matrix matrix concatmatrix dup
      /cairo_font_matrix exch def dup 4 get exch 5 get cairo_store_point
      /cairo_font where { pop cairo_selectfont } if } bind def
/Tm { 2 copy 8 2 roll 6 array astore /cairo_font_matrix exch def
      cairo_store_point /cairo_font where { pop cairo_selectfont } if } bind def
/g { setgray } bind def
/rg { setrgbcolor } bind def
/d1 { setcachedevice } bind def
%%EndProlog
%%BeginSetup
%%EndSetup
%%Page: 1 1
%%BeginPageSetup
%%PageBoundingBox: 0 -1 199 410
%%EndPageSetup
q 0 -1 199 411 rectclip q
0.501961 0.0509804 0.0745098 rg
86.504 409.6 25.953 -363.309 re f
1 0.101961 0.14902 rg
33.312 51.901 m 99.477 83.788 l 108.129 98.19 l 99.477 112.596 l 22.047
 75.28 l h
33.312 51.901 m f
0.752941 0.0784314 0.109804 rg
99.477 83.788 m 165.641 51.901 l 176.906 75.28 l 99.477 112.596 l h
99.477 83.788 m f
1 0.101961 0.14902 rg
33.312 103.803 m 99.477 135.69 l 108.129 150.092 l 99.477 164.495 l 22.047
 127.182 l h
33.312 103.803 m f
0.752941 0.0784314 0.109804 rg
176.906 127.182 m 99.477 164.495 l 99.477 135.69 l 165.641 103.803 l h
176.906 127.182 m f
1 0.101961 0.14902 rg
33.312 -0.002 m 99.477 31.885 l 108.129 46.291 l 99.477 60.694 l 22.047
 23.377 l h
33.312 -0.002 m f
0.752941 0.0784314 0.109804 rg
99.477 31.885 m 165.641 -0.002 l 176.906 23.377 l 99.477 60.694 l h
99.477 31.885 m f
1 0.101961 0.14902 rg
49.738 370.674 m 0 284.17 l 49.738 197.67 l 99.477 197.67 l 116.777 284.17
 l 99.477 370.674 l h
49.738 370.674 m f
0.752941 0.0784314 0.109804 rg
149.219 370.674 m 99.477 370.674 l 99.477 197.67 l 149.219 197.67 l 198.957
 284.17 l h
149.219 370.674 m f
1 0.721569 0.2 rg
86.504 310.123 25.953 -51.902 re f
Q Q
showpage
%%Trailer
end restore
%%EOF
