%!PS-Adobe-3.0 EPSF-3.0
%%Creator: cairo 1.14.2 (http://cairographics.org)
%%CreationDate: Wed Aug 17 12:24:29 2016
%%Pages: 1
%%DocumentData: Clean7Bit
%%LanguageLevel: 2
%%BoundingBox: 0 -1 410 410
%%EndComments
%%BeginProlog
save
50 dict begin
/q { gsave } bind def
/Q { grestore } bind def
/cm { 6 array astore concat } bind def
/w { setlinewidth } bind def
/J { setlinecap } bind def
/j { setlinejoin } bind def
/M { setmiterlimit } bind def
/d { setdash } bind def
/m { moveto } bind def
/l { lineto } bind def
/c { curveto } bind def
/h { closepath } bind def
/re { exch dup neg 3 1 roll 5 3 roll moveto 0 rlineto
      0 exch rlineto 0 rlineto closepath } bind def
/S { stroke } bind def
/f { fill } bind def
/f* { eofill } bind def
/n { newpath } bind def
/W { clip } bind def
/W* { eoclip } bind def
/BT { } bind def
/ET { } bind def
/pdfmark where { pop globaldict /?pdfmark /exec load put }
    { globaldict begin /?pdfmark /pop load def /pdfmark
    /cleartomark load def end } ifelse
/BDC { mark 3 1 roll /BDC pdfmark } bind def
/EMC { mark /EMC pdfmark } bind def
/cairo_store_point { /cairo_point_y exch def /cairo_point_x exch def } def
/Tj { show currentpoint cairo_store_point } bind def
/TJ {
  {
    dup
    type /stringtype eq
    { show } { -0.001 mul 0 cairo_font_matrix dtransform rmoveto } ifelse
  } forall
  currentpoint cairo_store_point
} bind def
/cairo_selectfont { cairo_font_matrix aload pop pop pop 0 0 6 array astore
    cairo_font exch selectfont cairo_point_x cairo_point_y moveto } bind def
/Tf { pop /cairo_font exch def /cairo_font_matrix where
      { pop cairo_selectfont } if } bind def
/Td { matrix translate cairo_font_matrix matrix concatmatrix dup
      /cairo_font_matrix exch def dup 4 get exch 5 get cairo_store_point
      /cairo_font where { pop cairo_selectfont } if } bind def
/Tm { 2 copy 8 2 roll 6 array astore /cairo_font_matrix exch def
      cairo_store_point /cairo_font where { pop cairo_selectfont } if } bind def
/g { setgray } bind def
/rg { setrgbcolor } bind def
/d1 { setcachedevice } bind def
%%EndProlog
%%BeginSetup
%%EndSetup
%%Page: 1 1
%%BeginPageSetup
%%PageBoundingBox: 0 -1 410 410
%%EndPageSetup
q 0 -1 410 411 rectclip q
0 0.8 0.756863 rg
204.801 351.721 96.168 -62.328 re f
0.301961 0.862745 0.827451 rg
108.633 351.721 96.168 -62.328 re f
1 0.513726 0.184314 rg
338.367 298.295 m 204.801 298.295 l 186.992 240.416 l 365.078 240.416 l
 h
338.367 298.295 m f
292.953 409.6 m 204.801 409.6 l 186.992 351.721 l 319.668 351.721 l h
292.953 409.6 m f
1 0.721569 0.2 rg
71.234 298.295 m 44.523 240.416 l 204.801 240.416 l 204.801 298.295 l h
71.234 298.295 m f
116.648 409.6 m 89.934 351.721 l 204.801 351.721 l 204.801 409.6 l h
116.648 409.6 m f
0.501961 0.0509804 0.0745098 rg
249.32 240.416 m 249.32 142.471 l 186.992 142.471 l 204.801 240.416 l h
249.32 240.416 m f
249.32 240.416 89.043 -97.945 re f
0.752941 0.0784314 0.109804 rg
160.277 240.416 44.523 -97.945 re f
71.234 240.416 89.043 -97.945 re f
1 0.101961 0.14902 rg
57.879 240.416 26.711 -97.945 re f
0.752941 0.0784314 0.109804 rg
325.008 240.416 26.715 -97.945 re f
1 0.101961 0.14902 rg
146.922 240.416 26.711 -97.945 re f
0.752941 0.0784314 0.109804 rg
235.965 240.416 26.715 -97.945 re f
1 0.101961 0.14902 rg
409.602 151.373 m 409.602 -0.002 l 338.367 -0.002 l 311.652 80.139 l 284.938
 -0.002 l 231.512 -0.002 l 231.512 80.139 l 204.801 80.139 l 186.992 115.756
 l 204.801 151.373 l h
409.602 151.373 m f
1 0.282353 0.317647 rg
204.801 151.373 m 204.801 80.139 l 178.086 80.139 l 178.086 -0.002 l 124.66
 -0.002 l 97.949 80.139 l 71.234 -0.002 l 0 -0.002 l 0 151.373 l h
204.801 151.373 m f
0.501961 0.0509804 0.0745098 rg
284.938 80.139 53.43 -80.141 re f
0.752941 0.0784314 0.109804 rg
71.234 80.139 53.426 -80.141 re f
1 0.513726 0.184314 rg
306.309 338.366 m 103.289 338.366 l 71.375 338.366 45.41 364.33 45.41 396.245
 c 72.125 396.245 l 72.125 379.061 86.105 365.077 103.289 365.077 c 306.309
 365.077 l 323.496 365.077 337.477 379.061 337.477 396.245 c 364.188 396.245
 l 364.188 364.33 338.223 338.366 306.309 338.366 c h
306.309 338.366 m f
351.723 227.061 m 57.879 227.061 l 25.965 227.061 0 253.026 0 284.94 c 
26.711 284.94 l 26.711 267.756 40.695 253.772 57.879 253.772 c 351.723 253.772
 l 368.906 253.772 382.887 267.756 382.887 284.94 c 409.602 284.94 l 409.602
 253.026 383.637 227.061 351.723 227.061 c h
351.723 227.061 m f
Q Q
showpage
%%Trailer
end restore
%%EOF
