%!PS-Adobe-3.0 EPSF-3.0
%%Creator: cairo 1.14.2 (http://cairographics.org)
%%CreationDate: Wed Aug 17 12:24:23 2016
%%Pages: 1
%%DocumentData: Clean7Bit
%%LanguageLevel: 2
%%BoundingBox: 0 -1 410 410
%%EndComments
%%BeginProlog
save
50 dict begin
/q { gsave } bind def
/Q { grestore } bind def
/cm { 6 array astore concat } bind def
/w { setlinewidth } bind def
/J { setlinecap } bind def
/j { setlinejoin } bind def
/M { setmiterlimit } bind def
/d { setdash } bind def
/m { moveto } bind def
/l { lineto } bind def
/c { curveto } bind def
/h { closepath } bind def
/re { exch dup neg 3 1 roll 5 3 roll moveto 0 rlineto
      0 exch rlineto 0 rlineto closepath } bind def
/S { stroke } bind def
/f { fill } bind def
/f* { eofill } bind def
/n { newpath } bind def
/W { clip } bind def
/W* { eoclip } bind def
/BT { } bind def
/ET { } bind def
/pdfmark where { pop globaldict /?pdfmark /exec load put }
    { globaldict begin /?pdfmark /pop load def /pdfmark
    /cleartomark load def end } ifelse
/BDC { mark 3 1 roll /BDC pdfmark } bind def
/EMC { mark /EMC pdfmark } bind def
/cairo_store_point { /cairo_point_y exch def /cairo_point_x exch def } def
/Tj { show currentpoint cairo_store_point } bind def
/TJ {
  {
    dup
    type /stringtype eq
    { show } { -0.001 mul 0 cairo_font_matrix dtransform rmoveto } ifelse
  } forall
  currentpoint cairo_store_point
} bind def
/cairo_selectfont { cairo_font_matrix aload pop pop pop 0 0 6 array astore
    cairo_font exch selectfont cairo_point_x cairo_point_y moveto } bind def
/Tf { pop /cairo_font exch def /cairo_font_matrix where
      { pop cairo_selectfont } if } bind def
/Td { matrix translate cairo_font_matrix matrix concatmatrix dup
      /cairo_font_matrix exch def dup 4 get exch 5 get cairo_store_point
      /cairo_font where { pop cairo_selectfont } if } bind def
/Tm { 2 copy 8 2 roll 6 array astore /cairo_font_matrix exch def
      cairo_store_point /cairo_font where { pop cairo_selectfont } if } bind def
/g { setgray } bind def
/rg { setrgbcolor } bind def
/d1 { setcachedevice } bind def
%%EndProlog
%%BeginSetup
%%EndSetup
%%Page: 1 1
%%BeginPageSetup
%%PageBoundingBox: 0 -1 410 410
%%EndPageSetup
q 0 -1 410 411 rectclip q
1 0.513726 0.184314 rg
409.602 276.034 m 204.801 276.034 l 204.801 204.799 l 409.602 222.608 l
 h
409.602 276.034 m f
1 0.721569 0.2 rg
0 276.034 m 0 222.608 l 204.801 204.799 l 204.801 276.034 l h
0 276.034 m f
1 0.513726 0.184314 rg
0 222.608 m 0 106.854 l 204.801 26.713 l 204.801 222.608 l h
0 222.608 m f
1 0.309804 0.164706 rg
204.801 222.608 m 204.801 26.713 l 409.602 106.854 l 409.602 222.608 l 
h
204.801 222.608 m f
1 0.831373 0.521569 rg
191.441 373.983 m 191.441 409.6 l 164.73 409.6 l 164.73 373.983 l 138.02
 373.983 l 138.02 409.6 l 111.305 409.6 l 111.305 53.495 l 222.609 53.495
 l 204.801 373.983 l h
191.441 373.983 m f
1 0.721569 0.2 rg
298.297 409.6 m 271.582 409.6 l 271.582 373.983 l 244.871 373.983 l 244.871
 409.6 l 218.156 409.6 l 218.156 373.983 l 204.801 373.983 l 204.801 53.495
 l 298.297 53.495 l h
298.297 409.6 m f
0.215686 0.678431 0.211765 rg
204.801 80.139 m 204.801 26.713 l 409.602 53.424 l 409.602 106.854 l 307.199
 106.854 256 93.495 204.801 80.139 c h
204.801 80.139 m f
1 0.513726 0.184314 rg
164.73 311.651 26.711 -35.617 re f
1 0.309804 0.164706 rg
218.156 311.651 26.715 -35.617 re f
0.607843 0.701961 0.207843 rg
0 -0.002 m 409.602 -0.002 l 409.602 53.428 l 204.801 53.428 204.801 106.854
 0 106.854 c h
0 -0.002 m f
Q Q
showpage
%%Trailer
end restore
%%EOF
