%!PS-Adobe-3.0 EPSF-3.0
%%Creator: cairo 1.14.2 (http://cairographics.org)
%%CreationDate: Wed Aug 17 12:23:54 2016
%%Pages: 1
%%DocumentData: Clean7Bit
%%LanguageLevel: 2
%%BoundingBox: 0 -1 410 410
%%EndComments
%%BeginProlog
save
50 dict begin
/q { gsave } bind def
/Q { grestore } bind def
/cm { 6 array astore concat } bind def
/w { setlinewidth } bind def
/J { setlinecap } bind def
/j { setlinejoin } bind def
/M { setmiterlimit } bind def
/d { setdash } bind def
/m { moveto } bind def
/l { lineto } bind def
/c { curveto } bind def
/h { closepath } bind def
/re { exch dup neg 3 1 roll 5 3 roll moveto 0 rlineto
      0 exch rlineto 0 rlineto closepath } bind def
/S { stroke } bind def
/f { fill } bind def
/f* { eofill } bind def
/n { newpath } bind def
/W { clip } bind def
/W* { eoclip } bind def
/BT { } bind def
/ET { } bind def
/pdfmark where { pop globaldict /?pdfmark /exec load put }
    { globaldict begin /?pdfmark /pop load def /pdfmark
    /cleartomark load def end } ifelse
/BDC { mark 3 1 roll /BDC pdfmark } bind def
/EMC { mark /EMC pdfmark } bind def
/cairo_store_point { /cairo_point_y exch def /cairo_point_x exch def } def
/Tj { show currentpoint cairo_store_point } bind def
/TJ {
  {
    dup
    type /stringtype eq
    { show } { -0.001 mul 0 cairo_font_matrix dtransform rmoveto } ifelse
  } forall
  currentpoint cairo_store_point
} bind def
/cairo_selectfont { cairo_font_matrix aload pop pop pop 0 0 6 array astore
    cairo_font exch selectfont cairo_point_x cairo_point_y moveto } bind def
/Tf { pop /cairo_font exch def /cairo_font_matrix where
      { pop cairo_selectfont } if } bind def
/Td { matrix translate cairo_font_matrix matrix concatmatrix dup
      /cairo_font_matrix exch def dup 4 get exch 5 get cairo_store_point
      /cairo_font where { pop cairo_selectfont } if } bind def
/Tm { 2 copy 8 2 roll 6 array astore /cairo_font_matrix exch def
      cairo_store_point /cairo_font where { pop cairo_selectfont } if } bind def
/g { setgray } bind def
/rg { setrgbcolor } bind def
/d1 { setcachedevice } bind def
%%EndProlog
%%BeginSetup
%%EndSetup
%%Page: 1 1
%%BeginPageSetup
%%PageBoundingBox: 0 -1 410 410
%%EndPageSetup
q 0 -1 410 411 rectclip q
1 0.831373 0.521569 rg
409.605 371.797 m 346.598 308.789 l 308.793 346.594 l 371.801 409.602 l
 h
409.605 371.797 m f
0.501961 0.45098 0.454902 rg
302.484 365.496 m 264.68 327.688 l 296.184 283.582 l 333.988 333.988 l 
h
302.484 365.496 m f
0.376471 0.341176 0.341176 rg
365.496 302.484 m 333.988 333.988 l 289.883 289.883 l 327.688 264.68 l 
h
365.496 302.484 m f
0.501961 0.45098 0.454902 rg
0 63.008 m 31.504 31.504 l 81.91 69.309 l 37.805 100.813 l h
0 63.008 m f
0.376471 0.341176 0.341176 rg
63.008 0 m 100.812 37.805 l 75.609 75.609 l 31.504 31.504 l h
63.008 0 m f
264.68 327.688 m 37.805 100.813 l 69.309 69.309 l 195.348 170.145 l 296.184
 296.184 l h
264.68 327.688 m f
0.25098 0.227451 0.227451 rg
296.184 296.184 m 267.832 267.832 l 236.328 299.336 l 217.422 280.434 l
 248.93 248.93 l 192.176 192.176 l 160.672 223.68 l 141.77 204.777 l 173.273
 173.273 l 154.371 154.371 l 122.867 185.875 l 103.965 166.973 l 135.469
 135.469 l 116.566 116.566 l 85.062 148.07 l 66.16 129.168 l 97.664 97.664
 l 69.309 69.309 l 100.812 37.805 l 327.688 264.68 l h
296.184 296.184 m f
Q Q
showpage
%%Trailer
end restore
%%EOF
