%!PS-Adobe-3.0 EPSF-3.0
%%Creator: cairo 1.14.2 (http://cairographics.org)
%%CreationDate: Wed Aug 17 12:26:18 2016
%%Pages: 1
%%DocumentData: Clean7Bit
%%LanguageLevel: 2
%%BoundingBox: 0 -1 410 410
%%EndComments
%%BeginProlog
save
50 dict begin
/q { gsave } bind def
/Q { grestore } bind def
/cm { 6 array astore concat } bind def
/w { setlinewidth } bind def
/J { setlinecap } bind def
/j { setlinejoin } bind def
/M { setmiterlimit } bind def
/d { setdash } bind def
/m { moveto } bind def
/l { lineto } bind def
/c { curveto } bind def
/h { closepath } bind def
/re { exch dup neg 3 1 roll 5 3 roll moveto 0 rlineto
      0 exch rlineto 0 rlineto closepath } bind def
/S { stroke } bind def
/f { fill } bind def
/f* { eofill } bind def
/n { newpath } bind def
/W { clip } bind def
/W* { eoclip } bind def
/BT { } bind def
/ET { } bind def
/pdfmark where { pop globaldict /?pdfmark /exec load put }
    { globaldict begin /?pdfmark /pop load def /pdfmark
    /cleartomark load def end } ifelse
/BDC { mark 3 1 roll /BDC pdfmark } bind def
/EMC { mark /EMC pdfmark } bind def
/cairo_store_point { /cairo_point_y exch def /cairo_point_x exch def } def
/Tj { show currentpoint cairo_store_point } bind def
/TJ {
  {
    dup
    type /stringtype eq
    { show } { -0.001 mul 0 cairo_font_matrix dtransform rmoveto } ifelse
  } forall
  currentpoint cairo_store_point
} bind def
/cairo_selectfont { cairo_font_matrix aload pop pop pop 0 0 6 array astore
    cairo_font exch selectfont cairo_point_x cairo_point_y moveto } bind def
/Tf { pop /cairo_font exch def /cairo_font_matrix where
      { pop cairo_selectfont } if } bind def
/Td { matrix translate cairo_font_matrix matrix concatmatrix dup
      /cairo_font_matrix exch def dup 4 get exch 5 get cairo_store_point
      /cairo_font where { pop cairo_selectfont } if } bind def
/Tm { 2 copy 8 2 roll 6 array astore /cairo_font_matrix exch def
      cairo_store_point /cairo_font where { pop cairo_selectfont } if } bind def
/g { setgray } bind def
/rg { setrgbcolor } bind def
/d1 { setcachedevice } bind def
%%EndProlog
%%BeginSetup
%%EndSetup
%%Page: 1 1
%%BeginPageSetup
%%PageBoundingBox: 0 -1 410 410
%%EndPageSetup
q 0 -1 410 411 rectclip q
1 0.513726 0.184314 rg
113.977 409.6 m 53.426 409.6 l 0 356.174 l 113.977 338.366 l h
113.977 409.6 m f
1 0.721569 0.2 rg
0 356.174 m 35.617 -0.002 l 103.289 -0.002 l 103.289 356.174 l h
0 356.174 m f
113.977 409.6 m 81.922 356.174 l 222.609 338.366 l 204.801 409.6 l h
113.977 409.6 m f
1 0.831373 0.521569 rg
81.922 356.174 m 103.289 -0.002 l 204.801 -0.002 l 231.512 178.088 l 204.801
 356.174 l h
81.922 356.174 m f
1 0.309804 0.164706 rg
409.602 356.174 m 356.172 409.6 l 295.625 409.6 l 295.625 338.366 l h
409.602 356.174 m f
1 0.513726 0.184314 rg
306.309 356.174 m 306.309 -0.002 l 373.98 -0.002 l 409.602 356.174 l h
306.309 356.174 m f
295.625 409.6 m 204.801 409.6 l 204.801 338.366 l 327.68 356.174 l h
295.625 409.6 m f
1 0.721569 0.2 rg
327.68 356.174 m 204.801 356.174 l 204.801 -0.002 l 306.309 -0.002 l h
327.68 356.174 m f
1 0.309804 0.164706 rg
162.426 124.248 m 158.785 117.475 156.719 109.737 156.719 101.51 c 156.719
 74.955 178.246 53.428 204.801 53.428 c 222.609 128.209 l 204.801 202.995
 l h
162.426 124.248 m f
1 0.101961 0.14902 rg
247.172 124.248 m 204.801 202.995 l 204.801 53.428 l 231.355 53.428 252.883
 74.955 252.883 101.51 c 252.883 109.733 250.812 117.475 247.172 124.248
 c h
247.172 124.248 m f
Q Q
showpage
%%Trailer
end restore
%%EOF
