%!PS-Adobe-3.0 EPSF-3.0
%%Creator: cairo 1.14.2 (http://cairographics.org)
%%CreationDate: Wed Aug 17 12:26:31 2016
%%Pages: 1
%%DocumentData: Clean7Bit
%%LanguageLevel: 2
%%BoundingBox: 0 -1 321 410
%%EndComments
%%BeginProlog
save
50 dict begin
/q { gsave } bind def
/Q { grestore } bind def
/cm { 6 array astore concat } bind def
/w { setlinewidth } bind def
/J { setlinecap } bind def
/j { setlinejoin } bind def
/M { setmiterlimit } bind def
/d { setdash } bind def
/m { moveto } bind def
/l { lineto } bind def
/c { curveto } bind def
/h { closepath } bind def
/re { exch dup neg 3 1 roll 5 3 roll moveto 0 rlineto
      0 exch rlineto 0 rlineto closepath } bind def
/S { stroke } bind def
/f { fill } bind def
/f* { eofill } bind def
/n { newpath } bind def
/W { clip } bind def
/W* { eoclip } bind def
/BT { } bind def
/ET { } bind def
/pdfmark where { pop globaldict /?pdfmark /exec load put }
    { globaldict begin /?pdfmark /pop load def /pdfmark
    /cleartomark load def end } ifelse
/BDC { mark 3 1 roll /BDC pdfmark } bind def
/EMC { mark /EMC pdfmark } bind def
/cairo_store_point { /cairo_point_y exch def /cairo_point_x exch def } def
/Tj { show currentpoint cairo_store_point } bind def
/TJ {
  {
    dup
    type /stringtype eq
    { show } { -0.001 mul 0 cairo_font_matrix dtransform rmoveto } ifelse
  } forall
  currentpoint cairo_store_point
} bind def
/cairo_selectfont { cairo_font_matrix aload pop pop pop 0 0 6 array astore
    cairo_font exch selectfont cairo_point_x cairo_point_y moveto } bind def
/Tf { pop /cairo_font exch def /cairo_font_matrix where
      { pop cairo_selectfont } if } bind def
/Td { matrix translate cairo_font_matrix matrix concatmatrix dup
      /cairo_font_matrix exch def dup 4 get exch 5 get cairo_store_point
      /cairo_font where { pop cairo_selectfont } if } bind def
/Tm { 2 copy 8 2 roll 6 array astore /cairo_font_matrix exch def
      cairo_store_point /cairo_font where { pop cairo_selectfont } if } bind def
/g { setgray } bind def
/rg { setrgbcolor } bind def
/d1 { setcachedevice } bind def
%%EndProlog
%%BeginSetup
%%EndSetup
%%Page: 1 1
%%BeginPageSetup
%%PageBoundingBox: 0 -1 321 410
%%EndPageSetup
q 0 -1 321 411 rectclip q
1 0.513726 0.184314 rg
227.062 -0.002 m 200.348 -0.002 l 200.348 71.233 l 227.062 62.33 l h
227.062 -0.002 m f
1 0.721569 0.2 rg
146.922 71.233 26.711 -71.234 re f
120.207 -0.002 m 93.496 -0.002 l 93.496 62.33 l 120.207 71.233 l h
120.207 -0.002 m f
93.496 409.6 m 93.496 356.174 l 169.184 338.366 l 160.277 409.6 l h
93.496 409.6 m f
1 0.513726 0.184314 rg
227.062 409.6 m 160.277 409.6 l 160.277 338.366 l 227.062 356.174 l h
227.062 409.6 m f
1 0.721569 0.2 rg
93.496 115.756 m 93.496 62.33 l 160.277 62.33 l 169.184 133.565 l h
93.496 115.756 m f
1 0.513726 0.184314 rg
227.062 115.756 m 160.277 133.565 l 160.277 62.33 l 227.062 62.33 l h
227.062 115.756 m f
1 0.282353 0.317647 rg
93.496 356.174 m 38.32 335.284 0 289.319 0 235.963 c 0 182.612 38.32 136.643
 93.496 115.756 c 126.887 115.756 l 126.887 356.174 l h
93.496 356.174 m f
1 0.101961 0.14902 rg
160.277 356.174 m 126.887 356.174 l 99.301 335.284 80.141 289.319 80.141
 235.963 c 80.141 182.612 99.301 136.643 126.887 115.756 c 160.277 115.756
 l 178.086 235.963 l h
160.277 356.174 m f
227.062 356.174 m 193.668 356.174 l 193.668 115.756 l 227.062 115.756 l
 282.234 136.643 320.559 182.612 320.559 235.963 c 320.559 289.319 282.234
 335.288 227.062 356.174 c h
227.062 356.174 m f
0.752941 0.0784314 0.109804 rg
240.418 235.967 m 240.418 289.319 221.258 335.288 193.668 356.174 c 160.277
 356.174 l 160.277 115.756 l 193.668 115.756 l 221.258 136.647 240.418 182.612
 240.418 235.967 c h
240.418 235.967 m f
Q Q
showpage
%%Trailer
end restore
%%EOF
