%!PS-Adobe-3.0 EPSF-3.0
%%Creator: cairo 1.14.2 (http://cairographics.org)
%%CreationDate: Wed Aug 17 12:24:14 2016
%%Pages: 1
%%DocumentData: Clean7Bit
%%LanguageLevel: 2
%%BoundingBox: 0 -1 410 410
%%EndComments
%%BeginProlog
save
50 dict begin
/q { gsave } bind def
/Q { grestore } bind def
/cm { 6 array astore concat } bind def
/w { setlinewidth } bind def
/J { setlinecap } bind def
/j { setlinejoin } bind def
/M { setmiterlimit } bind def
/d { setdash } bind def
/m { moveto } bind def
/l { lineto } bind def
/c { curveto } bind def
/h { closepath } bind def
/re { exch dup neg 3 1 roll 5 3 roll moveto 0 rlineto
      0 exch rlineto 0 rlineto closepath } bind def
/S { stroke } bind def
/f { fill } bind def
/f* { eofill } bind def
/n { newpath } bind def
/W { clip } bind def
/W* { eoclip } bind def
/BT { } bind def
/ET { } bind def
/pdfmark where { pop globaldict /?pdfmark /exec load put }
    { globaldict begin /?pdfmark /pop load def /pdfmark
    /cleartomark load def end } ifelse
/BDC { mark 3 1 roll /BDC pdfmark } bind def
/EMC { mark /EMC pdfmark } bind def
/cairo_store_point { /cairo_point_y exch def /cairo_point_x exch def } def
/Tj { show currentpoint cairo_store_point } bind def
/TJ {
  {
    dup
    type /stringtype eq
    { show } { -0.001 mul 0 cairo_font_matrix dtransform rmoveto } ifelse
  } forall
  currentpoint cairo_store_point
} bind def
/cairo_selectfont { cairo_font_matrix aload pop pop pop 0 0 6 array astore
    cairo_font exch selectfont cairo_point_x cairo_point_y moveto } bind def
/Tf { pop /cairo_font exch def /cairo_font_matrix where
      { pop cairo_selectfont } if } bind def
/Td { matrix translate cairo_font_matrix matrix concatmatrix dup
      /cairo_font_matrix exch def dup 4 get exch 5 get cairo_store_point
      /cairo_font where { pop cairo_selectfont } if } bind def
/Tm { 2 copy 8 2 roll 6 array astore /cairo_font_matrix exch def
      cairo_store_point /cairo_font where { pop cairo_selectfont } if } bind def
/g { setgray } bind def
/rg { setrgbcolor } bind def
/d1 { setcachedevice } bind def
%%EndProlog
%%BeginSetup
%%EndSetup
%%Page: 1 1
%%BeginPageSetup
%%PageBoundingBox: 0 -1 410 410
%%EndPageSetup
q 0 -1 410 411 rectclip q
1 0.513726 0.184314 rg
373.977 246.807 m 343.016 246.807 l 343.016 89.557 l 366.719 85.327 389.598
 100.76 394.441 124.483 c 408.691 194.28 l 413.609 218.37 398.066 241.889
 373.977 246.807 c h
373.977 246.807 m f
1 0.831373 0.521569 rg
35.625 246.807 m 11.531 241.889 -4.012 218.37 0.91 194.28 c 15.156 124.483
 l 20.004 100.76 42.883 85.327 66.586 89.557 c 66.586 246.807 l h
35.625 246.807 m f
1 0.282353 0.317647 rg
204.801 298.295 m 151.375 400.983 l 133.547 395.053 117.039 386.237 102.402
 375.092 c 89.043 349.733 l 75.688 349.733 l 50.695 320.248 35.617 282.096
 35.617 240.416 c 35.617 228.764 36.797 217.385 39.039 206.397 c 56.488 
120.932 l 64.91 79.678 90.117 44.534 124.66 22.932 c 214.035 106.217 l 222.609
 204.799 l h
204.801 298.295 m f
1 0.101961 0.14902 rg
333.914 349.733 m 320.555 349.733 l 307.199 375.092 l 292.562 386.237 276.055
 395.053 258.227 400.983 c 204.801 298.295 l 204.801 106.217 l 284.941 22.932
 l 319.484 44.534 344.688 79.678 353.109 120.932 c 370.559 206.393 l 372.805
 217.385 373.98 228.764 373.98 240.416 c 373.98 282.096 358.906 320.248 
333.914 349.733 c h
333.914 349.733 m f
1 g
146.922 249.323 m 89.043 249.323 l 89.043 218.155 l 89.043 200.944 102.996
 186.991 120.207 186.991 c 146.922 186.991 l 164.133 186.991 178.086 200.944
 178.086 218.155 c 178.086 235.37 164.133 249.323 146.922 249.323 c h
146.922 249.323 m f
231.512 218.155 m 231.512 200.944 245.465 186.991 262.68 186.991 c 289.391
 186.991 l 306.602 186.991 320.555 200.944 320.555 218.155 c 320.555 249.323
 l 262.68 249.323 l 245.465 249.323 231.512 235.37 231.512 218.155 c h
231.512 218.155 m f
0.752941 0.0784314 0.109804 rg
146.922 173.635 m 171.473 173.635 191.441 193.608 191.441 218.155 c 191.441
 242.705 171.469 262.678 146.922 262.678 c 102.398 262.678 l 102.398 375.092
 l 92.602 367.631 83.645 359.12 75.688 349.733 c 75.688 218.159 l 75.688
 193.608 95.66 173.635 120.207 173.635 c h
102.398 218.155 m 102.398 235.963 l 146.922 235.963 l 156.742 235.963 164.73
 227.975 164.73 218.155 c 164.73 208.334 156.742 200.346 146.922 200.346
 c 120.207 200.346 l 110.387 200.346 102.398 208.338 102.398 218.155 c h
102.398 218.155 m f
0.501961 0.0509804 0.0745098 rg
307.199 375.092 m 307.199 262.678 l 262.68 262.678 l 238.129 262.678 218.156
 242.705 218.156 218.159 c 218.156 193.608 238.129 173.635 262.68 173.635
 c 289.391 173.635 l 313.941 173.635 333.914 193.608 333.914 218.159 c 333.914
 349.733 l 325.957 359.12 317 367.631 307.199 375.092 c h
307.199 218.155 m 307.199 208.334 299.211 200.346 289.391 200.346 c 262.68
 200.346 l 252.859 200.346 244.871 208.334 244.871 218.155 c 244.871 227.975
 252.859 235.963 262.68 235.963 c 307.199 235.963 l h
307.199 218.155 m f
0.752941 0.0784314 0.109804 rg
151.375 400.983 m 151.375 351.721 l 151.375 322.213 175.293 298.295 204.801
 298.295 c 222.609 353.948 l 204.801 409.6 l 186.129 409.6 168.168 406.569
 151.375 400.983 c h
151.375 400.983 m f
0.501961 0.0509804 0.0745098 rg
204.801 409.6 m 204.801 298.295 l 234.305 298.295 258.227 322.217 258.227
 351.721 c 258.227 400.983 l 241.434 406.569 223.469 409.6 204.801 409.6
 c h
204.801 409.6 m f
1 0.831373 0.521569 rg
138.016 106.217 m 138.016 15.491 l 158.16 5.573 180.828 -0.002 204.801 
-0.002 c 222.609 53.108 l 204.801 106.217 l h
138.016 106.217 m f
1 0.721569 0.2 rg
204.801 106.217 m 204.801 -0.002 l 228.77 -0.002 251.438 5.573 271.582 
15.491 c 271.582 106.217 l h
204.801 106.217 m f
0.376471 0.341176 0.341176 rg
164.73 132.932 26.711 -26.711 re f
0.25098 0.227451 0.227451 rg
218.156 132.932 26.715 -26.711 re f
0.752941 0.0784314 0.109804 rg
204.801 119.573 m 124.66 119.573 l 124.66 22.936 l 133.051 17.694 141.988
 13.248 151.375 9.705 c 151.375 92.858 l 204.801 92.858 l 213.703 106.217
 l h
204.801 119.573 m f
0.501961 0.0509804 0.0745098 rg
204.801 92.862 m 258.227 92.862 l 258.227 9.709 l 267.609 13.248 276.551
 17.694 284.938 22.94 c 284.938 119.573 l 204.801 119.573 l h
204.801 92.862 m f
Q Q
showpage
%%Trailer
end restore
%%EOF
