%!PS-Adobe-3.0 EPSF-3.0
%%Creator: cairo 1.14.2 (http://cairographics.org)
%%CreationDate: Wed Aug 17 12:25:23 2016
%%Pages: 1
%%DocumentData: Clean7Bit
%%LanguageLevel: 2
%%BoundingBox: 0 -1 268 410
%%EndComments
%%BeginProlog
save
50 dict begin
/q { gsave } bind def
/Q { grestore } bind def
/cm { 6 array astore concat } bind def
/w { setlinewidth } bind def
/J { setlinecap } bind def
/j { setlinejoin } bind def
/M { setmiterlimit } bind def
/d { setdash } bind def
/m { moveto } bind def
/l { lineto } bind def
/c { curveto } bind def
/h { closepath } bind def
/re { exch dup neg 3 1 roll 5 3 roll moveto 0 rlineto
      0 exch rlineto 0 rlineto closepath } bind def
/S { stroke } bind def
/f { fill } bind def
/f* { eofill } bind def
/n { newpath } bind def
/W { clip } bind def
/W* { eoclip } bind def
/BT { } bind def
/ET { } bind def
/pdfmark where { pop globaldict /?pdfmark /exec load put }
    { globaldict begin /?pdfmark /pop load def /pdfmark
    /cleartomark load def end } ifelse
/BDC { mark 3 1 roll /BDC pdfmark } bind def
/EMC { mark /EMC pdfmark } bind def
/cairo_store_point { /cairo_point_y exch def /cairo_point_x exch def } def
/Tj { show currentpoint cairo_store_point } bind def
/TJ {
  {
    dup
    type /stringtype eq
    { show } { -0.001 mul 0 cairo_font_matrix dtransform rmoveto } ifelse
  } forall
  currentpoint cairo_store_point
} bind def
/cairo_selectfont { cairo_font_matrix aload pop pop pop 0 0 6 array astore
    cairo_font exch selectfont cairo_point_x cairo_point_y moveto } bind def
/Tf { pop /cairo_font exch def /cairo_font_matrix where
      { pop cairo_selectfont } if } bind def
/Td { matrix translate cairo_font_matrix matrix concatmatrix dup
      /cairo_font_matrix exch def dup 4 get exch 5 get cairo_store_point
      /cairo_font where { pop cairo_selectfont } if } bind def
/Tm { 2 copy 8 2 roll 6 array astore /cairo_font_matrix exch def
      cairo_store_point /cairo_font where { pop cairo_selectfont } if } bind def
/g { setgray } bind def
/rg { setrgbcolor } bind def
/d1 { setcachedevice } bind def
%%EndProlog
%%BeginSetup
%%EndSetup
%%Page: 1 1
%%BeginPageSetup
%%PageBoundingBox: 0 -1 268 410
%%EndPageSetup
q 0 -1 268 411 rectclip q
0.301961 0.862745 0.827451 rg
44.523 329.459 m 44.523 276.034 l 142.469 258.225 l 133.566 329.459 l h
44.523 329.459 m f
0 0.8 0.756863 rg
222.609 329.459 m 133.566 329.459 l 133.566 258.225 l 222.609 276.034 l
 h
222.609 329.459 m f
0.6 0.921569 0.901961 rg
44.523 276.034 m 20.035 276.034 0 255.998 0 231.514 c 0 -0.002 l 133.566
 -0.002 l 151.375 138.018 l 133.566 276.034 l h
44.523 276.034 m f
0.301961 0.862745 0.827451 rg
267.129 231.514 m 267.129 255.998 247.098 276.034 222.609 276.034 c 133.566
 276.034 l 133.566 -0.002 l 267.129 -0.002 l h
267.129 231.514 m f
1 g
131.617 213.655 m 90.719 212.62 57.879 179.166 57.879 138.018 c 57.879 
96.217 91.766 62.33 133.566 62.33 c 134.219 62.33 134.863 62.362 135.512
 62.377 c 155.508 63.393 180.312 79.928 180.312 100.174 c h
131.617 213.655 m f
0.376471 0.341176 0.341176 rg
209.254 138.018 m 209.254 179.819 175.367 213.705 133.566 213.705 c 132.91
 213.705 132.266 213.67 131.617 213.655 c 111.621 212.643 95.723 196.108
 95.723 175.862 c 95.723 154.963 112.664 138.018 133.566 138.018 c 154.465
 138.018 171.406 121.077 171.406 100.174 c 171.406 79.928 155.508 63.397
 135.512 62.381 c 176.41 63.416 209.254 96.87 209.254 138.018 c h
209.254 138.018 m f
1 0.513726 0.184314 rg
57.879 409.6 m 57.879 408.709 l 71.234 329.459 l 142.469 329.459 l 133.566
 409.6 l h
57.879 409.6 m f
1 0.309804 0.164706 rg
133.566 409.6 m 133.566 329.459 l 195.895 329.459 l 209.254 408.709 l 209.254
 409.6 l h
133.566 409.6 m f
0.6 0.921569 0.901961 rg
26.711 342.819 m 26.711 316.104 l 133.566 316.104 l 142.469 329.459 l 133.566
 342.819 l h
26.711 342.819 m f
0.301961 0.862745 0.827451 rg
133.566 342.819 106.852 -26.715 re f
Q Q
showpage
%%Trailer
end restore
%%EOF
