%!PS-Adobe-3.0 EPSF-3.0
%%Creator: cairo 1.14.2 (http://cairographics.org)
%%CreationDate: Wed Aug 17 12:27:34 2016
%%Pages: 1
%%DocumentData: Clean7Bit
%%LanguageLevel: 2
%%BoundingBox: 0 -1 397 410
%%EndComments
%%BeginProlog
save
50 dict begin
/q { gsave } bind def
/Q { grestore } bind def
/cm { 6 array astore concat } bind def
/w { setlinewidth } bind def
/J { setlinecap } bind def
/j { setlinejoin } bind def
/M { setmiterlimit } bind def
/d { setdash } bind def
/m { moveto } bind def
/l { lineto } bind def
/c { curveto } bind def
/h { closepath } bind def
/re { exch dup neg 3 1 roll 5 3 roll moveto 0 rlineto
      0 exch rlineto 0 rlineto closepath } bind def
/S { stroke } bind def
/f { fill } bind def
/f* { eofill } bind def
/n { newpath } bind def
/W { clip } bind def
/W* { eoclip } bind def
/BT { } bind def
/ET { } bind def
/pdfmark where { pop globaldict /?pdfmark /exec load put }
    { globaldict begin /?pdfmark /pop load def /pdfmark
    /cleartomark load def end } ifelse
/BDC { mark 3 1 roll /BDC pdfmark } bind def
/EMC { mark /EMC pdfmark } bind def
/cairo_store_point { /cairo_point_y exch def /cairo_point_x exch def } def
/Tj { show currentpoint cairo_store_point } bind def
/TJ {
  {
    dup
    type /stringtype eq
    { show } { -0.001 mul 0 cairo_font_matrix dtransform rmoveto } ifelse
  } forall
  currentpoint cairo_store_point
} bind def
/cairo_selectfont { cairo_font_matrix aload pop pop pop 0 0 6 array astore
    cairo_font exch selectfont cairo_point_x cairo_point_y moveto } bind def
/Tf { pop /cairo_font exch def /cairo_font_matrix where
      { pop cairo_selectfont } if } bind def
/Td { matrix translate cairo_font_matrix matrix concatmatrix dup
      /cairo_font_matrix exch def dup 4 get exch 5 get cairo_store_point
      /cairo_font where { pop cairo_selectfont } if } bind def
/Tm { 2 copy 8 2 roll 6 array astore /cairo_font_matrix exch def
      cairo_store_point /cairo_font where { pop cairo_selectfont } if } bind def
/g { setgray } bind def
/rg { setrgbcolor } bind def
/d1 { setcachedevice } bind def
%%EndProlog
%%BeginSetup
%%EndSetup
%%Page: 1 1
%%BeginPageSetup
%%PageBoundingBox: 0 -1 397 410
%%EndPageSetup
q 0 -1 397 411 rectclip q
1 0.309804 0.164706 rg
30.18 409.6 25.871 -224.203 re f
81.922 409.6 25.867 -108.512 re f
1 0.831373 0.521569 rg
198.332 366.483 m 112.609 366.483 43.117 296.991 43.117 211.268 c 198.332
 185.397 l 275.941 345.713 l 253.109 358.92 226.605 366.483 198.332 366.483
 c h
198.332 366.483 m f
1 0.721569 0.2 rg
107.789 185.397 m 81.922 185.397 l 81.922 211.268 l 81.922 275.455 134.141
 327.678 198.332 327.678 c 211.633 327.678 224.695 325.444 237.156 321.038
 c 228.531 296.647 l 218.844 300.073 208.688 301.811 198.332 301.811 c 148.406
 301.811 107.789 261.194 107.789 211.268 c h
107.789 185.397 m f
159.527 185.397 m 133.66 185.397 l 133.66 211.268 l 133.66 246.928 162.672
 275.94 198.332 275.94 c 201.871 275.94 205.477 275.639 209.051 275.041 
c 204.793 249.526 l 202.621 249.889 200.449 250.073 198.332 250.073 c 176.938
 250.073 159.527 232.663 159.527 211.268 c h
159.527 185.397 m f
202.645 185.397 m 366.484 185.397 l 366.484 211.268 l 366.484 265.108 341.176
 313.034 301.809 343.807 c 284.562 343.807 l 256.367 332.116 202.645 293.362
 202.645 211.268 c h
202.645 185.397 m f
198.332 379.42 m 105.613 379.42 30.18 303.987 30.18 211.268 c 30.18 185.397
 l 56.051 185.397 l 56.051 211.268 l 56.051 289.721 119.879 353.549 198.332
 353.549 c 216.609 353.549 234.086 350.084 250.152 343.78 c 275.941 343.78
 l 275.941 360.401 l 252.707 372.541 226.309 379.42 198.332 379.42 c h
198.332 379.42 m f
1 0.513726 0.184314 rg
185.398 185.397 m 211.27 185.397 l 211.27 211.268 l 211.27 271.479 248.863
 323.069 301.812 343.811 c 293.766 350.1 285.129 355.67 276 360.436 c 222.207
 332.354 185.398 276.034 185.398 211.268 c h
185.398 185.397 m f
263.008 185.397 m 263.008 211.268 l 263.008 256.807 296.801 294.592 340.629
 300.885 c 335.516 308.983 329.734 316.616 323.359 323.702 c 273.758 310.37
 237.137 265.018 237.137 211.268 c 237.137 185.397 l h
263.008 185.397 m f
314.746 185.397 m 314.746 211.268 l 314.746 232.663 332.152 250.073 353.551
 250.073 c 356.527 250.073 359.426 249.725 362.211 249.084 c 360.078 258.354
 357.18 267.327 353.59 275.94 c 317.887 275.94 288.875 246.928 288.875 211.268
 c 288.875 185.397 l h
314.746 185.397 m f
1 0.101961 0.14902 rg
125.035 25.87 146.594 -25.871 re f
1 0.513726 0.184314 rg
0 211.268 m 0 101.729 88.797 12.936 198.332 12.936 c 215.578 112.1 l 198.332
 211.268 l h
0 211.268 m f
1 0.309804 0.164706 rg
198.332 211.268 m 198.332 12.936 l 307.871 12.936 396.664 101.729 396.664
 211.268 c h
198.332 211.268 m f
Q Q
showpage
%%Trailer
end restore
%%EOF
