%!PS-Adobe-3.0 EPSF-3.0
%%Creator: cairo 1.14.2 (http://cairographics.org)
%%CreationDate: Wed Aug 17 12:25:16 2016
%%Pages: 1
%%DocumentData: Clean7Bit
%%LanguageLevel: 2
%%BoundingBox: 0 -1 259 410
%%EndComments
%%BeginProlog
save
50 dict begin
/q { gsave } bind def
/Q { grestore } bind def
/cm { 6 array astore concat } bind def
/w { setlinewidth } bind def
/J { setlinecap } bind def
/j { setlinejoin } bind def
/M { setmiterlimit } bind def
/d { setdash } bind def
/m { moveto } bind def
/l { lineto } bind def
/c { curveto } bind def
/h { closepath } bind def
/re { exch dup neg 3 1 roll 5 3 roll moveto 0 rlineto
      0 exch rlineto 0 rlineto closepath } bind def
/S { stroke } bind def
/f { fill } bind def
/f* { eofill } bind def
/n { newpath } bind def
/W { clip } bind def
/W* { eoclip } bind def
/BT { } bind def
/ET { } bind def
/pdfmark where { pop globaldict /?pdfmark /exec load put }
    { globaldict begin /?pdfmark /pop load def /pdfmark
    /cleartomark load def end } ifelse
/BDC { mark 3 1 roll /BDC pdfmark } bind def
/EMC { mark /EMC pdfmark } bind def
/cairo_store_point { /cairo_point_y exch def /cairo_point_x exch def } def
/Tj { show currentpoint cairo_store_point } bind def
/TJ {
  {
    dup
    type /stringtype eq
    { show } { -0.001 mul 0 cairo_font_matrix dtransform rmoveto } ifelse
  } forall
  currentpoint cairo_store_point
} bind def
/cairo_selectfont { cairo_font_matrix aload pop pop pop 0 0 6 array astore
    cairo_font exch selectfont cairo_point_x cairo_point_y moveto } bind def
/Tf { pop /cairo_font exch def /cairo_font_matrix where
      { pop cairo_selectfont } if } bind def
/Td { matrix translate cairo_font_matrix matrix concatmatrix dup
      /cairo_font_matrix exch def dup 4 get exch 5 get cairo_store_point
      /cairo_font where { pop cairo_selectfont } if } bind def
/Tm { 2 copy 8 2 roll 6 array astore /cairo_font_matrix exch def
      cairo_store_point /cairo_font where { pop cairo_selectfont } if } bind def
/g { setgray } bind def
/rg { setrgbcolor } bind def
/d1 { setcachedevice } bind def
%%EndProlog
%%BeginSetup
%%EndSetup
%%Page: 1 1
%%BeginPageSetup
%%PageBoundingBox: 0 -1 259 410
%%EndPageSetup
q 0 -1 259 411 rectclip q
0 0.8 0.756863 rg
227.062 351.721 m 227.062 307.202 l 200.348 307.202 l 200.348 351.721 l
 200.348 368.909 186.367 382.889 169.184 382.889 c 129.113 382.889 l 120.207
 396.245 l 129.113 409.6 l 169.184 409.6 l 201.094 409.6 227.062 383.635
 227.062 351.721 c h
227.062 351.721 m f
0.6 0.921569 0.901961 rg
129.113 409.6 m 129.113 382.889 l 89.043 382.889 l 71.859 382.889 57.879
 368.909 57.879 351.721 c 57.879 307.202 l 31.164 307.202 l 31.164 351.721
 l 31.164 383.635 57.129 409.6 89.043 409.6 c h
129.113 409.6 m f
0.376471 0.341176 0.341176 rg
89.043 53.428 m 89.043 -0.002 l 44.523 -0.002 l 35.617 71.233 l h
89.043 53.428 m f
0.25098 0.227451 0.227451 rg
89.043 325.01 m 89.043 53.428 l 44.523 53.428 l 26.711 189.217 l 44.523
 325.01 l h
89.043 325.01 m f
0.501961 0.45098 0.454902 rg
44.523 71.233 m 44.523 -0.002 l 0 -0.002 l 0 53.428 l h
44.523 71.233 m f
0.376471 0.341176 0.341176 rg
0 325.01 44.523 -271.582 re f
258.227 53.428 m 258.227 -0.002 l 213.703 -0.002 l 204.801 71.233 l h
258.227 53.428 m f
0.25098 0.227451 0.227451 rg
258.227 325.01 m 258.227 53.428 l 213.703 53.428 l 195.895 189.217 l 213.703
 325.01 l h
258.227 325.01 m f
0.501961 0.45098 0.454902 rg
213.703 71.233 m 213.703 -0.002 l 169.184 -0.002 l 169.184 53.428 l h
213.703 71.233 m f
0.376471 0.341176 0.341176 rg
169.184 325.01 44.52 -271.582 re f
Q Q
showpage
%%Trailer
end restore
%%EOF
