%!PS-Adobe-3.0 EPSF-3.0
%%Creator: cairo 1.14.2 (http://cairographics.org)
%%CreationDate: Wed Aug 17 12:22:31 2016
%%Pages: 1
%%DocumentData: Clean7Bit
%%LanguageLevel: 2
%%BoundingBox: 0 -1 374 410
%%EndComments
%%BeginProlog
save
50 dict begin
/q { gsave } bind def
/Q { grestore } bind def
/cm { 6 array astore concat } bind def
/w { setlinewidth } bind def
/J { setlinecap } bind def
/j { setlinejoin } bind def
/M { setmiterlimit } bind def
/d { setdash } bind def
/m { moveto } bind def
/l { lineto } bind def
/c { curveto } bind def
/h { closepath } bind def
/re { exch dup neg 3 1 roll 5 3 roll moveto 0 rlineto
      0 exch rlineto 0 rlineto closepath } bind def
/S { stroke } bind def
/f { fill } bind def
/f* { eofill } bind def
/n { newpath } bind def
/W { clip } bind def
/W* { eoclip } bind def
/BT { } bind def
/ET { } bind def
/pdfmark where { pop globaldict /?pdfmark /exec load put }
    { globaldict begin /?pdfmark /pop load def /pdfmark
    /cleartomark load def end } ifelse
/BDC { mark 3 1 roll /BDC pdfmark } bind def
/EMC { mark /EMC pdfmark } bind def
/cairo_store_point { /cairo_point_y exch def /cairo_point_x exch def } def
/Tj { show currentpoint cairo_store_point } bind def
/TJ {
  {
    dup
    type /stringtype eq
    { show } { -0.001 mul 0 cairo_font_matrix dtransform rmoveto } ifelse
  } forall
  currentpoint cairo_store_point
} bind def
/cairo_selectfont { cairo_font_matrix aload pop pop pop 0 0 6 array astore
    cairo_font exch selectfont cairo_point_x cairo_point_y moveto } bind def
/Tf { pop /cairo_font exch def /cairo_font_matrix where
      { pop cairo_selectfont } if } bind def
/Td { matrix translate cairo_font_matrix matrix concatmatrix dup
      /cairo_font_matrix exch def dup 4 get exch 5 get cairo_store_point
      /cairo_font where { pop cairo_selectfont } if } bind def
/Tm { 2 copy 8 2 roll 6 array astore /cairo_font_matrix exch def
      cairo_store_point /cairo_font where { pop cairo_selectfont } if } bind def
/g { setgray } bind def
/rg { setrgbcolor } bind def
/d1 { setcachedevice } bind def
%%EndProlog
%%BeginSetup
%%EndSetup
%%Page: 1 1
%%BeginPageSetup
%%PageBoundingBox: 0 -1 374 410
%%EndPageSetup
q 0 -1 374 411 rectclip q
0.607843 0.701961 0.207843 rg
77.914 396.245 m 110.754 396.245 139.566 381.131 155.824 358.401 c 139.566
 335.67 110.754 320.557 77.914 320.557 c 45.074 320.557 16.262 335.67 0 
358.401 c 16.262 381.131 45.074 396.245 77.914 396.245 c h
77.914 396.245 m f
142.469 371.756 44.523 -26.711 re f
0.215686 0.678431 0.211765 rg
173.633 409.6 26.715 -124.66 re f
296.07 396.245 m 263.23 396.245 234.418 381.131 218.156 358.401 c 234.418
 335.67 263.23 320.557 296.07 320.557 c 328.91 320.557 357.723 335.67 373.98
 358.401 c 357.723 381.131 328.91 396.245 296.07 396.245 c h
296.07 396.245 m f
186.992 371.756 44.52 -26.711 re f
1 0.513726 0.184314 rg
169.184 293.842 m 154.156 293.842 141.617 283.209 138.672 269.061 c 77.516
 250.862 33.391 199.073 33.391 138.018 c 33.391 61.791 102.16 -0.002 186.992
 -0.002 c 204.801 146.92 l 186.992 293.842 l h
169.184 293.842 m f
1 0.309804 0.164706 rg
235.309 269.061 m 232.363 283.209 219.824 293.842 204.801 293.842 c 186.992
 293.842 l 186.992 -0.002 l 271.824 -0.002 340.59 61.791 340.59 138.018 
c 340.59 199.073 296.465 250.862 235.309 269.061 c h
235.309 269.061 m f
1 0.513726 0.184314 rg
276.355 120.502 m 276.355 113.127 270.375 107.147 263 107.147 c 255.621
 107.147 249.641 113.127 249.641 120.502 c 249.641 127.877 255.621 133.858
 263 133.858 c 270.375 133.858 276.355 127.877 276.355 120.502 c h
276.355 120.502 m f
240.738 84.885 m 240.738 77.506 234.758 71.53 227.383 71.53 c 220.004 71.53
 214.023 77.506 214.023 84.885 c 214.023 92.26 220.004 98.241 227.383 98.241
 c 234.758 98.241 240.738 92.26 240.738 84.885 c h
240.738 84.885 m f
Q Q
showpage
%%Trailer
end restore
%%EOF
