%!PS-Adobe-3.0 EPSF-3.0
%%Creator: cairo 1.14.2 (http://cairographics.org)
%%CreationDate: Wed Aug 17 12:24:43 2016
%%Pages: 1
%%DocumentData: Clean7Bit
%%LanguageLevel: 2
%%BoundingBox: 0 -1 410 410
%%EndComments
%%BeginProlog
save
50 dict begin
/q { gsave } bind def
/Q { grestore } bind def
/cm { 6 array astore concat } bind def
/w { setlinewidth } bind def
/J { setlinecap } bind def
/j { setlinejoin } bind def
/M { setmiterlimit } bind def
/d { setdash } bind def
/m { moveto } bind def
/l { lineto } bind def
/c { curveto } bind def
/h { closepath } bind def
/re { exch dup neg 3 1 roll 5 3 roll moveto 0 rlineto
      0 exch rlineto 0 rlineto closepath } bind def
/S { stroke } bind def
/f { fill } bind def
/f* { eofill } bind def
/n { newpath } bind def
/W { clip } bind def
/W* { eoclip } bind def
/BT { } bind def
/ET { } bind def
/pdfmark where { pop globaldict /?pdfmark /exec load put }
    { globaldict begin /?pdfmark /pop load def /pdfmark
    /cleartomark load def end } ifelse
/BDC { mark 3 1 roll /BDC pdfmark } bind def
/EMC { mark /EMC pdfmark } bind def
/cairo_store_point { /cairo_point_y exch def /cairo_point_x exch def } def
/Tj { show currentpoint cairo_store_point } bind def
/TJ {
  {
    dup
    type /stringtype eq
    { show } { -0.001 mul 0 cairo_font_matrix dtransform rmoveto } ifelse
  } forall
  currentpoint cairo_store_point
} bind def
/cairo_selectfont { cairo_font_matrix aload pop pop pop 0 0 6 array astore
    cairo_font exch selectfont cairo_point_x cairo_point_y moveto } bind def
/Tf { pop /cairo_font exch def /cairo_font_matrix where
      { pop cairo_selectfont } if } bind def
/Td { matrix translate cairo_font_matrix matrix concatmatrix dup
      /cairo_font_matrix exch def dup 4 get exch 5 get cairo_store_point
      /cairo_font where { pop cairo_selectfont } if } bind def
/Tm { 2 copy 8 2 roll 6 array astore /cairo_font_matrix exch def
      cairo_store_point /cairo_font where { pop cairo_selectfont } if } bind def
/g { setgray } bind def
/rg { setrgbcolor } bind def
/d1 { setcachedevice } bind def
%%EndProlog
%%BeginSetup
%%EndSetup
%%Page: 1 1
%%BeginPageSetup
%%PageBoundingBox: 0 -1 410 410
%%EndPageSetup
q 0 -1 410 411 rectclip q
0.376471 0.341176 0.341176 rg
40.07 293.842 26.711 -53.426 re f
0.25098 0.227451 0.227451 rg
191.441 409.6 26.715 -62.332 re f
1 0.721569 0.2 rg
258.227 302.748 m 258.227 -0.002 l 204.801 -0.002 l 186.992 151.373 l 204.801
 302.748 l h
258.227 302.748 m f
1 0.831373 0.521569 rg
151.375 302.748 53.426 -302.75 re f
1 0.513726 0.184314 rg
276.035 209.252 m 276.035 182.538 l 204.801 182.538 l 195.895 195.897 l
 204.801 209.252 l h
276.035 209.252 m f
1 0.721569 0.2 rg
133.566 209.252 71.234 -26.715 re f
1 0.513726 0.184314 rg
276.035 155.827 m 276.035 129.112 l 204.801 129.112 l 195.895 142.471 l
 204.801 155.827 l h
276.035 155.827 m f
1 0.721569 0.2 rg
133.566 155.827 71.234 -26.715 re f
89.043 249.323 m 89.043 -0.002 l 53.426 -0.002 l 35.617 124.663 l 53.426
 249.323 l h
89.043 249.323 m f
1 0.831373 0.521569 rg
17.809 249.323 35.617 -249.324 re f
1 0.513726 0.184314 rg
106.852 102.401 m 106.852 75.686 l 53.426 75.686 l 44.523 89.041 l 53.426
 102.401 l h
106.852 102.401 m f
1 0.721569 0.2 rg
0 102.401 53.426 -26.715 re f
1 0.513726 0.184314 rg
106.852 209.252 m 106.852 182.538 l 53.426 182.538 l 44.523 195.897 l 53.426
 209.252 l h
106.852 209.252 m f
1 0.721569 0.2 rg
0 209.252 53.426 -26.715 re f
0.376471 0.341176 0.341176 rg
240.418 356.174 m 240.418 302.748 l 195.895 302.748 l 204.801 356.174 l
 h
240.418 356.174 m f
0.501961 0.45098 0.454902 rg
169.184 356.174 35.617 -53.426 re f
1 0.513726 0.184314 rg
276.035 316.104 m 276.035 289.393 l 204.801 289.393 l 195.895 302.748 l
 204.801 316.104 l h
276.035 316.104 m f
1 0.721569 0.2 rg
133.566 316.104 71.234 -26.711 re f
1 0.513726 0.184314 rg
276.035 262.678 m 276.035 235.967 l 204.801 235.967 l 195.895 249.323 l
 204.801 262.678 l h
276.035 262.678 m f
1 0.721569 0.2 rg
133.566 262.678 71.234 -26.711 re f
1 0.513726 0.184314 rg
106.852 155.827 m 106.852 129.112 l 53.426 129.112 l 44.523 142.471 l 53.426
 155.827 l h
106.852 155.827 m f
1 0.721569 0.2 rg
0 155.827 53.426 -26.715 re f
0.376471 0.341176 0.341176 rg
342.816 293.842 26.715 -53.426 re f
1 0.721569 0.2 rg
391.793 249.323 m 391.793 -0.002 l 356.172 -0.002 l 338.367 124.663 l 356.172
 249.323 l h
391.793 249.323 m f
1 0.831373 0.521569 rg
320.559 249.323 35.617 -249.324 re f
1 0.513726 0.184314 rg
409.602 102.401 m 409.602 75.686 l 356.172 75.686 l 347.27 89.041 l 356.172
 102.401 l h
409.602 102.401 m f
1 0.721569 0.2 rg
302.746 102.401 53.43 -26.715 re f
1 0.513726 0.184314 rg
409.602 209.252 m 409.602 182.538 l 356.172 182.538 l 347.27 195.897 l 
356.172 209.252 l h
409.602 209.252 m f
1 0.721569 0.2 rg
302.746 209.252 53.43 -26.715 re f
1 0.513726 0.184314 rg
409.602 155.827 m 409.602 129.112 l 356.172 129.112 l 347.27 142.471 l 
356.172 155.827 l h
409.602 155.827 m f
1 0.721569 0.2 rg
302.746 155.827 53.43 -26.715 re f
Q Q
showpage
%%Trailer
end restore
%%EOF
