%!PS-Adobe-3.0 EPSF-3.0
%%Creator: cairo 1.14.2 (http://cairographics.org)
%%CreationDate: Wed Aug 17 12:25:53 2016
%%Pages: 1
%%DocumentData: Clean7Bit
%%LanguageLevel: 2
%%BoundingBox: 0 -1 410 410
%%EndComments
%%BeginProlog
save
50 dict begin
/q { gsave } bind def
/Q { grestore } bind def
/cm { 6 array astore concat } bind def
/w { setlinewidth } bind def
/J { setlinecap } bind def
/j { setlinejoin } bind def
/M { setmiterlimit } bind def
/d { setdash } bind def
/m { moveto } bind def
/l { lineto } bind def
/c { curveto } bind def
/h { closepath } bind def
/re { exch dup neg 3 1 roll 5 3 roll moveto 0 rlineto
      0 exch rlineto 0 rlineto closepath } bind def
/S { stroke } bind def
/f { fill } bind def
/f* { eofill } bind def
/n { newpath } bind def
/W { clip } bind def
/W* { eoclip } bind def
/BT { } bind def
/ET { } bind def
/pdfmark where { pop globaldict /?pdfmark /exec load put }
    { globaldict begin /?pdfmark /pop load def /pdfmark
    /cleartomark load def end } ifelse
/BDC { mark 3 1 roll /BDC pdfmark } bind def
/EMC { mark /EMC pdfmark } bind def
/cairo_store_point { /cairo_point_y exch def /cairo_point_x exch def } def
/Tj { show currentpoint cairo_store_point } bind def
/TJ {
  {
    dup
    type /stringtype eq
    { show } { -0.001 mul 0 cairo_font_matrix dtransform rmoveto } ifelse
  } forall
  currentpoint cairo_store_point
} bind def
/cairo_selectfont { cairo_font_matrix aload pop pop pop 0 0 6 array astore
    cairo_font exch selectfont cairo_point_x cairo_point_y moveto } bind def
/Tf { pop /cairo_font exch def /cairo_font_matrix where
      { pop cairo_selectfont } if } bind def
/Td { matrix translate cairo_font_matrix matrix concatmatrix dup
      /cairo_font_matrix exch def dup 4 get exch 5 get cairo_store_point
      /cairo_font where { pop cairo_selectfont } if } bind def
/Tm { 2 copy 8 2 roll 6 array astore /cairo_font_matrix exch def
      cairo_store_point /cairo_font where { pop cairo_selectfont } if } bind def
/g { setgray } bind def
/rg { setrgbcolor } bind def
/d1 { setcachedevice } bind def
%%EndProlog
%%BeginSetup
%%EndSetup
%%Page: 1 1
%%BeginPageSetup
%%PageBoundingBox: 0 -1 410 410
%%EndPageSetup
q 0 -1 410 411 rectclip q
0.376471 0.341176 0.341176 rg
80.141 409.6 m 35.879 409.6 0 373.721 0 329.459 c 0 302.272 13.543 278.252
 34.246 263.76 c 151.363 366.221 l 138.039 391.987 111.148 409.6 80.141 
409.6 c h
80.141 409.6 m f
0.25098 0.227451 0.227451 rg
329.461 409.6 m 298.453 409.6 271.559 391.987 258.234 366.221 c 375.355
 263.76 l 396.059 278.252 409.602 302.272 409.602 329.459 c 409.602 373.721
 373.723 409.6 329.461 409.6 c h
329.461 409.6 m f
1 0.831373 0.521569 rg
17.809 186.991 m 17.809 83.717 101.527 -0.002 204.801 -0.002 c 222.609 
186.991 l 204.801 373.983 l 101.527 373.983 17.809 290.264 17.809 186.991
 c h
17.809 186.991 m f
1 0.721569 0.2 rg
204.801 373.983 m 204.801 -0.002 l 308.074 -0.002 391.793 83.717 391.793
 186.991 c 391.793 290.264 308.074 373.983 204.801 373.983 c h
204.801 373.983 m f
0.25098 0.227451 0.227451 rg
321.766 225.678 m 299.203 247.17 l 292.012 254.018 282.293 258.225 271.582
 258.225 c 249.453 258.225 231.512 240.288 231.512 218.159 c 231.512 186.991
 l 231.512 157.487 255.434 133.565 284.941 133.565 c 314.445 133.565 338.367
 157.487 338.367 186.991 c 338.367 202.217 331.984 215.948 321.766 225.678
 c h
321.766 225.678 m f
0.376471 0.341176 0.341176 rg
87.836 225.678 m 110.398 247.17 l 117.586 254.018 127.309 258.225 138.016
 258.225 c 160.145 258.225 178.086 240.288 178.086 218.159 c 178.086 186.991
 l 178.086 157.487 154.168 133.565 124.66 133.565 c 95.152 133.565 71.234
 157.487 71.234 186.991 c 71.234 202.217 77.617 215.948 87.836 225.678 c
 h
87.836 225.678 m f
0.25098 0.227451 0.227451 rg
244.871 102.401 m 204.801 102.401 l 191.441 75.686 l 191.441 40.069 l 218.156
 40.069 l 218.156 75.686 l 244.871 75.686 l h
244.871 102.401 m f
0.376471 0.341176 0.341176 rg
164.73 102.401 40.07 -26.715 re f
Q Q
showpage
%%Trailer
end restore
%%EOF
