%!PS-Adobe-3.0 EPSF-3.0
%%Creator: cairo 1.14.2 (http://cairographics.org)
%%CreationDate: Wed Aug 17 12:23:11 2016
%%Pages: 1
%%DocumentData: Clean7Bit
%%LanguageLevel: 2
%%BoundingBox: 0 -1 392 410
%%EndComments
%%BeginProlog
save
50 dict begin
/q { gsave } bind def
/Q { grestore } bind def
/cm { 6 array astore concat } bind def
/w { setlinewidth } bind def
/J { setlinecap } bind def
/j { setlinejoin } bind def
/M { setmiterlimit } bind def
/d { setdash } bind def
/m { moveto } bind def
/l { lineto } bind def
/c { curveto } bind def
/h { closepath } bind def
/re { exch dup neg 3 1 roll 5 3 roll moveto 0 rlineto
      0 exch rlineto 0 rlineto closepath } bind def
/S { stroke } bind def
/f { fill } bind def
/f* { eofill } bind def
/n { newpath } bind def
/W { clip } bind def
/W* { eoclip } bind def
/BT { } bind def
/ET { } bind def
/pdfmark where { pop globaldict /?pdfmark /exec load put }
    { globaldict begin /?pdfmark /pop load def /pdfmark
    /cleartomark load def end } ifelse
/BDC { mark 3 1 roll /BDC pdfmark } bind def
/EMC { mark /EMC pdfmark } bind def
/cairo_store_point { /cairo_point_y exch def /cairo_point_x exch def } def
/Tj { show currentpoint cairo_store_point } bind def
/TJ {
  {
    dup
    type /stringtype eq
    { show } { -0.001 mul 0 cairo_font_matrix dtransform rmoveto } ifelse
  } forall
  currentpoint cairo_store_point
} bind def
/cairo_selectfont { cairo_font_matrix aload pop pop pop 0 0 6 array astore
    cairo_font exch selectfont cairo_point_x cairo_point_y moveto } bind def
/Tf { pop /cairo_font exch def /cairo_font_matrix where
      { pop cairo_selectfont } if } bind def
/Td { matrix translate cairo_font_matrix matrix concatmatrix dup
      /cairo_font_matrix exch def dup 4 get exch 5 get cairo_store_point
      /cairo_font where { pop cairo_selectfont } if } bind def
/Tm { 2 copy 8 2 roll 6 array astore /cairo_font_matrix exch def
      cairo_store_point /cairo_font where { pop cairo_selectfont } if } bind def
/g { setgray } bind def
/rg { setrgbcolor } bind def
/d1 { setcachedevice } bind def
%%EndProlog
%%BeginSetup
%%EndSetup
%%Page: 1 1
%%BeginPageSetup
%%PageBoundingBox: 0 -1 392 410
%%EndPageSetup
q 0 -1 392 411 rectclip q
1 0.721569 0.2 rg
284.938 396.245 m 284.938 13.358 l 142.469 13.358 l 97.949 204.799 l 142.469
 396.245 l h
284.938 396.245 m f
1 0.831373 0.521569 rg
0 396.245 142.469 -382.887 re f
0.25098 0.227451 0.227451 rg
213.703 342.819 m 213.703 289.393 l 142.469 289.393 l 124.66 316.104 l 
142.469 342.819 l h
213.703 342.819 m f
0.376471 0.341176 0.341176 rg
71.234 342.819 71.234 -53.426 re f
0.25098 0.227451 0.227451 rg
342.816 53.428 26.715 -53.43 re f
1 0.831373 0.521569 rg
356.176 409.6 m 356.176 409.6 311.637 359.041 332.488 299.186 c 356.176
 263.569 l 379.863 299.186 l 400.711 359.041 356.176 409.6 356.176 409.6
 c h
356.176 409.6 m f
1 0.309804 0.164706 rg
329.461 196.788 m 329.461 35.62 l 382.887 35.62 l 382.887 196.788 l 356.176
 223.498 l h
329.461 196.788 m f
0.25098 0.227451 0.227451 rg
320.559 299.186 m 329.461 196.788 l 382.887 196.788 l 391.793 299.186 l
 h
320.559 299.186 m f
Q Q
showpage
%%Trailer
end restore
%%EOF
