%!PS-Adobe-3.0 EPSF-3.0
%%Creator: cairo 1.14.2 (http://cairographics.org)
%%CreationDate: Wed Aug 17 12:23:17 2016
%%Pages: 1
%%DocumentData: Clean7Bit
%%LanguageLevel: 2
%%BoundingBox: 0 -1 410 410
%%EndComments
%%BeginProlog
save
50 dict begin
/q { gsave } bind def
/Q { grestore } bind def
/cm { 6 array astore concat } bind def
/w { setlinewidth } bind def
/J { setlinecap } bind def
/j { setlinejoin } bind def
/M { setmiterlimit } bind def
/d { setdash } bind def
/m { moveto } bind def
/l { lineto } bind def
/c { curveto } bind def
/h { closepath } bind def
/re { exch dup neg 3 1 roll 5 3 roll moveto 0 rlineto
      0 exch rlineto 0 rlineto closepath } bind def
/S { stroke } bind def
/f { fill } bind def
/f* { eofill } bind def
/n { newpath } bind def
/W { clip } bind def
/W* { eoclip } bind def
/BT { } bind def
/ET { } bind def
/pdfmark where { pop globaldict /?pdfmark /exec load put }
    { globaldict begin /?pdfmark /pop load def /pdfmark
    /cleartomark load def end } ifelse
/BDC { mark 3 1 roll /BDC pdfmark } bind def
/EMC { mark /EMC pdfmark } bind def
/cairo_store_point { /cairo_point_y exch def /cairo_point_x exch def } def
/Tj { show currentpoint cairo_store_point } bind def
/TJ {
  {
    dup
    type /stringtype eq
    { show } { -0.001 mul 0 cairo_font_matrix dtransform rmoveto } ifelse
  } forall
  currentpoint cairo_store_point
} bind def
/cairo_selectfont { cairo_font_matrix aload pop pop pop 0 0 6 array astore
    cairo_font exch selectfont cairo_point_x cairo_point_y moveto } bind def
/Tf { pop /cairo_font exch def /cairo_font_matrix where
      { pop cairo_selectfont } if } bind def
/Td { matrix translate cairo_font_matrix matrix concatmatrix dup
      /cairo_font_matrix exch def dup 4 get exch 5 get cairo_store_point
      /cairo_font where { pop cairo_selectfont } if } bind def
/Tm { 2 copy 8 2 roll 6 array astore /cairo_font_matrix exch def
      cairo_store_point /cairo_font where { pop cairo_selectfont } if } bind def
/g { setgray } bind def
/rg { setrgbcolor } bind def
/d1 { setcachedevice } bind def
%%EndProlog
%%BeginSetup
%%EndSetup
%%Page: 1 1
%%BeginPageSetup
%%PageBoundingBox: 0 -1 410 410
%%EndPageSetup
q 0 -1 410 411 rectclip q
0.301961 0.862745 0.827451 rg
0 138.018 m 0 61.791 61.793 -0.002 138.02 -0.002 c 155.828 138.018 l 138.02
 276.034 l 61.793 276.034 0 214.241 0 138.018 c h
0 138.018 m f
0 0.8 0.756863 rg
138.02 276.034 m 138.02 -0.002 l 214.242 -0.002 276.035 61.791 276.035 
138.018 c 276.035 214.241 214.242 276.034 138.02 276.034 c h
138.02 276.034 m f
1 0.101961 0.14902 rg
53.426 138.018 m 53.426 91.373 91.375 53.428 138.02 53.428 c 155.828 138.018
 l 138.02 222.608 l 91.375 222.608 53.426 184.663 53.426 138.018 c h
53.426 138.018 m f
0.752941 0.0784314 0.109804 rg
222.488 142.565 m 142.566 222.487 l 141.062 222.569 139.543 222.608 138.02
 222.608 c 138.02 53.428 l 184.664 53.428 222.609 91.373 222.609 138.018
 c 222.609 139.541 222.566 141.057 222.488 142.565 c h
222.488 142.565 m f
0.301961 0.862745 0.827451 rg
271.582 409.6 m 253.773 259.858 l 271.582 133.565 l 347.809 133.565 409.602
 195.358 409.602 271.584 c 409.602 347.807 347.809 409.6 271.582 409.6 c
 h
271.582 409.6 m f
0.6 0.921569 0.901961 rg
271.582 369.53 m 271.582 409.6 l 195.359 409.6 133.566 347.807 133.566 
271.58 c 133.566 195.358 195.359 133.565 271.582 133.565 c 271.582 342.819
 l 310.863 342.819 342.816 310.862 342.816 271.584 c 369.531 271.584 l 369.531
 325.592 325.59 369.53 271.582 369.53 c h
271.582 369.53 m f
Q Q
showpage
%%Trailer
end restore
%%EOF
