%!PS-Adobe-3.0 EPSF-3.0
%%Creator: cairo 1.14.2 (http://cairographics.org)
%%CreationDate: Wed Aug 17 12:22:39 2016
%%Pages: 1
%%DocumentData: Clean7Bit
%%LanguageLevel: 2
%%BoundingBox: 0 -1 258 410
%%EndComments
%%BeginProlog
save
50 dict begin
/q { gsave } bind def
/Q { grestore } bind def
/cm { 6 array astore concat } bind def
/w { setlinewidth } bind def
/J { setlinecap } bind def
/j { setlinejoin } bind def
/M { setmiterlimit } bind def
/d { setdash } bind def
/m { moveto } bind def
/l { lineto } bind def
/c { curveto } bind def
/h { closepath } bind def
/re { exch dup neg 3 1 roll 5 3 roll moveto 0 rlineto
      0 exch rlineto 0 rlineto closepath } bind def
/S { stroke } bind def
/f { fill } bind def
/f* { eofill } bind def
/n { newpath } bind def
/W { clip } bind def
/W* { eoclip } bind def
/BT { } bind def
/ET { } bind def
/pdfmark where { pop globaldict /?pdfmark /exec load put }
    { globaldict begin /?pdfmark /pop load def /pdfmark
    /cleartomark load def end } ifelse
/BDC { mark 3 1 roll /BDC pdfmark } bind def
/EMC { mark /EMC pdfmark } bind def
/cairo_store_point { /cairo_point_y exch def /cairo_point_x exch def } def
/Tj { show currentpoint cairo_store_point } bind def
/TJ {
  {
    dup
    type /stringtype eq
    { show } { -0.001 mul 0 cairo_font_matrix dtransform rmoveto } ifelse
  } forall
  currentpoint cairo_store_point
} bind def
/cairo_selectfont { cairo_font_matrix aload pop pop pop 0 0 6 array astore
    cairo_font exch selectfont cairo_point_x cairo_point_y moveto } bind def
/Tf { pop /cairo_font exch def /cairo_font_matrix where
      { pop cairo_selectfont } if } bind def
/Td { matrix translate cairo_font_matrix matrix concatmatrix dup
      /cairo_font_matrix exch def dup 4 get exch 5 get cairo_store_point
      /cairo_font where { pop cairo_selectfont } if } bind def
/Tm { 2 copy 8 2 roll 6 array astore /cairo_font_matrix exch def
      cairo_store_point /cairo_font where { pop cairo_selectfont } if } bind def
/g { setgray } bind def
/rg { setrgbcolor } bind def
/d1 { setcachedevice } bind def
%%EndProlog
%%BeginSetup
%%EndSetup
%%Page: 1 1
%%BeginPageSetup
%%PageBoundingBox: 0 -1 258 410
%%EndPageSetup
q 0 -1 258 411 rectclip q
0.301961 0.862745 0.827451 rg
186.309 295.405 m 186.309 352.166 l 128.879 352.166 l 128.879 -0.002 l 
228.223 -0.002 l 255.816 157.635 l 257.09 164.901 257.754 172.377 257.754
 180.01 c 257.754 230.549 228.66 274.288 186.309 295.405 c h
186.309 295.405 m f
0.6 0.921569 0.901961 rg
71.445 352.166 m 71.445 295.405 l 29.094 274.288 0 230.549 0 180.01 c 0
 172.377 0.668 164.901 1.938 157.635 c 29.531 -0.002 l 128.879 -0.002 l 
128.879 352.166 l h
71.445 352.166 m f
71.445 352.166 m 128.879 352.166 l 128.879 409.6 l 97.16 409.6 71.445 383.885
 71.445 352.166 c h
71.445 352.166 m f
0.301961 0.862745 0.827451 rg
128.879 409.6 m 128.879 352.166 l 186.309 352.166 l 186.309 383.885 160.598
 409.6 128.879 409.6 c h
128.879 409.6 m f
0.4 0.878431 0.854902 rg
80.348 180.01 m 80.348 206.768 102.121 228.541 128.879 228.541 c 128.879
 255.252 l 87.391 255.252 53.637 221.498 53.637 180.01 c 53.637 138.522 
87.391 104.768 128.879 104.768 c 128.879 131.483 l 102.121 131.483 80.348
 153.252 80.348 180.01 c h
80.348 180.01 m f
0 0.8 0.756863 rg
128.879 255.252 m 128.879 228.541 l 155.637 228.541 177.406 206.768 177.406
 180.01 c 177.406 153.252 155.637 131.483 128.879 131.483 c 128.879 104.768
 l 170.367 104.768 204.121 138.522 204.121 180.01 c 204.121 221.498 170.367
 255.252 128.879 255.252 c h
128.879 255.252 m f
49.184 365.522 159.387 -26.711 re f
Q Q
showpage
%%Trailer
end restore
%%EOF
