%!PS-Adobe-3.0 EPSF-3.0
%%Creator: cairo 1.14.2 (http://cairographics.org)
%%CreationDate: Wed Aug 17 12:23:25 2016
%%Pages: 1
%%DocumentData: Clean7Bit
%%LanguageLevel: 2
%%BoundingBox: 0 -1 277 410
%%EndComments
%%BeginProlog
save
50 dict begin
/q { gsave } bind def
/Q { grestore } bind def
/cm { 6 array astore concat } bind def
/w { setlinewidth } bind def
/J { setlinecap } bind def
/j { setlinejoin } bind def
/M { setmiterlimit } bind def
/d { setdash } bind def
/m { moveto } bind def
/l { lineto } bind def
/c { curveto } bind def
/h { closepath } bind def
/re { exch dup neg 3 1 roll 5 3 roll moveto 0 rlineto
      0 exch rlineto 0 rlineto closepath } bind def
/S { stroke } bind def
/f { fill } bind def
/f* { eofill } bind def
/n { newpath } bind def
/W { clip } bind def
/W* { eoclip } bind def
/BT { } bind def
/ET { } bind def
/pdfmark where { pop globaldict /?pdfmark /exec load put }
    { globaldict begin /?pdfmark /pop load def /pdfmark
    /cleartomark load def end } ifelse
/BDC { mark 3 1 roll /BDC pdfmark } bind def
/EMC { mark /EMC pdfmark } bind def
/cairo_store_point { /cairo_point_y exch def /cairo_point_x exch def } def
/Tj { show currentpoint cairo_store_point } bind def
/TJ {
  {
    dup
    type /stringtype eq
    { show } { -0.001 mul 0 cairo_font_matrix dtransform rmoveto } ifelse
  } forall
  currentpoint cairo_store_point
} bind def
/cairo_selectfont { cairo_font_matrix aload pop pop pop 0 0 6 array astore
    cairo_font exch selectfont cairo_point_x cairo_point_y moveto } bind def
/Tf { pop /cairo_font exch def /cairo_font_matrix where
      { pop cairo_selectfont } if } bind def
/Td { matrix translate cairo_font_matrix matrix concatmatrix dup
      /cairo_font_matrix exch def dup 4 get exch 5 get cairo_store_point
      /cairo_font where { pop cairo_selectfont } if } bind def
/Tm { 2 copy 8 2 roll 6 array astore /cairo_font_matrix exch def
      cairo_store_point /cairo_font where { pop cairo_selectfont } if } bind def
/g { setgray } bind def
/rg { setrgbcolor } bind def
/d1 { setcachedevice } bind def
%%EndProlog
%%BeginSetup
%%EndSetup
%%Page: 1 1
%%BeginPageSetup
%%PageBoundingBox: 0 -1 277 410
%%EndPageSetup
q 0 -1 277 411 rectclip q
0.376471 0.341176 0.341176 rg
235.965 284.94 26.711 -155.828 re f
0.25098 0.227451 0.227451 rg
249.32 84.592 m 264.051 84.592 276.035 96.573 276.035 111.303 c 276.035
 126.034 264.051 138.018 249.32 138.018 c 234.59 138.018 222.609 126.034
 222.609 111.303 c 222.609 96.573 234.59 84.592 249.32 84.592 c h
249.32 84.592 m f
1 0.101961 0.14902 rg
111.305 176.514 m 111.305 -0.002 l 138.016 -0.002 l 146.922 176.514 l h
111.305 176.514 m f
0.752941 0.0784314 0.109804 rg
138.016 176.51 26.715 -176.512 re f
0.501961 0.45098 0.454902 rg
13.355 284.94 26.715 -155.828 re f
26.711 84.592 m 11.984 84.592 0 96.573 0 111.303 c 0 126.034 11.984 138.018
 26.711 138.018 c 41.441 138.018 53.426 126.034 53.426 111.303 c 53.426 
96.573 41.441 84.592 26.711 84.592 c h
26.711 84.592 m f
1 0.721569 0.2 rg
262.676 284.94 m 262.676 216.092 206.863 160.28 138.016 160.28 c 120.207
 284.94 l 138.016 409.6 l 206.867 409.6 262.676 353.788 262.676 284.94 c
 h
262.676 284.94 m f
1 0.831373 0.521569 rg
138.016 356.174 m 138.016 409.6 l 69.168 409.6 13.355 353.788 13.355 284.94
 c 13.355 216.092 69.168 160.28 138.016 160.28 c 138.016 213.705 l 177.297
 213.705 209.25 245.659 209.25 284.94 c 209.25 324.217 177.297 356.174 138.016
 356.174 c h
138.016 356.174 m f
1 g
66.781 284.94 m 66.781 245.659 98.738 213.705 138.016 213.705 c 138.016
 356.174 l 98.738 356.174 66.781 324.217 66.781 284.94 c h
66.781 284.94 m f
Q Q
showpage
%%Trailer
end restore
%%EOF
