%!PS-Adobe-3.0 EPSF-3.0
%%Creator: cairo 1.14.2 (http://cairographics.org)
%%CreationDate: Wed Aug 17 12:26:39 2016
%%Pages: 1
%%DocumentData: Clean7Bit
%%LanguageLevel: 2
%%BoundingBox: 0 -1 348 410
%%EndComments
%%BeginProlog
save
50 dict begin
/q { gsave } bind def
/Q { grestore } bind def
/cm { 6 array astore concat } bind def
/w { setlinewidth } bind def
/J { setlinecap } bind def
/j { setlinejoin } bind def
/M { setmiterlimit } bind def
/d { setdash } bind def
/m { moveto } bind def
/l { lineto } bind def
/c { curveto } bind def
/h { closepath } bind def
/re { exch dup neg 3 1 roll 5 3 roll moveto 0 rlineto
      0 exch rlineto 0 rlineto closepath } bind def
/S { stroke } bind def
/f { fill } bind def
/f* { eofill } bind def
/n { newpath } bind def
/W { clip } bind def
/W* { eoclip } bind def
/BT { } bind def
/ET { } bind def
/pdfmark where { pop globaldict /?pdfmark /exec load put }
    { globaldict begin /?pdfmark /pop load def /pdfmark
    /cleartomark load def end } ifelse
/BDC { mark 3 1 roll /BDC pdfmark } bind def
/EMC { mark /EMC pdfmark } bind def
/cairo_store_point { /cairo_point_y exch def /cairo_point_x exch def } def
/Tj { show currentpoint cairo_store_point } bind def
/TJ {
  {
    dup
    type /stringtype eq
    { show } { -0.001 mul 0 cairo_font_matrix dtransform rmoveto } ifelse
  } forall
  currentpoint cairo_store_point
} bind def
/cairo_selectfont { cairo_font_matrix aload pop pop pop 0 0 6 array astore
    cairo_font exch selectfont cairo_point_x cairo_point_y moveto } bind def
/Tf { pop /cairo_font exch def /cairo_font_matrix where
      { pop cairo_selectfont } if } bind def
/Td { matrix translate cairo_font_matrix matrix concatmatrix dup
      /cairo_font_matrix exch def dup 4 get exch 5 get cairo_store_point
      /cairo_font where { pop cairo_selectfont } if } bind def
/Tm { 2 copy 8 2 roll 6 array astore /cairo_font_matrix exch def
      cairo_store_point /cairo_font where { pop cairo_selectfont } if } bind def
/g { setgray } bind def
/rg { setrgbcolor } bind def
/d1 { setcachedevice } bind def
%%EndProlog
%%BeginSetup
%%EndSetup
%%Page: 1 1
%%BeginPageSetup
%%PageBoundingBox: 0 -1 348 410
%%EndPageSetup
q 0 -1 348 411 rectclip q
1 0.309804 0.164706 rg
26.559 286.389 m 18.07 266.842 13.355 245.276 13.355 222.608 c 13.355 207.416
 15.469 192.721 19.418 178.795 c 70.824 -0.002 l 173.633 -0.002 l 193.355
 330.909 l h
26.559 286.389 m f
1 0.101961 0.14902 rg
320.707 286.389 m 175.547 330.913 l 173.633 -0.002 l 276.445 -0.002 l 327.848
 178.795 l 331.797 192.721 333.914 207.42 333.914 222.608 c 333.914 245.276
 329.195 266.842 320.707 286.389 c h
320.707 286.389 m f
1 0.309804 0.164706 rg
227.062 53.428 m 227.062 46.049 221.082 40.069 213.703 40.069 c 206.328
 40.069 200.348 46.049 200.348 53.428 c 200.348 60.803 206.328 66.784 213.703
 66.784 c 221.082 66.784 227.062 60.803 227.062 53.428 c h
227.062 53.428 m f
262.68 106.854 m 262.68 99.475 256.699 93.495 249.32 93.495 c 241.945 93.495
 235.965 99.475 235.965 106.854 c 235.965 114.229 241.945 120.209 249.32
 120.209 c 256.699 120.209 262.68 114.229 262.68 106.854 c h
262.68 106.854 m f
1 0.831373 0.521569 rg
71.234 409.6 m 71.234 373.987 l 80.137 360.627 l 71.234 347.268 l 0 302.748
 l 0 293.842 l 28.938 293.842 28.938 276.034 57.875 276.034 c 86.812 276.034
 86.812 293.842 115.75 293.842 c 144.691 293.842 144.691 276.034 173.629
 276.034 c 191.441 348.163 l 173.633 409.6 l h
71.234 409.6 m f
1 0.721569 0.2 rg
276.035 347.268 m 267.129 360.627 l 276.035 373.987 l 276.035 409.6 l 173.633
 409.6 l 173.629 276.034 l 202.566 276.034 202.566 293.842 231.504 293.842
 c 260.445 293.842 260.445 276.034 289.387 276.034 c 318.328 276.034 318.328
 293.842 347.27 293.842 c 347.27 302.748 l h
276.035 347.268 m f
1 0.513726 0.184314 rg
71.234 373.983 m 71.234 347.268 l 173.633 347.268 l 182.535 360.627 l 173.633
 373.983 l h
71.234 373.983 m f
1 0.309804 0.164706 rg
173.633 373.983 102.402 -26.715 re f
Q Q
showpage
%%Trailer
end restore
%%EOF
