%!PS-Adobe-3.0 EPSF-3.0
%%Creator: cairo 1.14.2 (http://cairographics.org)
%%CreationDate: Wed Aug 17 12:27:42 2016
%%Pages: 1
%%DocumentData: Clean7Bit
%%LanguageLevel: 2
%%BoundingBox: 0 -1 410 410
%%EndComments
%%BeginProlog
save
50 dict begin
/q { gsave } bind def
/Q { grestore } bind def
/cm { 6 array astore concat } bind def
/w { setlinewidth } bind def
/J { setlinecap } bind def
/j { setlinejoin } bind def
/M { setmiterlimit } bind def
/d { setdash } bind def
/m { moveto } bind def
/l { lineto } bind def
/c { curveto } bind def
/h { closepath } bind def
/re { exch dup neg 3 1 roll 5 3 roll moveto 0 rlineto
      0 exch rlineto 0 rlineto closepath } bind def
/S { stroke } bind def
/f { fill } bind def
/f* { eofill } bind def
/n { newpath } bind def
/W { clip } bind def
/W* { eoclip } bind def
/BT { } bind def
/ET { } bind def
/pdfmark where { pop globaldict /?pdfmark /exec load put }
    { globaldict begin /?pdfmark /pop load def /pdfmark
    /cleartomark load def end } ifelse
/BDC { mark 3 1 roll /BDC pdfmark } bind def
/EMC { mark /EMC pdfmark } bind def
/cairo_store_point { /cairo_point_y exch def /cairo_point_x exch def } def
/Tj { show currentpoint cairo_store_point } bind def
/TJ {
  {
    dup
    type /stringtype eq
    { show } { -0.001 mul 0 cairo_font_matrix dtransform rmoveto } ifelse
  } forall
  currentpoint cairo_store_point
} bind def
/cairo_selectfont { cairo_font_matrix aload pop pop pop 0 0 6 array astore
    cairo_font exch selectfont cairo_point_x cairo_point_y moveto } bind def
/Tf { pop /cairo_font exch def /cairo_font_matrix where
      { pop cairo_selectfont } if } bind def
/Td { matrix translate cairo_font_matrix matrix concatmatrix dup
      /cairo_font_matrix exch def dup 4 get exch 5 get cairo_store_point
      /cairo_font where { pop cairo_selectfont } if } bind def
/Tm { 2 copy 8 2 roll 6 array astore /cairo_font_matrix exch def
      cairo_store_point /cairo_font where { pop cairo_selectfont } if } bind def
/g { setgray } bind def
/rg { setrgbcolor } bind def
/d1 { setcachedevice } bind def
%%EndProlog
%%BeginSetup
%%EndSetup
%%Page: 1 1
%%BeginPageSetup
%%PageBoundingBox: 0 -1 410 410
%%EndPageSetup
q 0 -1 410 411 rectclip q
1 0.831373 0.521569 rg
181.586 396.088 m 181.445 396.069 181.312 396.045 181.176 396.03 c 174.645
 402.631 164.863 405.651 155.25 403.077 c 145.648 400.502 138.691 393.01
 136.332 384.041 c 136.191 383.983 136.055 383.928 135.914 383.87 c 127.902
 388.545 117.688 388.92 109.078 383.952 c 100.453 378.971 95.668 369.909
 95.73 360.616 c 95.629 360.538 95.527 360.459 95.422 360.381 c 86.461 362.846
 76.469 360.569 69.43 353.526 c 62.391 346.487 60.113 336.495 62.574 327.534
 c 62.496 327.432 62.418 327.33 62.34 327.225 c 53.047 327.288 43.984 322.502
 39.008 313.877 c 34.035 305.268 34.414 295.053 39.09 287.041 c 39.031 286.901
 38.977 286.764 38.918 286.623 c 29.945 284.264 22.453 277.307 19.879 267.705
 c 17.305 258.092 20.324 248.311 26.93 241.78 c 26.91 241.643 26.887 241.506
 26.871 241.37 c 18.801 236.772 13.355 228.104 13.355 218.155 c 222.609 
200.346 l 204.801 409.6 l 194.852 409.6 186.184 404.155 181.586 396.088 
c h
181.586 396.088 m f
1 0.721569 0.2 rg
382.73 241.37 m 382.711 241.51 382.691 241.643 382.672 241.78 c 389.277
 248.311 392.297 258.092 389.723 267.705 c 387.148 277.307 379.656 284.264
 370.684 286.623 c 370.625 286.764 370.57 286.901 370.512 287.041 c 375.188
 295.053 375.566 305.268 370.594 313.877 c 365.613 322.502 356.555 327.288
 347.262 327.225 c 347.184 327.327 347.102 327.432 347.023 327.534 c 349.488
 336.495 347.211 346.487 340.172 353.526 c 333.129 360.569 323.137 362.846
 314.176 360.381 c 314.074 360.459 313.973 360.538 313.871 360.616 c 313.934
 369.909 309.145 378.971 300.523 383.952 c 291.914 388.92 281.695 388.545
 273.688 383.87 c 273.547 383.928 273.406 383.983 273.27 384.041 c 270.91
 393.01 263.953 400.502 254.348 403.077 c 244.738 405.655 234.957 402.635
 228.426 396.03 c 228.289 396.045 228.152 396.069 228.016 396.088 c 223.418
 404.155 214.75 409.6 204.801 409.6 c 204.801 200.346 l 396.242 218.159 
l 396.242 228.104 390.797 236.772 382.73 241.37 c h
382.73 241.37 m f
1 0.101961 0.14902 rg
129.113 26.713 151.375 -26.715 re f
1 0.513726 0.184314 rg
0 218.159 m 0 105.049 91.691 13.358 204.801 13.358 c 222.609 115.756 l 
204.801 218.159 l h
0 218.159 m f
1 0.309804 0.164706 rg
204.801 218.159 m 204.801 13.358 l 317.906 13.358 409.602 105.049 409.602
 218.159 c h
204.801 218.159 m f
1 0.831373 0.521569 rg
320.559 271.58 m 320.559 264.205 314.578 258.225 307.199 258.225 c 299.824
 258.225 293.844 264.205 293.844 271.58 c 293.844 278.959 299.824 284.94
 307.199 284.94 c 314.578 284.94 320.559 278.959 320.559 271.58 c h
320.559 271.58 m f
284.938 325.01 m 284.938 317.631 278.961 311.651 271.582 311.651 c 264.207
 311.651 258.227 317.631 258.227 325.01 c 258.227 332.385 264.207 338.366
 271.582 338.366 c 278.961 338.366 284.938 332.385 284.938 325.01 c h
284.938 325.01 m f
1 0.721569 0.2 rg
133.566 298.295 m 133.566 290.92 127.586 284.94 120.207 284.94 c 112.832
 284.94 106.852 290.92 106.852 298.295 c 106.852 305.674 112.832 311.655
 120.207 311.655 c 127.586 311.655 133.566 305.674 133.566 298.295 c h
133.566 298.295 m f
Q Q
showpage
%%Trailer
end restore
%%EOF
