%!PS-Adobe-3.0 EPSF-3.0
%%Creator: cairo 1.14.2 (http://cairographics.org)
%%CreationDate: Wed Aug 17 12:22:47 2016
%%Pages: 1
%%DocumentData: Clean7Bit
%%LanguageLevel: 2
%%BoundingBox: 0 -1 410 410
%%EndComments
%%BeginProlog
save
50 dict begin
/q { gsave } bind def
/Q { grestore } bind def
/cm { 6 array astore concat } bind def
/w { setlinewidth } bind def
/J { setlinecap } bind def
/j { setlinejoin } bind def
/M { setmiterlimit } bind def
/d { setdash } bind def
/m { moveto } bind def
/l { lineto } bind def
/c { curveto } bind def
/h { closepath } bind def
/re { exch dup neg 3 1 roll 5 3 roll moveto 0 rlineto
      0 exch rlineto 0 rlineto closepath } bind def
/S { stroke } bind def
/f { fill } bind def
/f* { eofill } bind def
/n { newpath } bind def
/W { clip } bind def
/W* { eoclip } bind def
/BT { } bind def
/ET { } bind def
/pdfmark where { pop globaldict /?pdfmark /exec load put }
    { globaldict begin /?pdfmark /pop load def /pdfmark
    /cleartomark load def end } ifelse
/BDC { mark 3 1 roll /BDC pdfmark } bind def
/EMC { mark /EMC pdfmark } bind def
/cairo_store_point { /cairo_point_y exch def /cairo_point_x exch def } def
/Tj { show currentpoint cairo_store_point } bind def
/TJ {
  {
    dup
    type /stringtype eq
    { show } { -0.001 mul 0 cairo_font_matrix dtransform rmoveto } ifelse
  } forall
  currentpoint cairo_store_point
} bind def
/cairo_selectfont { cairo_font_matrix aload pop pop pop 0 0 6 array astore
    cairo_font exch selectfont cairo_point_x cairo_point_y moveto } bind def
/Tf { pop /cairo_font exch def /cairo_font_matrix where
      { pop cairo_selectfont } if } bind def
/Td { matrix translate cairo_font_matrix matrix concatmatrix dup
      /cairo_font_matrix exch def dup 4 get exch 5 get cairo_store_point
      /cairo_font where { pop cairo_selectfont } if } bind def
/Tm { 2 copy 8 2 roll 6 array astore /cairo_font_matrix exch def
      cairo_store_point /cairo_font where { pop cairo_selectfont } if } bind def
/g { setgray } bind def
/rg { setrgbcolor } bind def
/d1 { setcachedevice } bind def
%%EndProlog
%%BeginSetup
%%EndSetup
%%Page: 1 1
%%BeginPageSetup
%%PageBoundingBox: 0 -1 410 410
%%EndPageSetup
q 0 -1 410 411 rectclip q
1 0.721569 0.2 rg
409.602 409.6 m 356.172 409.6 l 338.367 248.877 l 356.172 88.155 l 409.602
 88.155 l h
409.602 409.6 m f
0.752941 0.0784314 0.109804 rg
88.152 409.6 m 176.305 88.155 l 356.172 88.155 l 356.172 409.6 l h
88.152 409.6 m f
1 0.101961 0.14902 rg
0 321.448 m 0 88.155 l 0 39.467 39.469 -0.002 88.152 -0.002 c 136.836 -0.002
 176.305 39.467 176.305 88.155 c 176.305 321.448 l h
0 321.448 m f
1 0.282353 0.317647 rg
176.305 321.448 m 176.305 272.76 136.84 233.295 88.152 233.295 c 39.469
 233.295 0 272.76 0 321.448 c 0 370.131 39.469 409.6 88.152 409.6 c 136.84
 409.6 176.305 370.131 176.305 321.448 c h
176.305 321.448 m f
1 0.721569 0.2 rg
88.152 294.733 m 73.422 294.733 61.441 306.717 61.441 321.448 c 61.441 
336.174 73.422 348.159 88.152 348.159 c 102.883 348.159 114.867 336.178 
114.867 321.448 c 114.867 306.717 102.883 294.733 88.152 294.733 c h
88.152 294.733 m f
Q Q
showpage
%%Trailer
end restore
%%EOF
