%!PS-Adobe-3.0 EPSF-3.0
%%Creator: cairo 1.14.2 (http://cairographics.org)
%%CreationDate: Wed Aug 17 12:27:09 2016
%%Pages: 1
%%DocumentData: Clean7Bit
%%LanguageLevel: 2
%%BoundingBox: 0 -1 410 397
%%EndComments
%%BeginProlog
save
50 dict begin
/q { gsave } bind def
/Q { grestore } bind def
/cm { 6 array astore concat } bind def
/w { setlinewidth } bind def
/J { setlinecap } bind def
/j { setlinejoin } bind def
/M { setmiterlimit } bind def
/d { setdash } bind def
/m { moveto } bind def
/l { lineto } bind def
/c { curveto } bind def
/h { closepath } bind def
/re { exch dup neg 3 1 roll 5 3 roll moveto 0 rlineto
      0 exch rlineto 0 rlineto closepath } bind def
/S { stroke } bind def
/f { fill } bind def
/f* { eofill } bind def
/n { newpath } bind def
/W { clip } bind def
/W* { eoclip } bind def
/BT { } bind def
/ET { } bind def
/pdfmark where { pop globaldict /?pdfmark /exec load put }
    { globaldict begin /?pdfmark /pop load def /pdfmark
    /cleartomark load def end } ifelse
/BDC { mark 3 1 roll /BDC pdfmark } bind def
/EMC { mark /EMC pdfmark } bind def
/cairo_store_point { /cairo_point_y exch def /cairo_point_x exch def } def
/Tj { show currentpoint cairo_store_point } bind def
/TJ {
  {
    dup
    type /stringtype eq
    { show } { -0.001 mul 0 cairo_font_matrix dtransform rmoveto } ifelse
  } forall
  currentpoint cairo_store_point
} bind def
/cairo_selectfont { cairo_font_matrix aload pop pop pop 0 0 6 array astore
    cairo_font exch selectfont cairo_point_x cairo_point_y moveto } bind def
/Tf { pop /cairo_font exch def /cairo_font_matrix where
      { pop cairo_selectfont } if } bind def
/Td { matrix translate cairo_font_matrix matrix concatmatrix dup
      /cairo_font_matrix exch def dup 4 get exch 5 get cairo_store_point
      /cairo_font where { pop cairo_selectfont } if } bind def
/Tm { 2 copy 8 2 roll 6 array astore /cairo_font_matrix exch def
      cairo_store_point /cairo_font where { pop cairo_selectfont } if } bind def
/g { setgray } bind def
/rg { setrgbcolor } bind def
/d1 { setcachedevice } bind def
%%EndProlog
%%BeginSetup
%%EndSetup
%%Page: 1 1
%%BeginPageSetup
%%PageBoundingBox: 0 -1 410 397
%%EndPageSetup
q 0 -1 410 398 rectclip q
0.6 0.921569 0.901961 rg
26.711 209.251 m 26.711 158.431 48.004 112.587 82.148 80.138 c 213.703 
62.329 l 204.801 209.251 l h
26.711 209.251 m f
0.301961 0.862745 0.827451 rg
204.801 209.251 m 204.801 62.329 l 327.453 80.138 l 361.598 112.587 382.887
 158.431 382.887 209.251 c h
204.801 209.251 m f
1 0.721569 0.2 rg
244.871 235.966 m 218.156 235.966 l 218.156 252.474 222.641 261.442 226.246
 268.649 c 229.305 274.763 231.512 279.185 231.512 289.384 c 231.512 299.591
 229.305 304.009 226.246 310.126 c 222.641 317.337 218.156 326.306 218.156
 342.814 c 218.156 359.325 222.641 368.294 226.246 375.501 c 229.305 381.618
 231.512 386.04 231.512 396.243 c 258.227 396.243 l 258.227 379.735 253.742
 370.763 250.137 363.556 c 247.078 357.439 244.871 353.017 244.871 342.814
 c 244.871 332.61 247.078 328.189 250.137 322.075 c 253.742 314.864 258.227
 305.896 258.227 289.384 c 258.227 272.876 253.742 263.907 250.137 256.7
 c 247.078 250.587 244.871 246.169 244.871 235.966 c h
244.871 235.966 m f
1 0.831373 0.521569 rg
178.086 235.966 m 151.375 235.966 l 151.375 252.474 155.859 261.442 159.465
 268.649 c 162.523 274.763 164.73 279.185 164.73 289.384 c 164.73 299.591
 162.523 304.009 159.461 310.126 c 155.859 317.337 151.375 326.306 151.375
 342.814 c 151.375 359.325 155.859 368.294 159.465 375.501 c 162.523 381.618
 164.73 386.04 164.73 396.243 c 191.445 396.243 l 191.445 379.735 186.961
 370.763 183.355 363.556 c 180.297 357.439 178.086 353.017 178.086 342.814
 c 178.086 332.61 180.297 328.189 183.355 322.075 c 186.961 314.864 191.445
 305.896 191.445 289.384 c 191.445 272.876 186.961 263.907 183.355 256.7
 c 180.297 250.587 178.086 246.169 178.086 235.966 c h
178.086 235.966 m f
0.301961 0.862745 0.827451 rg
0 80.138 m 26.711 0.001 l 204.801 0.001 l 222.609 40.071 l 204.801 80.138
 l h
0 80.138 m f
0 0.8 0.756863 rg
204.801 80.138 m 204.801 0.001 l 382.887 0.001 l 409.602 80.138 l h
204.801 80.138 m f
Q Q
showpage
%%Trailer
end restore
%%EOF
