%!PS-Adobe-3.0 EPSF-3.0
%%Creator: cairo 1.14.2 (http://cairographics.org)
%%CreationDate: Wed Aug 17 12:27:23 2016
%%Pages: 1
%%DocumentData: Clean7Bit
%%LanguageLevel: 2
%%BoundingBox: 0 -1 357 410
%%EndComments
%%BeginProlog
save
50 dict begin
/q { gsave } bind def
/Q { grestore } bind def
/cm { 6 array astore concat } bind def
/w { setlinewidth } bind def
/J { setlinecap } bind def
/j { setlinejoin } bind def
/M { setmiterlimit } bind def
/d { setdash } bind def
/m { moveto } bind def
/l { lineto } bind def
/c { curveto } bind def
/h { closepath } bind def
/re { exch dup neg 3 1 roll 5 3 roll moveto 0 rlineto
      0 exch rlineto 0 rlineto closepath } bind def
/S { stroke } bind def
/f { fill } bind def
/f* { eofill } bind def
/n { newpath } bind def
/W { clip } bind def
/W* { eoclip } bind def
/BT { } bind def
/ET { } bind def
/pdfmark where { pop globaldict /?pdfmark /exec load put }
    { globaldict begin /?pdfmark /pop load def /pdfmark
    /cleartomark load def end } ifelse
/BDC { mark 3 1 roll /BDC pdfmark } bind def
/EMC { mark /EMC pdfmark } bind def
/cairo_store_point { /cairo_point_y exch def /cairo_point_x exch def } def
/Tj { show currentpoint cairo_store_point } bind def
/TJ {
  {
    dup
    type /stringtype eq
    { show } { -0.001 mul 0 cairo_font_matrix dtransform rmoveto } ifelse
  } forall
  currentpoint cairo_store_point
} bind def
/cairo_selectfont { cairo_font_matrix aload pop pop pop 0 0 6 array astore
    cairo_font exch selectfont cairo_point_x cairo_point_y moveto } bind def
/Tf { pop /cairo_font exch def /cairo_font_matrix where
      { pop cairo_selectfont } if } bind def
/Td { matrix translate cairo_font_matrix matrix concatmatrix dup
      /cairo_font_matrix exch def dup 4 get exch 5 get cairo_store_point
      /cairo_font where { pop cairo_selectfont } if } bind def
/Tm { 2 copy 8 2 roll 6 array astore /cairo_font_matrix exch def
      cairo_store_point /cairo_font where { pop cairo_selectfont } if } bind def
/g { setgray } bind def
/rg { setrgbcolor } bind def
/d1 { setcachedevice } bind def
%%EndProlog
%%BeginSetup
%%EndSetup
%%Page: 1 1
%%BeginPageSetup
%%PageBoundingBox: 0 -1 357 410
%%EndPageSetup
q 0 -1 357 411 rectclip q
1 0.513726 0.184314 rg
178.086 178.088 m 356.176 -0.002 l 356.176 178.088 l h
178.086 178.088 m f
1 0.721569 0.2 rg
0 178.088 m 0 -0.002 l 178.086 178.088 l h
0 178.088 m f
1 0.831373 0.521569 rg
0 -0.002 m 178.086 -0.002 l 195.895 89.041 l 178.086 178.088 l 79.734 178.088
 0 98.354 0 -0.002 c h
0 -0.002 m f
1 0.721569 0.2 rg
178.086 178.088 m 178.086 -0.002 l 356.176 -0.002 l 356.176 98.354 276.441
 178.088 178.086 178.088 c h
178.086 178.088 m f
0 409.6 m 0 231.514 l 178.086 409.6 l h
0 409.6 m f
1 0.513726 0.184314 rg
178.086 409.6 m 356.176 231.514 l 356.176 409.6 l h
178.086 409.6 m f
1 0.831373 0.521569 rg
0 231.514 m 178.086 231.514 l 195.895 320.557 l 178.086 409.6 l 79.734 
409.6 0 329.87 0 231.514 c h
0 231.514 m f
1 0.721569 0.2 rg
178.086 409.6 m 178.086 231.514 l 356.176 231.514 l 356.176 329.87 276.441
 409.6 178.086 409.6 c h
178.086 409.6 m f
1 0.513726 0.184314 rg
267.133 53.428 m 267.133 46.049 261.152 40.069 253.773 40.069 c 246.398
 40.069 240.418 46.049 240.418 53.428 c 240.418 60.803 246.398 66.784 253.773
 66.784 c 261.152 66.784 267.133 60.803 267.133 53.428 c h
267.133 53.428 m f
231.512 106.854 m 231.512 99.475 225.535 93.495 218.156 93.495 c 210.781
 93.495 204.801 99.475 204.801 106.854 c 204.801 114.229 210.781 120.209
 218.156 120.209 c 225.535 120.209 231.512 114.229 231.512 106.854 c h
231.512 106.854 m f
1 0.721569 0.2 rg
151.375 338.366 m 151.375 330.991 145.395 325.01 138.02 325.01 c 130.641
 325.01 124.66 330.991 124.66 338.366 c 124.66 345.741 130.641 351.721 138.02
 351.721 c 145.395 351.721 151.375 345.741 151.375 338.366 c h
151.375 338.366 m f
Q Q
showpage
%%Trailer
end restore
%%EOF
