%!PS-Adobe-3.0 EPSF-3.0
%%Creator: cairo 1.14.2 (http://cairographics.org)
%%CreationDate: Wed Aug 17 12:23:48 2016
%%Pages: 1
%%DocumentData: Clean7Bit
%%LanguageLevel: 2
%%BoundingBox: 0 -1 410 410
%%EndComments
%%BeginProlog
save
50 dict begin
/q { gsave } bind def
/Q { grestore } bind def
/cm { 6 array astore concat } bind def
/w { setlinewidth } bind def
/J { setlinecap } bind def
/j { setlinejoin } bind def
/M { setmiterlimit } bind def
/d { setdash } bind def
/m { moveto } bind def
/l { lineto } bind def
/c { curveto } bind def
/h { closepath } bind def
/re { exch dup neg 3 1 roll 5 3 roll moveto 0 rlineto
      0 exch rlineto 0 rlineto closepath } bind def
/S { stroke } bind def
/f { fill } bind def
/f* { eofill } bind def
/n { newpath } bind def
/W { clip } bind def
/W* { eoclip } bind def
/BT { } bind def
/ET { } bind def
/pdfmark where { pop globaldict /?pdfmark /exec load put }
    { globaldict begin /?pdfmark /pop load def /pdfmark
    /cleartomark load def end } ifelse
/BDC { mark 3 1 roll /BDC pdfmark } bind def
/EMC { mark /EMC pdfmark } bind def
/cairo_store_point { /cairo_point_y exch def /cairo_point_x exch def } def
/Tj { show currentpoint cairo_store_point } bind def
/TJ {
  {
    dup
    type /stringtype eq
    { show } { -0.001 mul 0 cairo_font_matrix dtransform rmoveto } ifelse
  } forall
  currentpoint cairo_store_point
} bind def
/cairo_selectfont { cairo_font_matrix aload pop pop pop 0 0 6 array astore
    cairo_font exch selectfont cairo_point_x cairo_point_y moveto } bind def
/Tf { pop /cairo_font exch def /cairo_font_matrix where
      { pop cairo_selectfont } if } bind def
/Td { matrix translate cairo_font_matrix matrix concatmatrix dup
      /cairo_font_matrix exch def dup 4 get exch 5 get cairo_store_point
      /cairo_font where { pop cairo_selectfont } if } bind def
/Tm { 2 copy 8 2 roll 6 array astore /cairo_font_matrix exch def
      cairo_store_point /cairo_font where { pop cairo_selectfont } if } bind def
/g { setgray } bind def
/rg { setrgbcolor } bind def
/d1 { setcachedevice } bind def
%%EndProlog
%%BeginSetup
%%EndSetup
%%Page: 1 1
%%BeginPageSetup
%%PageBoundingBox: 0 -1 410 410
%%EndPageSetup
q 0 -1 410 411 rectclip q
1 0.513726 0.184314 rg
360.332 341.868 m 341.855 360.341 l 391.121 409.607 l 409.594 391.134 l
 h
360.332 341.868 m f
180.316 143.368 m 191.504 154.56 l 184.73 185.966 l 82.52 83.755 l 147.797
 18.478 l 135.598 61.462 146.477 109.532 180.316 143.368 c h
180.316 143.368 m f
1 0.721569 0.2 rg
154.555 191.505 m 143.367 180.318 l 109.527 146.478 61.461 135.603 18.473
 147.798 c 82.52 83.755 l 184.73 185.966 l h
154.555 191.505 m f
381.891 344.943 m 344.941 381.892 l 307.992 344.943 l 314.148 314.154 l
 344.941 307.993 l h
381.891 344.943 m f
1 0.101961 0.14902 rg
307.992 344.943 m 154.555 191.505 l 173.031 173.032 l 255.906 243.595 l
 326.465 326.47 l h
307.992 344.943 m f
0.752941 0.0784314 0.109804 rg
344.941 307.989 m 191.508 154.556 l 173.031 173.032 l 326.465 326.462 l
 h
344.941 307.989 m f
1 0.513726 0.184314 rg
18.473 166.275 m 0 147.798 l 73.281 74.517 l 88.676 77.595 l 91.758 92.989
 l h
18.473 166.275 m f
1 0.309804 0.164706 rg
166.266 18.474 m 147.793 0.001 l 73.281 74.513 l 91.754 92.986 l h
166.266 18.474 m f
Q Q
showpage
%%Trailer
end restore
%%EOF
