%!PS-Adobe-3.0 EPSF-3.0
%%Creator: cairo 1.14.2 (http://cairographics.org)
%%CreationDate: Wed Aug 17 12:25:11 2016
%%Pages: 1
%%DocumentData: Clean7Bit
%%LanguageLevel: 2
%%BoundingBox: 0 -1 374 410
%%EndComments
%%BeginProlog
save
50 dict begin
/q { gsave } bind def
/Q { grestore } bind def
/cm { 6 array astore concat } bind def
/w { setlinewidth } bind def
/J { setlinecap } bind def
/j { setlinejoin } bind def
/M { setmiterlimit } bind def
/d { setdash } bind def
/m { moveto } bind def
/l { lineto } bind def
/c { curveto } bind def
/h { closepath } bind def
/re { exch dup neg 3 1 roll 5 3 roll moveto 0 rlineto
      0 exch rlineto 0 rlineto closepath } bind def
/S { stroke } bind def
/f { fill } bind def
/f* { eofill } bind def
/n { newpath } bind def
/W { clip } bind def
/W* { eoclip } bind def
/BT { } bind def
/ET { } bind def
/pdfmark where { pop globaldict /?pdfmark /exec load put }
    { globaldict begin /?pdfmark /pop load def /pdfmark
    /cleartomark load def end } ifelse
/BDC { mark 3 1 roll /BDC pdfmark } bind def
/EMC { mark /EMC pdfmark } bind def
/cairo_store_point { /cairo_point_y exch def /cairo_point_x exch def } def
/Tj { show currentpoint cairo_store_point } bind def
/TJ {
  {
    dup
    type /stringtype eq
    { show } { -0.001 mul 0 cairo_font_matrix dtransform rmoveto } ifelse
  } forall
  currentpoint cairo_store_point
} bind def
/cairo_selectfont { cairo_font_matrix aload pop pop pop 0 0 6 array astore
    cairo_font exch selectfont cairo_point_x cairo_point_y moveto } bind def
/Tf { pop /cairo_font exch def /cairo_font_matrix where
      { pop cairo_selectfont } if } bind def
/Td { matrix translate cairo_font_matrix matrix concatmatrix dup
      /cairo_font_matrix exch def dup 4 get exch 5 get cairo_store_point
      /cairo_font where { pop cairo_selectfont } if } bind def
/Tm { 2 copy 8 2 roll 6 array astore /cairo_font_matrix exch def
      cairo_store_point /cairo_font where { pop cairo_selectfont } if } bind def
/g { setgray } bind def
/rg { setrgbcolor } bind def
/d1 { setcachedevice } bind def
%%EndProlog
%%BeginSetup
%%EndSetup
%%Page: 1 1
%%BeginPageSetup
%%PageBoundingBox: 0 -1 374 410
%%EndPageSetup
q 0 -1 374 411 rectclip q
0.25098 0.227451 0.227451 rg
373.98 293.842 m 373.98 89.041 l 284.938 89.041 l 302.746 356.174 l h
373.98 293.842 m f
0.376471 0.341176 0.341176 rg
71.234 356.174 m 89.043 89.041 l 0 89.041 l 0 293.842 l h
71.234 356.174 m f
0.25098 0.227451 0.227451 rg
231.512 409.6 m 245.762 409.6 l 245.762 338.366 l 178.086 338.366 l 186.992
 365.077 l 186.992 389.565 207.027 409.6 231.512 409.6 c h
231.512 409.6 m f
0.376471 0.341176 0.341176 rg
142.469 409.6 m 128.223 409.6 l 128.223 338.366 l 186.992 338.366 l 186.992
 365.077 l 186.992 389.565 166.957 409.6 142.469 409.6 c h
142.469 409.6 m f
302.746 89.041 m 302.746 -0.002 l 186.992 -0.002 l 186.992 356.174 l 302.746
 356.174 l h
302.746 89.041 m f
0.501961 0.45098 0.454902 rg
71.234 356.174 115.758 -356.176 re f
0.25098 0.227451 0.227451 rg
173.633 356.174 26.715 -356.176 re f
1 0.721569 0.2 rg
240.418 164.729 m 240.418 138.018 l 186.992 138.018 l 178.086 151.373 l
 186.992 164.729 l h
240.418 164.729 m f
1 0.831373 0.521569 rg
133.566 164.729 53.426 -26.711 re f
1 0.721569 0.2 rg
240.418 271.58 m 240.418 244.87 l 186.992 244.87 l 178.086 258.225 l 186.992
 271.58 l h
240.418 271.58 m f
1 0.831373 0.521569 rg
133.566 271.58 53.426 -26.711 re f
1 0.721569 0.2 rg
240.418 218.159 m 240.418 191.444 l 186.992 191.444 l 178.086 204.799 l
 186.992 218.159 l h
240.418 218.159 m f
1 0.831373 0.521569 rg
133.566 218.159 53.426 -26.715 re f
Q Q
showpage
%%Trailer
end restore
%%EOF
