%!PS-Adobe-3.0 EPSF-3.0
%%Creator: cairo 1.14.2 (http://cairographics.org)
%%CreationDate: Wed Aug 17 12:26:47 2016
%%Pages: 1
%%DocumentData: Clean7Bit
%%LanguageLevel: 2
%%BoundingBox: 0 -1 410 406
%%EndComments
%%BeginProlog
save
50 dict begin
/q { gsave } bind def
/Q { grestore } bind def
/cm { 6 array astore concat } bind def
/w { setlinewidth } bind def
/J { setlinecap } bind def
/j { setlinejoin } bind def
/M { setmiterlimit } bind def
/d { setdash } bind def
/m { moveto } bind def
/l { lineto } bind def
/c { curveto } bind def
/h { closepath } bind def
/re { exch dup neg 3 1 roll 5 3 roll moveto 0 rlineto
      0 exch rlineto 0 rlineto closepath } bind def
/S { stroke } bind def
/f { fill } bind def
/f* { eofill } bind def
/n { newpath } bind def
/W { clip } bind def
/W* { eoclip } bind def
/BT { } bind def
/ET { } bind def
/pdfmark where { pop globaldict /?pdfmark /exec load put }
    { globaldict begin /?pdfmark /pop load def /pdfmark
    /cleartomark load def end } ifelse
/BDC { mark 3 1 roll /BDC pdfmark } bind def
/EMC { mark /EMC pdfmark } bind def
/cairo_store_point { /cairo_point_y exch def /cairo_point_x exch def } def
/Tj { show currentpoint cairo_store_point } bind def
/TJ {
  {
    dup
    type /stringtype eq
    { show } { -0.001 mul 0 cairo_font_matrix dtransform rmoveto } ifelse
  } forall
  currentpoint cairo_store_point
} bind def
/cairo_selectfont { cairo_font_matrix aload pop pop pop 0 0 6 array astore
    cairo_font exch selectfont cairo_point_x cairo_point_y moveto } bind def
/Tf { pop /cairo_font exch def /cairo_font_matrix where
      { pop cairo_selectfont } if } bind def
/Td { matrix translate cairo_font_matrix matrix concatmatrix dup
      /cairo_font_matrix exch def dup 4 get exch 5 get cairo_store_point
      /cairo_font where { pop cairo_selectfont } if } bind def
/Tm { 2 copy 8 2 roll 6 array astore /cairo_font_matrix exch def
      cairo_store_point /cairo_font where { pop cairo_selectfont } if } bind def
/g { setgray } bind def
/rg { setrgbcolor } bind def
/d1 { setcachedevice } bind def
%%EndProlog
%%BeginSetup
%%EndSetup
%%Page: 1 1
%%BeginPageSetup
%%PageBoundingBox: 0 -1 410 406
%%EndPageSetup
q 0 -1 410 407 rectclip q
0.25098 0.227451 0.227451 rg
204.801 262.679 26.711 -53.43 re f
0.376471 0.341176 0.341176 rg
178.086 276.035 80.141 -26.715 re f
167.262 405.148 m 121.426 405.148 85.262 390.257 65.434 363.222 c 48.055
 339.527 44.332 307.918 54.949 274.207 c 65.445 240.878 75.363 209.394 76.781
 173.242 c 76.781 71.234 l 103.492 71.234 l 103.492 173.5 l 103.484 174.007
 l 101.965 213.851 91.016 248.617 80.426 282.234 c 72.316 307.984 74.578
 330.527 86.973 347.425 c 101.641 367.421 130.152 378.433 167.262 378.433
 c 218.156 378.433 l 227.062 391.793 l 218.156 405.148 l h
167.262 405.148 m f
0.25098 0.227451 0.227451 rg
370.879 363.222 m 351.051 390.257 314.887 405.148 269.051 405.148 c 218.156
 405.148 l 218.156 378.433 l 269.051 378.433 l 306.16 378.433 334.672 367.421
 349.34 347.425 c 361.734 330.527 364 307.984 355.887 282.234 c 345.297 
248.617 334.348 213.851 332.832 174.007 c 332.82 173.753 l 332.82 71.234
 l 359.535 71.234 l 359.535 173.242 l 360.949 209.394 370.867 240.878 381.367
 274.207 c 391.98 307.918 388.262 339.527 370.879 363.222 c h
370.879 363.222 m f
0.752941 0.0784314 0.109804 rg
409.602 31.164 m 409.602 136.894 323.887 222.609 218.156 222.609 c 200.348
 111.304 l 218.156 -0 l 409.602 -0 l h
409.602 31.164 m f
1 0.101961 0.14902 rg
218.156 222.609 m 152.707 222.609 94.941 189.757 60.414 139.656 c 20.445
 156.211 l 0 106.851 l 36.5 91.734 l 30.156 72.695 26.711 52.336 26.711 
31.168 c 26.711 -0 l 218.156 -0 l 218.156 169.183 l 251.031 169.183 280.93
 181.918 303.203 202.711 c 277.582 215.441 248.707 222.609 218.156 222.609
 c h
218.156 222.609 m f
1 0.282353 0.317647 rg
218.156 222.609 m 187.605 222.609 158.73 215.441 133.109 202.711 c 155.383
 181.914 185.281 169.183 218.156 169.183 c f
Q Q
showpage
%%Trailer
end restore
%%EOF
