%!PS-Adobe-3.0 EPSF-3.0
%%Creator: cairo 1.14.2 (http://cairographics.org)
%%CreationDate: Wed Aug 17 12:24:36 2016
%%Pages: 1
%%DocumentData: Clean7Bit
%%LanguageLevel: 2
%%BoundingBox: 0 -1 363 410
%%EndComments
%%BeginProlog
save
50 dict begin
/q { gsave } bind def
/Q { grestore } bind def
/cm { 6 array astore concat } bind def
/w { setlinewidth } bind def
/J { setlinecap } bind def
/j { setlinejoin } bind def
/M { setmiterlimit } bind def
/d { setdash } bind def
/m { moveto } bind def
/l { lineto } bind def
/c { curveto } bind def
/h { closepath } bind def
/re { exch dup neg 3 1 roll 5 3 roll moveto 0 rlineto
      0 exch rlineto 0 rlineto closepath } bind def
/S { stroke } bind def
/f { fill } bind def
/f* { eofill } bind def
/n { newpath } bind def
/W { clip } bind def
/W* { eoclip } bind def
/BT { } bind def
/ET { } bind def
/pdfmark where { pop globaldict /?pdfmark /exec load put }
    { globaldict begin /?pdfmark /pop load def /pdfmark
    /cleartomark load def end } ifelse
/BDC { mark 3 1 roll /BDC pdfmark } bind def
/EMC { mark /EMC pdfmark } bind def
/cairo_store_point { /cairo_point_y exch def /cairo_point_x exch def } def
/Tj { show currentpoint cairo_store_point } bind def
/TJ {
  {
    dup
    type /stringtype eq
    { show } { -0.001 mul 0 cairo_font_matrix dtransform rmoveto } ifelse
  } forall
  currentpoint cairo_store_point
} bind def
/cairo_selectfont { cairo_font_matrix aload pop pop pop 0 0 6 array astore
    cairo_font exch selectfont cairo_point_x cairo_point_y moveto } bind def
/Tf { pop /cairo_font exch def /cairo_font_matrix where
      { pop cairo_selectfont } if } bind def
/Td { matrix translate cairo_font_matrix matrix concatmatrix dup
      /cairo_font_matrix exch def dup 4 get exch 5 get cairo_store_point
      /cairo_font where { pop cairo_selectfont } if } bind def
/Tm { 2 copy 8 2 roll 6 array astore /cairo_font_matrix exch def
      cairo_store_point /cairo_font where { pop cairo_selectfont } if } bind def
/g { setgray } bind def
/rg { setrgbcolor } bind def
/d1 { setcachedevice } bind def
%%EndProlog
%%BeginSetup
%%EndSetup
%%Page: 1 1
%%BeginPageSetup
%%PageBoundingBox: 0 -1 363 410
%%EndPageSetup
q 0 -1 363 411 rectclip q
1 0.721569 0.2 rg
207.918 382.889 m 207.918 338.366 l 172.211 338.366 l 181.113 409.6 l 181.203
 409.6 l 195.957 409.6 207.918 397.643 207.918 382.889 c h
207.918 382.889 m f
1 0.831373 0.521569 rg
181.113 409.6 m 181.113 338.366 l 154.492 338.366 l 154.492 382.889 l 154.492
 397.616 166.406 409.557 181.113 409.6 c h
181.113 409.6 m f
0.301961 0.862745 0.827451 rg
283.602 204.799 m 283.602 151.373 l 172.211 142.471 l 181.113 204.799 l
 h
283.602 204.799 m f
0.6 0.921569 0.901961 rg
181.113 204.799 m 181.113 142.471 l 78.805 151.373 l 78.805 204.799 l h
181.113 204.799 m f
0.376471 0.341176 0.341176 rg
181.113 347.268 m 172.211 284.94 l 221.273 293.842 l 221.273 347.268 l 
h
181.113 347.268 m f
0.501961 0.45098 0.454902 rg
141.133 347.268 m 141.133 293.842 l 181.113 284.94 l 181.113 347.268 l 
h
141.133 347.268 m f
0.752941 0.0784314 0.109804 rg
163.305 97.948 m 181.113 48.975 l 194.473 -0.002 l 221.184 -0.002 l 234.539
 8.905 l 247.898 -0.002 l 322.16 -0.002 l 322.16 97.948 l h
163.305 97.948 m f
0 0.8 0.756863 rg
283.602 151.373 m 181.113 151.373 l 172.211 97.948 l 348.871 97.948 l 323.559
 112.151 301.254 130.299 283.602 151.373 c h
283.602 151.373 m f
221.273 293.842 m 181.113 293.842 l 172.211 204.799 l 310.316 204.799 l
 271.652 226.483 240.016 257.397 221.273 293.842 c h
221.273 293.842 m f
1 0.101961 0.14902 rg
40.258 97.948 m 40.258 -0.002 l 114.332 -0.002 l 127.688 8.905 l 141.043
 -0.002 l 181.113 -0.002 l 181.113 97.948 l h
40.258 97.948 m f
0.301961 0.862745 0.827451 rg
78.805 151.373 m 61.164 130.295 38.859 112.151 13.543 97.948 c 181.113 
97.948 l 181.113 151.373 l h
78.805 151.373 m f
141.133 293.842 m 122.398 257.397 90.762 226.483 52.09 204.799 c 181.113
 204.799 l 181.113 293.842 l h
141.133 293.842 m f
0.501961 0.0509804 0.0745098 rg
114.332 48.975 26.711 -48.977 re f
167.758 48.975 26.711 -48.977 re f
221.184 48.975 26.715 -48.977 re f
362.23 111.303 m 362.23 84.592 l 181.113 84.592 l 172.211 97.948 l 181.113
 111.303 l h
362.23 111.303 m f
323.586 218.159 m 323.586 191.444 l 181.113 191.444 l 172.211 204.799 l
 181.113 218.159 l h
323.586 218.159 m f
0.752941 0.0784314 0.109804 rg
0 111.303 181.113 -26.711 re f
38.645 218.159 142.469 -26.715 re f
Q Q
showpage
%%Trailer
end restore
%%EOF
