%!PS-Adobe-3.0 EPSF-3.0
%%Creator: cairo 1.14.2 (http://cairographics.org)
%%CreationDate: Wed Aug 17 12:27:17 2016
%%Pages: 1
%%DocumentData: Clean7Bit
%%LanguageLevel: 2
%%BoundingBox: 0 -1 410 397
%%EndComments
%%BeginProlog
save
50 dict begin
/q { gsave } bind def
/Q { grestore } bind def
/cm { 6 array astore concat } bind def
/w { setlinewidth } bind def
/J { setlinecap } bind def
/j { setlinejoin } bind def
/M { setmiterlimit } bind def
/d { setdash } bind def
/m { moveto } bind def
/l { lineto } bind def
/c { curveto } bind def
/h { closepath } bind def
/re { exch dup neg 3 1 roll 5 3 roll moveto 0 rlineto
      0 exch rlineto 0 rlineto closepath } bind def
/S { stroke } bind def
/f { fill } bind def
/f* { eofill } bind def
/n { newpath } bind def
/W { clip } bind def
/W* { eoclip } bind def
/BT { } bind def
/ET { } bind def
/pdfmark where { pop globaldict /?pdfmark /exec load put }
    { globaldict begin /?pdfmark /pop load def /pdfmark
    /cleartomark load def end } ifelse
/BDC { mark 3 1 roll /BDC pdfmark } bind def
/EMC { mark /EMC pdfmark } bind def
/cairo_store_point { /cairo_point_y exch def /cairo_point_x exch def } def
/Tj { show currentpoint cairo_store_point } bind def
/TJ {
  {
    dup
    type /stringtype eq
    { show } { -0.001 mul 0 cairo_font_matrix dtransform rmoveto } ifelse
  } forall
  currentpoint cairo_store_point
} bind def
/cairo_selectfont { cairo_font_matrix aload pop pop pop 0 0 6 array astore
    cairo_font exch selectfont cairo_point_x cairo_point_y moveto } bind def
/Tf { pop /cairo_font exch def /cairo_font_matrix where
      { pop cairo_selectfont } if } bind def
/Td { matrix translate cairo_font_matrix matrix concatmatrix dup
      /cairo_font_matrix exch def dup 4 get exch 5 get cairo_store_point
      /cairo_font where { pop cairo_selectfont } if } bind def
/Tm { 2 copy 8 2 roll 6 array astore /cairo_font_matrix exch def
      cairo_store_point /cairo_font where { pop cairo_selectfont } if } bind def
/g { setgray } bind def
/rg { setrgbcolor } bind def
/d1 { setcachedevice } bind def
%%EndProlog
%%BeginSetup
%%EndSetup
%%Page: 1 1
%%BeginPageSetup
%%PageBoundingBox: 0 -1 410 397
%%EndPageSetup
q 0 -1 410 398 rectclip q
0.607843 0.701961 0.207843 rg
244.871 289.392 m 218.156 289.392 l 218.156 301.446 221.543 308.224 224.02
 313.173 c 225.914 316.966 227.062 319.255 227.062 325.005 c 227.062 330.755
 225.914 333.048 224.02 336.841 c 221.543 341.79 218.156 348.567 218.156
 360.622 c 218.156 372.681 221.543 379.458 224.02 384.407 c 225.914 388.2
 227.062 390.489 227.062 396.243 c 253.773 396.243 l 253.773 384.185 250.387
 377.407 247.91 372.462 c 246.016 368.665 244.871 366.376 244.871 360.622
 c 244.871 354.872 246.016 352.583 247.91 348.786 c 250.387 343.841 253.773
 337.064 253.773 325.005 c 253.773 312.946 250.387 306.173 247.91 301.224
 c 246.016 297.431 244.871 295.142 244.871 289.392 c h
244.871 289.392 m f
1 0.721569 0.2 rg
182.539 289.392 m 155.828 289.392 l 155.828 301.446 159.215 308.224 161.688
 313.173 c 163.586 316.966 164.73 319.255 164.73 325.005 c 164.73 330.755
 163.586 333.048 161.688 336.841 c 159.215 341.79 155.828 348.567 155.828
 360.622 c 155.828 372.681 159.215 379.458 161.688 384.407 c 163.586 388.2
 164.73 390.489 164.73 396.243 c 191.441 396.243 l 191.441 384.185 188.055
 377.407 185.582 372.462 c 183.684 368.665 182.539 366.376 182.539 360.622
 c 182.539 354.872 183.684 352.583 185.582 348.786 c 188.055 343.841 191.441
 337.064 191.441 325.005 c 191.441 312.946 188.055 306.173 185.582 301.224
 c 183.684 297.431 182.539 295.142 182.539 289.392 c h
182.539 289.392 m f
222.609 169.181 m 204.801 258.224 l 115.758 258.224 l 115.758 169.181 l
 26.711 169.181 l 26.711 62.329 l 133.566 62.329 l h
222.609 169.181 m f
1 0.513726 0.184314 rg
293.844 169.181 m 293.844 258.224 l 204.801 258.224 l 204.801 169.181 l
 115.758 169.181 l 115.758 62.329 l 382.887 62.329 l 382.887 169.181 l h
293.844 169.181 m f
1 0.309804 0.164706 rg
204.801 169.181 89.043 -106.852 re f
0.6 0.921569 0.901961 rg
0 80.138 m 26.711 0.001 l 204.801 0.001 l 222.609 40.071 l 204.801 80.138
 l h
0 80.138 m f
0.301961 0.862745 0.827451 rg
204.801 80.138 m 204.801 0.001 l 382.887 0.001 l 409.602 80.138 l h
204.801 80.138 m f
Q Q
showpage
%%Trailer
end restore
%%EOF
