%!PS-Adobe-3.0 EPSF-3.0
%%Creator: cairo 1.14.2 (http://cairographics.org)
%%CreationDate: Wed Aug 17 12:22:23 2016
%%Pages: 1
%%DocumentData: Clean7Bit
%%LanguageLevel: 2
%%BoundingBox: 0 -1 410 410
%%EndComments
%%BeginProlog
save
50 dict begin
/q { gsave } bind def
/Q { grestore } bind def
/cm { 6 array astore concat } bind def
/w { setlinewidth } bind def
/J { setlinecap } bind def
/j { setlinejoin } bind def
/M { setmiterlimit } bind def
/d { setdash } bind def
/m { moveto } bind def
/l { lineto } bind def
/c { curveto } bind def
/h { closepath } bind def
/re { exch dup neg 3 1 roll 5 3 roll moveto 0 rlineto
      0 exch rlineto 0 rlineto closepath } bind def
/S { stroke } bind def
/f { fill } bind def
/f* { eofill } bind def
/n { newpath } bind def
/W { clip } bind def
/W* { eoclip } bind def
/BT { } bind def
/ET { } bind def
/pdfmark where { pop globaldict /?pdfmark /exec load put }
    { globaldict begin /?pdfmark /pop load def /pdfmark
    /cleartomark load def end } ifelse
/BDC { mark 3 1 roll /BDC pdfmark } bind def
/EMC { mark /EMC pdfmark } bind def
/cairo_store_point { /cairo_point_y exch def /cairo_point_x exch def } def
/Tj { show currentpoint cairo_store_point } bind def
/TJ {
  {
    dup
    type /stringtype eq
    { show } { -0.001 mul 0 cairo_font_matrix dtransform rmoveto } ifelse
  } forall
  currentpoint cairo_store_point
} bind def
/cairo_selectfont { cairo_font_matrix aload pop pop pop 0 0 6 array astore
    cairo_font exch selectfont cairo_point_x cairo_point_y moveto } bind def
/Tf { pop /cairo_font exch def /cairo_font_matrix where
      { pop cairo_selectfont } if } bind def
/Td { matrix translate cairo_font_matrix matrix concatmatrix dup
      /cairo_font_matrix exch def dup 4 get exch 5 get cairo_store_point
      /cairo_font where { pop cairo_selectfont } if } bind def
/Tm { 2 copy 8 2 roll 6 array astore /cairo_font_matrix exch def
      cairo_store_point /cairo_font where { pop cairo_selectfont } if } bind def
/g { setgray } bind def
/rg { setrgbcolor } bind def
/d1 { setcachedevice } bind def
%%EndProlog
%%BeginSetup
%%EndSetup
%%Page: 1 1
%%BeginPageSetup
%%PageBoundingBox: 0 -1 410 410
%%EndPageSetup
q 0 -1 410 411 rectclip q
1 0.831373 0.521569 rg
202.156 409.565 m 90.27 408.147 0 317.026 0 204.799 c 0 91.694 91.691 -0.002
 204.801 -0.002 c 205.684 -0.002 206.562 0.022 207.445 0.034 c 262.777 1.436
 333.914 46.729 333.914 102.401 c h
202.156 409.565 m f
0.752941 0.0784314 0.109804 rg
409.602 204.799 m 409.602 317.909 317.906 409.6 204.801 409.6 c 203.914
 409.6 203.039 409.577 202.156 409.565 c 146.824 408.163 102.398 362.87 
102.398 307.202 c 102.398 250.647 148.246 204.799 204.801 204.799 c 261.355
 204.799 307.199 158.955 307.199 102.401 c 307.199 46.729 262.777 1.436 
207.445 0.034 c 319.332 1.452 409.602 92.577 409.602 204.799 c h
409.602 204.799 m f
1 0.831373 0.521569 rg
231.512 307.202 m 231.512 292.448 219.555 280.487 204.801 280.487 c 190.047
 280.487 178.086 292.448 178.086 307.202 c 178.086 321.952 190.047 333.913
 204.801 333.913 c 219.555 333.913 231.512 321.952 231.512 307.202 c h
231.512 307.202 m f
0.752941 0.0784314 0.109804 rg
231.512 102.401 m 231.512 87.647 219.555 75.686 204.801 75.686 c 190.047
 75.686 178.086 87.647 178.086 102.401 c 178.086 117.155 190.047 129.112
 204.801 129.112 c 219.555 129.112 231.512 117.155 231.512 102.401 c h
231.512 102.401 m f
Q Q
showpage
%%Trailer
end restore
%%EOF
