%!PS-Adobe-3.0 EPSF-3.0
%%Creator: cairo 1.14.2 (http://cairographics.org)
%%CreationDate: Wed Aug 17 12:22:54 2016
%%Pages: 1
%%DocumentData: Clean7Bit
%%LanguageLevel: 2
%%BoundingBox: 0 -1 410 410
%%EndComments
%%BeginProlog
save
50 dict begin
/q { gsave } bind def
/Q { grestore } bind def
/cm { 6 array astore concat } bind def
/w { setlinewidth } bind def
/J { setlinecap } bind def
/j { setlinejoin } bind def
/M { setmiterlimit } bind def
/d { setdash } bind def
/m { moveto } bind def
/l { lineto } bind def
/c { curveto } bind def
/h { closepath } bind def
/re { exch dup neg 3 1 roll 5 3 roll moveto 0 rlineto
      0 exch rlineto 0 rlineto closepath } bind def
/S { stroke } bind def
/f { fill } bind def
/f* { eofill } bind def
/n { newpath } bind def
/W { clip } bind def
/W* { eoclip } bind def
/BT { } bind def
/ET { } bind def
/pdfmark where { pop globaldict /?pdfmark /exec load put }
    { globaldict begin /?pdfmark /pop load def /pdfmark
    /cleartomark load def end } ifelse
/BDC { mark 3 1 roll /BDC pdfmark } bind def
/EMC { mark /EMC pdfmark } bind def
/cairo_store_point { /cairo_point_y exch def /cairo_point_x exch def } def
/Tj { show currentpoint cairo_store_point } bind def
/TJ {
  {
    dup
    type /stringtype eq
    { show } { -0.001 mul 0 cairo_font_matrix dtransform rmoveto } ifelse
  } forall
  currentpoint cairo_store_point
} bind def
/cairo_selectfont { cairo_font_matrix aload pop pop pop 0 0 6 array astore
    cairo_font exch selectfont cairo_point_x cairo_point_y moveto } bind def
/Tf { pop /cairo_font exch def /cairo_font_matrix where
      { pop cairo_selectfont } if } bind def
/Td { matrix translate cairo_font_matrix matrix concatmatrix dup
      /cairo_font_matrix exch def dup 4 get exch 5 get cairo_store_point
      /cairo_font where { pop cairo_selectfont } if } bind def
/Tm { 2 copy 8 2 roll 6 array astore /cairo_font_matrix exch def
      cairo_store_point /cairo_font where { pop cairo_selectfont } if } bind def
/g { setgray } bind def
/rg { setrgbcolor } bind def
/d1 { setcachedevice } bind def
%%EndProlog
%%BeginSetup
%%EndSetup
%%Page: 1 1
%%BeginPageSetup
%%PageBoundingBox: 0 -1 410 410
%%EndPageSetup
q 0 -1 410 411 rectclip q
1 0.513726 0.184314 rg
80.141 204.799 m 80.141 273.538 136.062 329.459 204.801 329.459 c 222.609
 369.53 l 204.801 409.6 l 91.691 409.6 0 317.909 0 204.799 c 0 91.694 91.691
 -0.002 204.801 -0.002 c 222.609 40.069 l 204.801 80.139 l 136.062 80.139
 80.141 136.061 80.141 204.799 c h
80.141 204.799 m f
1 0.309804 0.164706 rg
204.801 409.6 m 204.801 329.459 l 273.539 329.459 329.461 273.538 329.461
 204.799 c 329.461 136.061 273.539 80.139 204.801 80.139 c 204.801 -0.002
 l 317.906 -0.002 409.602 91.694 409.602 204.799 c 409.602 317.909 317.906
 409.6 204.801 409.6 c h
204.801 409.6 m f
1 0.831373 0.521569 rg
164.73 164.729 m 164.73 244.87 l 204.801 244.87 l 222.609 300.522 l 204.801
 356.174 l 121.332 356.174 53.426 288.268 53.426 204.799 c 53.426 121.334
 121.332 53.428 204.801 53.428 c 222.609 109.077 l 204.801 164.729 l h
164.73 164.729 m f
1 0.721569 0.2 rg
204.801 356.174 m 204.801 244.87 l 244.871 244.87 l 244.871 164.729 l 204.801
 164.729 l 204.801 53.428 l 288.266 53.428 356.172 121.334 356.172 204.799
 c 356.172 288.268 288.266 356.174 204.801 356.174 c h
204.801 356.174 m f
Q Q
showpage
%%Trailer
end restore
%%EOF
