%!PS-Adobe-3.0 EPSF-3.0
%%Creator: cairo 1.14.2 (http://cairographics.org)
%%CreationDate: Wed Aug 17 12:23:59 2016
%%Pages: 1
%%DocumentData: Clean7Bit
%%LanguageLevel: 2
%%BoundingBox: 0 -1 270 410
%%EndComments
%%BeginProlog
save
50 dict begin
/q { gsave } bind def
/Q { grestore } bind def
/cm { 6 array astore concat } bind def
/w { setlinewidth } bind def
/J { setlinecap } bind def
/j { setlinejoin } bind def
/M { setmiterlimit } bind def
/d { setdash } bind def
/m { moveto } bind def
/l { lineto } bind def
/c { curveto } bind def
/h { closepath } bind def
/re { exch dup neg 3 1 roll 5 3 roll moveto 0 rlineto
      0 exch rlineto 0 rlineto closepath } bind def
/S { stroke } bind def
/f { fill } bind def
/f* { eofill } bind def
/n { newpath } bind def
/W { clip } bind def
/W* { eoclip } bind def
/BT { } bind def
/ET { } bind def
/pdfmark where { pop globaldict /?pdfmark /exec load put }
    { globaldict begin /?pdfmark /pop load def /pdfmark
    /cleartomark load def end } ifelse
/BDC { mark 3 1 roll /BDC pdfmark } bind def
/EMC { mark /EMC pdfmark } bind def
/cairo_store_point { /cairo_point_y exch def /cairo_point_x exch def } def
/Tj { show currentpoint cairo_store_point } bind def
/TJ {
  {
    dup
    type /stringtype eq
    { show } { -0.001 mul 0 cairo_font_matrix dtransform rmoveto } ifelse
  } forall
  currentpoint cairo_store_point
} bind def
/cairo_selectfont { cairo_font_matrix aload pop pop pop 0 0 6 array astore
    cairo_font exch selectfont cairo_point_x cairo_point_y moveto } bind def
/Tf { pop /cairo_font exch def /cairo_font_matrix where
      { pop cairo_selectfont } if } bind def
/Td { matrix translate cairo_font_matrix matrix concatmatrix dup
      /cairo_font_matrix exch def dup 4 get exch 5 get cairo_store_point
      /cairo_font where { pop cairo_selectfont } if } bind def
/Tm { 2 copy 8 2 roll 6 array astore /cairo_font_matrix exch def
      cairo_store_point /cairo_font where { pop cairo_selectfont } if } bind def
/g { setgray } bind def
/rg { setrgbcolor } bind def
/d1 { setcachedevice } bind def
%%EndProlog
%%BeginSetup
%%EndSetup
%%Page: 1 1
%%BeginPageSetup
%%PageBoundingBox: 0 -1 270 410
%%EndPageSetup
q 0 -1 270 411 rectclip q
1 0.721569 0.2 rg
133.551 367.362 m 0 378.483 l 2.219 405.104 l 135.77 393.979 l h
133.551 367.362 m f
2.223 325.049 m 0.004 351.67 l 133.555 362.807 l 135.773 336.186 l h
2.223 325.049 m f
1 0.309804 0.164706 rg
135.789 367.35 m 133.57 393.971 l 267.121 405.108 l 269.34 378.487 l h
135.789 367.35 m f
267.121 325.069 m 133.566 336.19 l 135.785 362.811 l 269.336 351.686 l 
h
267.121 325.069 m f
1 0.101961 0.14902 rg
107.953 320.557 m 107.953 237.745 l 161.379 237.745 l 161.379 320.557 l
 134.668 338.366 l h
107.953 320.557 m f
1 0.831373 0.521569 rg
1.102 133.565 m 1.102 59.799 60.898 -0.002 134.668 -0.002 c 152.477 133.565
 l 134.668 267.131 l 60.898 267.131 1.102 207.33 1.102 133.565 c h
1.102 133.565 m f
1 0.721569 0.2 rg
265.551 160.311 m 161.379 264.455 l 152.746 266.209 143.816 267.131 134.668
 267.131 c 134.668 -0.002 l 208.434 -0.002 268.23 59.799 268.23 133.565 
c 268.23 142.725 267.309 151.67 265.551 160.311 c h
265.551 160.311 m f
1 0.309804 0.164706 rg
265.551 160.311 m 254.918 212.631 213.703 253.834 161.379 264.455 c 162.809
 207.569 208.664 161.713 265.551 160.311 c h
265.551 160.311 m f
0.752941 0.0784314 0.109804 rg
90.145 93.495 89.043 -26.711 re f
107.953 409.6 53.426 -89.043 re f
Q Q
showpage
%%Trailer
end restore
%%EOF
