%!PS-Adobe-3.0 EPSF-3.0
%%Creator: cairo 1.14.2 (http://cairographics.org)
%%CreationDate: Wed Aug 17 12:23:40 2016
%%Pages: 1
%%DocumentData: Clean7Bit
%%LanguageLevel: 2
%%BoundingBox: 0 -1 397 410
%%EndComments
%%BeginProlog
save
50 dict begin
/q { gsave } bind def
/Q { grestore } bind def
/cm { 6 array astore concat } bind def
/w { setlinewidth } bind def
/J { setlinecap } bind def
/j { setlinejoin } bind def
/M { setmiterlimit } bind def
/d { setdash } bind def
/m { moveto } bind def
/l { lineto } bind def
/c { curveto } bind def
/h { closepath } bind def
/re { exch dup neg 3 1 roll 5 3 roll moveto 0 rlineto
      0 exch rlineto 0 rlineto closepath } bind def
/S { stroke } bind def
/f { fill } bind def
/f* { eofill } bind def
/n { newpath } bind def
/W { clip } bind def
/W* { eoclip } bind def
/BT { } bind def
/ET { } bind def
/pdfmark where { pop globaldict /?pdfmark /exec load put }
    { globaldict begin /?pdfmark /pop load def /pdfmark
    /cleartomark load def end } ifelse
/BDC { mark 3 1 roll /BDC pdfmark } bind def
/EMC { mark /EMC pdfmark } bind def
/cairo_store_point { /cairo_point_y exch def /cairo_point_x exch def } def
/Tj { show currentpoint cairo_store_point } bind def
/TJ {
  {
    dup
    type /stringtype eq
    { show } { -0.001 mul 0 cairo_font_matrix dtransform rmoveto } ifelse
  } forall
  currentpoint cairo_store_point
} bind def
/cairo_selectfont { cairo_font_matrix aload pop pop pop 0 0 6 array astore
    cairo_font exch selectfont cairo_point_x cairo_point_y moveto } bind def
/Tf { pop /cairo_font exch def /cairo_font_matrix where
      { pop cairo_selectfont } if } bind def
/Td { matrix translate cairo_font_matrix matrix concatmatrix dup
      /cairo_font_matrix exch def dup 4 get exch 5 get cairo_store_point
      /cairo_font where { pop cairo_selectfont } if } bind def
/Tm { 2 copy 8 2 roll 6 array astore /cairo_font_matrix exch def
      cairo_store_point /cairo_font where { pop cairo_selectfont } if } bind def
/g { setgray } bind def
/rg { setrgbcolor } bind def
/d1 { setcachedevice } bind def
%%EndProlog
%%BeginSetup
%%EndSetup
%%Page: 1 1
%%BeginPageSetup
%%PageBoundingBox: 0 -1 397 410
%%EndPageSetup
q 0 -1 397 411 rectclip q
0.376471 0.341176 0.341176 rg
118.57 396.666 25.867 -60.363 re f
118.57 211.268 25.867 -60.363 re f
0 409.6 m 0 383.729 l 198.332 383.729 l 206.957 396.666 l 198.332 409.6
 l h
0 409.6 m f
252.227 396.666 25.871 -60.363 re f
252.227 211.268 25.871 -60.363 re f
25.871 396.666 25.867 -396.668 re f
1 0.721569 0.2 rg
185.398 303.967 m 185.398 274.202 161.27 250.073 131.504 250.073 c 101.738
 250.073 77.609 274.202 77.609 303.967 c 77.609 333.733 101.738 357.862 
131.504 357.862 c 161.27 357.862 185.398 333.733 185.398 303.967 c h
185.398 303.967 m f
1 0.513726 0.184314 rg
319.059 303.967 m 319.059 274.202 294.926 250.073 265.164 250.073 c 235.398
 250.073 211.27 274.202 211.27 303.967 c 211.27 333.733 235.398 357.862 
265.164 357.862 c 294.926 357.862 319.059 333.733 319.059 303.967 c h
319.059 303.967 m f
0.376471 0.341176 0.341176 rg
0 224.202 m 0 198.334 l 198.332 198.334 l 206.957 211.268 l 198.332 224.202
 l h
0 224.202 m f
1 0.721569 0.2 rg
185.398 118.569 m 185.398 88.803 161.27 64.674 131.504 64.674 c 101.738
 64.674 77.609 88.803 77.609 118.569 c 77.609 148.334 101.738 172.463 131.504
 172.463 c 161.27 172.463 185.398 148.334 185.398 118.569 c h
185.398 118.569 m f
1 0.513726 0.184314 rg
319.059 118.569 m 319.059 88.803 294.926 64.674 265.164 64.674 c 235.398
 64.674 211.27 88.803 211.27 118.569 c 211.27 148.334 235.398 172.463 265.164
 172.463 c 294.926 172.463 319.059 148.334 319.059 118.569 c h
319.059 118.569 m f
0.25098 0.227451 0.227451 rg
198.332 409.6 m 396.664 409.6 l 396.664 383.729 l 198.332 383.729 l f
344.926 396.666 25.871 -396.668 re f
198.332 224.202 m 396.664 224.202 l 396.664 198.334 l 198.332 198.334 l
 f
Q Q
showpage
%%Trailer
end restore
%%EOF
